G04 #@! TF.GenerationSoftware,KiCad,Pcbnew,5.1.5+dfsg1-2build2*
G04 #@! TF.CreationDate,2022-05-18T11:17:39+01:00*
G04 #@! TF.ProjectId,khipuv2,6b686970-7576-4322-9e6b-696361645f70,rev?*
G04 #@! TF.SameCoordinates,Original*
G04 #@! TF.FileFunction,Profile,NP*
%FSLAX46Y46*%
G04 Gerber Fmt 4.6, Leading zero omitted, Abs format (unit mm)*
G04 Created by KiCad (PCBNEW 5.1.5+dfsg1-2build2) date 2022-05-18 11:17:39*
%MOMM*%
%LPD*%
G04 APERTURE LIST*
%ADD10C,0.200000*%
G04 APERTURE END LIST*
D10*
X123719981Y-133930360D02*
X123907387Y-133944304D01*
X123907387Y-133944304D02*
X124072283Y-133980675D01*
X124072283Y-133980675D02*
X124219541Y-134034155D01*
X124219541Y-134034155D02*
X124352657Y-134102032D01*
X124352657Y-134102032D02*
X124472810Y-134182359D01*
X124472810Y-134182359D02*
X124582951Y-134275994D01*
X124582951Y-134275994D02*
X124679917Y-134379611D01*
X124679917Y-134379611D02*
X124765504Y-134494911D01*
X124765504Y-134494911D02*
X124838787Y-134622176D01*
X124838787Y-134622176D02*
X124898749Y-134763258D01*
X124898749Y-134763258D02*
X124942764Y-134919469D01*
X124942764Y-134919469D02*
X124967187Y-135095405D01*
X124967187Y-135095405D02*
X124970034Y-135179894D01*
X126219570Y-149680302D02*
X126018917Y-149676994D01*
X126018917Y-149676994D02*
X125827081Y-149667642D01*
X125827081Y-149667642D02*
X125641603Y-149652784D01*
X125641603Y-149652784D02*
X125461273Y-149632790D01*
X125461273Y-149632790D02*
X125283752Y-149607691D01*
X125283752Y-149607691D02*
X125110238Y-149577882D01*
X125110238Y-149577882D02*
X124940741Y-149543640D01*
X124940741Y-149543640D02*
X124777513Y-149505785D01*
X124777513Y-149505785D02*
X124618252Y-149464139D01*
X124618252Y-149464139D02*
X124451927Y-149415567D01*
X124451927Y-149415567D02*
X124300700Y-149366782D01*
X124300700Y-149366782D02*
X124150173Y-149313741D01*
X124150173Y-149313741D02*
X124004700Y-149258106D01*
X124004700Y-149258106D02*
X123857920Y-149197487D01*
X123857920Y-149197487D02*
X123715194Y-149134079D01*
X123715194Y-149134079D02*
X123578533Y-149069103D01*
X123578533Y-149069103D02*
X123444801Y-149001332D01*
X123444801Y-149001332D02*
X123314008Y-148930898D01*
X123314008Y-148930898D02*
X123184204Y-148856774D01*
X123184204Y-148856774D02*
X123053573Y-148777745D01*
X123053573Y-148777745D02*
X122927970Y-148697379D01*
X122927970Y-148697379D02*
X122807304Y-148615934D01*
X122807304Y-148615934D02*
X122682368Y-148527009D01*
X122682368Y-148527009D02*
X122567863Y-148441183D01*
X122567863Y-148441183D02*
X122453744Y-148351304D01*
X122453744Y-148351304D02*
X122342734Y-148259474D01*
X122342734Y-148259474D02*
X122231467Y-148162809D01*
X122231467Y-148162809D02*
X122125087Y-148065787D01*
X122125087Y-148065787D02*
X122022674Y-147967844D01*
X122022674Y-147967844D02*
X121916317Y-147861080D01*
X121916317Y-147861080D02*
X121814178Y-147753341D01*
X121814178Y-147753341D02*
X121717678Y-147646481D01*
X121717678Y-147646481D02*
X121617944Y-147530418D01*
X121617944Y-147530418D02*
X121526054Y-147417978D01*
X121526054Y-147417978D02*
X121430055Y-147294316D01*
X121430055Y-147294316D02*
X121343808Y-147177278D01*
X121343808Y-147177278D02*
X121255906Y-147051573D01*
X121255906Y-147051573D02*
X121173607Y-146927344D01*
X121173607Y-146927344D02*
X121094333Y-146800979D01*
X121094333Y-146800979D02*
X121018140Y-146672531D01*
X121018140Y-146672531D02*
X120941290Y-146535075D01*
X120941290Y-146535075D02*
X120871062Y-146401499D01*
X120871062Y-146401499D02*
X120804612Y-146266996D01*
X120804612Y-146266996D02*
X120740051Y-146127497D01*
X120740051Y-146127497D02*
X120679425Y-145987148D01*
X120679425Y-145987148D02*
X120620232Y-145839638D01*
X120620232Y-145839638D02*
X120563326Y-145685898D01*
X120563326Y-145685898D02*
X120511599Y-145533500D01*
X120511599Y-145533500D02*
X120463545Y-145378188D01*
X120463545Y-145378188D02*
X120419617Y-145221111D01*
X120419617Y-145221111D02*
X120379341Y-145060066D01*
X120379341Y-145060066D02*
X120342968Y-144895050D01*
X120342968Y-144895050D02*
X120310750Y-144726054D01*
X120310750Y-144726054D02*
X120281768Y-144544921D01*
X120281768Y-144544921D02*
X120258636Y-144365561D01*
X120258636Y-144365561D02*
X120240724Y-144183398D01*
X120240724Y-144183398D02*
X120228037Y-143994889D01*
X120228037Y-143994889D02*
X120221079Y-143798796D01*
X120221079Y-143798796D02*
X120219936Y-143680150D01*
X132719950Y-136429947D02*
X132907409Y-136443899D01*
X132907409Y-136443899D02*
X133072347Y-136480290D01*
X133072347Y-136480290D02*
X133223120Y-136535323D01*
X133223120Y-136535323D02*
X133356029Y-136603629D01*
X133356029Y-136603629D02*
X133476129Y-136684487D01*
X133476129Y-136684487D02*
X133584115Y-136776727D01*
X133584115Y-136776727D02*
X133682767Y-136882665D01*
X133682767Y-136882665D02*
X133768480Y-136999103D01*
X133768480Y-136999103D02*
X133841341Y-137126966D01*
X133841341Y-137126966D02*
X133900751Y-137268643D01*
X133900751Y-137268643D02*
X133944659Y-137428303D01*
X133944659Y-137428303D02*
X133967797Y-137605192D01*
X133967797Y-137605192D02*
X133970000Y-137680000D01*
X119719709Y-138930054D02*
X119532242Y-138916095D01*
X119532242Y-138916095D02*
X119367302Y-138879702D01*
X119367302Y-138879702D02*
X119220447Y-138826387D01*
X119220447Y-138826387D02*
X119086867Y-138758282D01*
X119086867Y-138758282D02*
X118966509Y-138677775D01*
X118966509Y-138677775D02*
X118858075Y-138585695D01*
X118858075Y-138585695D02*
X118760481Y-138481654D01*
X118760481Y-138481654D02*
X118674256Y-138365617D01*
X118674256Y-138365617D02*
X118600835Y-138238115D01*
X118600835Y-138238115D02*
X118540002Y-138094511D01*
X118540002Y-138094511D02*
X118496172Y-137937409D01*
X118496172Y-137937409D02*
X118472250Y-137761273D01*
X118472250Y-137761273D02*
X118469656Y-137680000D01*
X131469897Y-137680000D02*
X131483848Y-137492533D01*
X131483848Y-137492533D02*
X131520239Y-137327593D01*
X131520239Y-137327593D02*
X131573747Y-137180303D01*
X131573747Y-137180303D02*
X131641659Y-137047159D01*
X131641659Y-137047159D02*
X131722167Y-136926801D01*
X131722167Y-136926801D02*
X131817000Y-136815486D01*
X131817000Y-136815486D02*
X131921170Y-136718370D01*
X131921170Y-136718370D02*
X132039052Y-136631458D01*
X132039052Y-136631458D02*
X132166914Y-136558598D01*
X132166914Y-136558598D02*
X132314475Y-136497154D01*
X132314475Y-136497154D02*
X132474695Y-136453983D01*
X132474695Y-136453983D02*
X132653122Y-136431696D01*
X132653122Y-136431696D02*
X132719950Y-136429947D01*
X123719981Y-136429947D02*
X123532514Y-136415988D01*
X123532514Y-136415988D02*
X123367574Y-136379595D01*
X123367574Y-136379595D02*
X123220719Y-136326280D01*
X123220719Y-136326280D02*
X123087140Y-136258175D01*
X123087140Y-136258175D02*
X122966782Y-136177668D01*
X122966782Y-136177668D02*
X122858348Y-136085588D01*
X122858348Y-136085588D02*
X122760754Y-135981547D01*
X122760754Y-135981547D02*
X122674529Y-135865511D01*
X122674529Y-135865511D02*
X122601108Y-135738009D01*
X122601108Y-135738009D02*
X122540275Y-135594405D01*
X122540275Y-135594405D02*
X122496444Y-135437303D01*
X122496444Y-135437303D02*
X122472522Y-135261167D01*
X122472522Y-135261167D02*
X122469928Y-135179894D01*
X123719981Y-133930360D02*
X123719981Y-133930360D01*
X135719767Y-143679634D02*
X135719767Y-94646443D01*
X132719950Y-136429947D02*
X132719950Y-136429947D01*
X116719892Y-143679634D02*
X116722135Y-143888533D01*
X116722135Y-143888533D02*
X116728610Y-144090632D01*
X116728610Y-144090632D02*
X116739034Y-144287864D01*
X116739034Y-144287864D02*
X116753444Y-144484011D01*
X116753444Y-144484011D02*
X116771030Y-144671555D01*
X116771030Y-144671555D02*
X116791772Y-144854308D01*
X116791772Y-144854308D02*
X116815427Y-145032297D01*
X116815427Y-145032297D02*
X116842351Y-145209234D01*
X116842351Y-145209234D02*
X116872513Y-145385085D01*
X116872513Y-145385085D02*
X116905155Y-145556191D01*
X116905155Y-145556191D02*
X116940841Y-145726196D01*
X116940841Y-145726196D02*
X116979542Y-145895073D01*
X116979542Y-145895073D02*
X117022151Y-146066347D01*
X117022151Y-146066347D02*
X117064896Y-146225788D01*
X117064896Y-146225788D02*
X117110323Y-146384112D01*
X117110323Y-146384112D02*
X117158958Y-146543036D01*
X117158958Y-146543036D02*
X117213761Y-146711121D01*
X117213761Y-146711121D02*
X117265489Y-146860698D01*
X117265489Y-146860698D02*
X117319625Y-147009132D01*
X117319625Y-147009132D02*
X117375484Y-147154717D01*
X117375484Y-147154717D02*
X117437796Y-147309171D01*
X117437796Y-147309171D02*
X117498408Y-147452327D01*
X117498408Y-147452327D02*
X117560538Y-147592631D01*
X117560538Y-147592631D02*
X117624854Y-147731732D01*
X117624854Y-147731732D02*
X117690542Y-147867997D01*
X117690542Y-147867997D02*
X117761606Y-148009447D01*
X117761606Y-148009447D02*
X117831561Y-148143200D01*
X117831561Y-148143200D02*
X117902699Y-148274123D01*
X117902699Y-148274123D02*
X117981179Y-148413122D01*
X117981179Y-148413122D02*
X118057317Y-148542970D01*
X118057317Y-148542970D02*
X118137327Y-148674540D01*
X118137327Y-148674540D02*
X118215536Y-148798679D01*
X118215536Y-148798679D02*
X118297571Y-148924494D01*
X118297571Y-148924494D02*
X118379509Y-149045977D01*
X118379509Y-149045977D02*
X118477740Y-149186495D01*
X118477740Y-149186495D02*
X118572060Y-149316535D01*
X118572060Y-149316535D02*
X118659852Y-149433561D01*
X118659852Y-149433561D02*
X118747190Y-149546381D01*
X118747190Y-149546381D02*
X118836172Y-149657843D01*
X118836172Y-149657843D02*
X118926784Y-149767933D01*
X118926784Y-149767933D02*
X119019007Y-149876631D01*
X119019007Y-149876631D02*
X119112821Y-149983919D01*
X119112821Y-149983919D02*
X119208208Y-150089777D01*
X119208208Y-150089777D02*
X119305153Y-150194188D01*
X119305153Y-150194188D02*
X119403633Y-150297135D01*
X119403633Y-150297135D02*
X119503635Y-150398601D01*
X119503635Y-150398601D02*
X119605134Y-150498560D01*
X119605134Y-150498560D02*
X119708118Y-150597004D01*
X119708118Y-150597004D02*
X119812565Y-150693908D01*
X119812565Y-150693908D02*
X119918460Y-150789256D01*
X119918460Y-150789256D02*
X120025782Y-150883031D01*
X120025782Y-150883031D02*
X120134514Y-150975212D01*
X120134514Y-150975212D02*
X120244637Y-151065783D01*
X120244637Y-151065783D02*
X120356135Y-151154726D01*
X120356135Y-151154726D02*
X120483187Y-151252814D01*
X120483187Y-151252814D02*
X120606172Y-151344574D01*
X120606172Y-151344574D02*
X120733592Y-151436449D01*
X120733592Y-151436449D02*
X120853734Y-151520201D01*
X120853734Y-151520201D02*
X120975217Y-151602139D01*
X120975217Y-151602139D02*
X121098023Y-151682246D01*
X121098023Y-151682246D02*
X121234303Y-151768031D01*
X121234303Y-151768031D02*
X121359815Y-151844228D01*
X121359815Y-151844228D02*
X121486590Y-151918532D01*
X121486590Y-151918532D02*
X121617741Y-151992663D01*
X121617741Y-151992663D02*
X121753342Y-152066458D01*
X121753342Y-152066458D02*
X121887065Y-152136462D01*
X121887065Y-152136462D02*
X122020412Y-152203598D01*
X122020412Y-152203598D02*
X122164719Y-152273317D01*
X122164719Y-152273317D02*
X122302151Y-152336942D01*
X122302151Y-152336942D02*
X122454017Y-152404174D01*
X122454017Y-152404174D02*
X122607264Y-152468816D01*
X122607264Y-152468816D02*
X122753429Y-152527540D01*
X122753429Y-152527540D02*
X122902481Y-152584532D01*
X122902481Y-152584532D02*
X123051008Y-152638474D01*
X123051008Y-152638474D02*
X123205855Y-152691739D01*
X123205855Y-152691739D02*
X123358417Y-152741302D01*
X123358417Y-152741302D02*
X123515599Y-152789387D01*
X123515599Y-152789387D02*
X123679222Y-152836285D01*
X123679222Y-152836285D02*
X123851152Y-152882144D01*
X123851152Y-152882144D02*
X124015385Y-152922728D01*
X124015385Y-152922728D02*
X124178925Y-152960056D01*
X124178925Y-152960056D02*
X124361673Y-152998174D01*
X124361673Y-152998174D02*
X124534721Y-153030819D01*
X124534721Y-153030819D02*
X124716216Y-153061490D01*
X124716216Y-153061490D02*
X124897007Y-153088456D01*
X124897007Y-153088456D02*
X125078891Y-153112008D01*
X125078891Y-153112008D02*
X125259966Y-153131929D01*
X125259966Y-153131929D02*
X125445805Y-153148742D01*
X125445805Y-153148742D02*
X125634553Y-153162086D01*
X125634553Y-153162086D02*
X125828102Y-153171893D01*
X125828102Y-153171893D02*
X126026475Y-153177895D01*
X126026475Y-153177895D02*
X126220087Y-153179829D01*
X126219570Y-137680000D02*
X126419023Y-137683243D01*
X126419023Y-137683243D02*
X126621626Y-137693242D01*
X126621626Y-137693242D02*
X126811769Y-137708838D01*
X126811769Y-137708838D02*
X126991984Y-137729235D01*
X126991984Y-137729235D02*
X127167061Y-137754361D01*
X127167061Y-137754361D02*
X127343923Y-137785142D01*
X127343923Y-137785142D02*
X127521249Y-137821548D01*
X127521249Y-137821548D02*
X127685375Y-137860291D01*
X127685375Y-137860291D02*
X127847732Y-137903493D01*
X127847732Y-137903493D02*
X128006050Y-137950403D01*
X128006050Y-137950403D02*
X128158159Y-138000026D01*
X128158159Y-138000026D02*
X128319203Y-138057568D01*
X128319203Y-138057568D02*
X128463253Y-138113521D01*
X128463253Y-138113521D02*
X128607572Y-138173958D01*
X128607572Y-138173958D02*
X128753048Y-138239459D01*
X128753048Y-138239459D02*
X128888301Y-138304629D01*
X128888301Y-138304629D02*
X129021648Y-138373054D01*
X129021648Y-138373054D02*
X129153039Y-138444686D01*
X129153039Y-138444686D02*
X129282423Y-138519470D01*
X129282423Y-138519470D02*
X129406874Y-138595554D01*
X129406874Y-138595554D02*
X129530251Y-138675176D01*
X129530251Y-138675176D02*
X129653380Y-138758998D01*
X129653380Y-138758998D02*
X129777925Y-138848447D01*
X129777925Y-138848447D02*
X129893837Y-138936133D01*
X129893837Y-138936133D02*
X130012768Y-139030806D01*
X130012768Y-139030806D02*
X130124100Y-139123999D01*
X130124100Y-139123999D02*
X130232281Y-139219060D01*
X130232281Y-139219060D02*
X130337323Y-139315879D01*
X130337323Y-139315879D02*
X130444827Y-139419896D01*
X130444827Y-139419896D02*
X130551272Y-139528161D01*
X130551272Y-139528161D02*
X130650423Y-139634098D01*
X130650423Y-139634098D02*
X130746279Y-139741557D01*
X130746279Y-139741557D02*
X130839574Y-139851310D01*
X130839574Y-139851310D02*
X130930257Y-139963306D01*
X130930257Y-139963306D02*
X131020310Y-140080201D01*
X131020310Y-140080201D02*
X131106223Y-140197511D01*
X131106223Y-140197511D02*
X131191239Y-140319760D01*
X131191239Y-140319760D02*
X131270830Y-140440385D01*
X131270830Y-140440385D02*
X131348162Y-140563985D01*
X131348162Y-140563985D02*
X131423682Y-140691534D01*
X131423682Y-140691534D02*
X131498279Y-140825069D01*
X131498279Y-140825069D02*
X131567997Y-140957638D01*
X131567997Y-140957638D02*
X131634481Y-141092133D01*
X131634481Y-141092133D02*
X131699538Y-141232662D01*
X131699538Y-141232662D02*
X131760172Y-141373020D01*
X131760172Y-141373020D02*
X131818133Y-141517332D01*
X131818133Y-141517332D02*
X131873593Y-141666711D01*
X131873593Y-141666711D02*
X131926594Y-141822309D01*
X131926594Y-141822309D02*
X131978677Y-141990873D01*
X131978677Y-141990873D02*
X132023259Y-142151419D01*
X132023259Y-142151419D02*
X132063469Y-142313737D01*
X132063469Y-142313737D02*
X132099939Y-142481196D01*
X132099939Y-142481196D02*
X132132906Y-142657299D01*
X132132906Y-142657299D02*
X132161032Y-142837504D01*
X132161032Y-142837504D02*
X132183381Y-143015900D01*
X132183381Y-143015900D02*
X132200847Y-143200638D01*
X132200847Y-143200638D02*
X132212801Y-143389360D01*
X132212801Y-143389360D02*
X132218991Y-143585662D01*
X132218991Y-143585662D02*
X132219721Y-143680150D01*
X119719709Y-136429947D02*
X119907168Y-136443898D01*
X119907168Y-136443898D02*
X120072106Y-136480289D01*
X120072106Y-136480289D02*
X120222880Y-136535322D01*
X120222880Y-136535322D02*
X120355789Y-136603628D01*
X120355789Y-136603628D02*
X120475889Y-136684486D01*
X120475889Y-136684486D02*
X120583876Y-136776726D01*
X120583876Y-136776726D02*
X120682528Y-136882664D01*
X120682528Y-136882664D02*
X120768241Y-136999102D01*
X120768241Y-136999102D02*
X120841102Y-137126964D01*
X120841102Y-137126964D02*
X120900512Y-137268642D01*
X120900512Y-137268642D02*
X120944420Y-137428302D01*
X120944420Y-137428302D02*
X120967558Y-137605192D01*
X120967558Y-137605192D02*
X120969761Y-137680000D01*
X120219936Y-143680150D02*
X120223218Y-143479497D01*
X120223218Y-143479497D02*
X120232553Y-143287660D01*
X120232553Y-143287660D02*
X120247397Y-143102181D01*
X120247397Y-143102181D02*
X120267373Y-142921850D01*
X120267373Y-142921850D02*
X120292456Y-142744327D01*
X120292456Y-142744327D02*
X120322251Y-142570811D01*
X120322251Y-142570811D02*
X120356478Y-142401309D01*
X120356478Y-142401309D02*
X120394597Y-142236952D01*
X120394597Y-142236952D02*
X120437184Y-142074356D01*
X120437184Y-142074356D02*
X120482478Y-141919101D01*
X120482478Y-141919101D02*
X120531445Y-141766704D01*
X120531445Y-141766704D02*
X120583549Y-141618261D01*
X120583549Y-141618261D02*
X120640245Y-141469497D01*
X120640245Y-141469497D02*
X120699399Y-141325807D01*
X120699399Y-141325807D02*
X120762135Y-141184009D01*
X120762135Y-141184009D02*
X120831903Y-141037021D01*
X120831903Y-141037021D02*
X120901814Y-140899291D01*
X120901814Y-140899291D02*
X120973481Y-140766600D01*
X120973481Y-140766600D02*
X121047786Y-140636914D01*
X121047786Y-140636914D02*
X121125200Y-140509281D01*
X121125200Y-140509281D02*
X121203809Y-140386581D01*
X121203809Y-140386581D02*
X121285932Y-140265011D01*
X121285932Y-140265011D02*
X121378243Y-140135574D01*
X121378243Y-140135574D02*
X121464224Y-140021194D01*
X121464224Y-140021194D02*
X121553555Y-139908080D01*
X121553555Y-139908080D02*
X121648435Y-139793755D01*
X121648435Y-139793755D02*
X121752820Y-139674305D01*
X121752820Y-139674305D02*
X121868792Y-139548685D01*
X121868792Y-139548685D02*
X121968372Y-139446295D01*
X121968372Y-139446295D02*
X122075220Y-139341624D01*
X122075220Y-139341624D02*
X122180481Y-139243407D01*
X122180481Y-139243407D02*
X122291478Y-139144761D01*
X122291478Y-139144761D02*
X122400564Y-139052427D01*
X122400564Y-139052427D02*
X122517167Y-138958490D01*
X122517167Y-138958490D02*
X122634329Y-138868776D01*
X122634329Y-138868776D02*
X122750975Y-138783860D01*
X122750975Y-138783860D02*
X122870655Y-138701073D01*
X122870655Y-138701073D02*
X122991459Y-138621743D01*
X122991459Y-138621743D02*
X123115234Y-138544678D01*
X123115234Y-138544678D02*
X123242957Y-138469436D01*
X123242957Y-138469436D02*
X123372677Y-138397283D01*
X123372677Y-138397283D02*
X123510415Y-138325182D01*
X123510415Y-138325182D02*
X123646114Y-138258528D01*
X123646114Y-138258528D02*
X123794131Y-138190592D01*
X123794131Y-138190592D02*
X123935821Y-138130065D01*
X123935821Y-138130065D02*
X124080421Y-138072684D01*
X124080421Y-138072684D02*
X124227917Y-138018591D01*
X124227917Y-138018591D02*
X124379384Y-137967570D01*
X124379384Y-137967570D02*
X124542607Y-137917593D01*
X124542607Y-137917593D02*
X124699915Y-137874211D01*
X124699915Y-137874211D02*
X124862319Y-137834238D01*
X124862319Y-137834238D02*
X125027568Y-137798474D01*
X125027568Y-137798474D02*
X125196786Y-137766883D01*
X125196786Y-137766883D02*
X125374642Y-137739074D01*
X125374642Y-137739074D02*
X125556542Y-137716253D01*
X125556542Y-137716253D02*
X125740088Y-137698905D01*
X125740088Y-137698905D02*
X125932396Y-137686765D01*
X125932396Y-137686765D02*
X126133553Y-137680606D01*
X126133553Y-137680606D02*
X126219570Y-137680000D01*
X128719677Y-133930360D02*
X128907083Y-133944304D01*
X128907083Y-133944304D02*
X129071979Y-133980676D01*
X129071979Y-133980676D02*
X129219237Y-134034156D01*
X129219237Y-134034156D02*
X129352352Y-134102033D01*
X129352352Y-134102033D02*
X129472505Y-134182360D01*
X129472505Y-134182360D02*
X129582646Y-134275995D01*
X129582646Y-134275995D02*
X129679612Y-134379611D01*
X129679612Y-134379611D02*
X129765199Y-134494911D01*
X129765199Y-134494911D02*
X129838482Y-134622176D01*
X129838482Y-134622176D02*
X129898443Y-134763258D01*
X129898443Y-134763258D02*
X129942458Y-134919469D01*
X129942458Y-134919469D02*
X129966881Y-135095405D01*
X129966881Y-135095405D02*
X129969728Y-135179894D01*
X116719892Y-94646443D02*
X116719892Y-143679634D01*
X124970034Y-135179894D02*
X124956075Y-135367353D01*
X124956075Y-135367353D02*
X124919682Y-135532292D01*
X124919682Y-135532292D02*
X124866178Y-135679584D01*
X124866178Y-135679584D02*
X124798262Y-135812725D01*
X124798262Y-135812725D02*
X124718037Y-135932709D01*
X124718037Y-135932709D02*
X124625515Y-136041690D01*
X124625515Y-136041690D02*
X124521993Y-136138811D01*
X124521993Y-136138811D02*
X124406777Y-136224562D01*
X124406777Y-136224562D02*
X124279790Y-136297910D01*
X124279790Y-136297910D02*
X124139453Y-136357837D01*
X124139453Y-136357837D02*
X123982386Y-136402366D01*
X123982386Y-136402366D02*
X123805730Y-136427049D01*
X123805730Y-136427049D02*
X123719981Y-136429947D01*
X129969728Y-135179894D02*
X129955769Y-135367353D01*
X129955769Y-135367353D02*
X129919376Y-135532291D01*
X129919376Y-135532291D02*
X129865872Y-135679583D01*
X129865872Y-135679583D02*
X129797956Y-135812724D01*
X129797956Y-135812724D02*
X129717731Y-135932708D01*
X129717731Y-135932708D02*
X129625209Y-136041689D01*
X129625209Y-136041689D02*
X129521688Y-136138810D01*
X129521688Y-136138810D02*
X129406472Y-136224562D01*
X129406472Y-136224562D02*
X129279485Y-136297910D01*
X129279485Y-136297910D02*
X129139148Y-136357837D01*
X129139148Y-136357837D02*
X128982081Y-136402366D01*
X128982081Y-136402366D02*
X128805426Y-136427049D01*
X128805426Y-136427049D02*
X128719677Y-136429947D01*
X119719709Y-136429947D02*
X119719709Y-136429947D01*
X126220087Y-153179829D02*
X126428979Y-153177566D01*
X126428979Y-153177566D02*
X126631067Y-153171081D01*
X126631067Y-153171081D02*
X126824509Y-153160886D01*
X126824509Y-153160886D02*
X127013149Y-153147165D01*
X127013149Y-153147165D02*
X127197007Y-153130173D01*
X127197007Y-153130173D02*
X127383556Y-153109250D01*
X127383556Y-153109250D02*
X127580089Y-153083160D01*
X127580089Y-153083160D02*
X127756972Y-153056094D01*
X127756972Y-153056094D02*
X127932770Y-153025790D01*
X127932770Y-153025790D02*
X128107451Y-152992281D01*
X128107451Y-152992281D02*
X128277377Y-152956393D01*
X128277377Y-152956393D02*
X128442592Y-152918350D01*
X128442592Y-152918350D02*
X128603140Y-152878371D01*
X128603140Y-152878371D02*
X128766131Y-152834700D01*
X128766131Y-152834700D02*
X128934963Y-152786145D01*
X128934963Y-152786145D02*
X129092061Y-152737876D01*
X129092061Y-152737876D02*
X129247990Y-152686979D01*
X129247990Y-152686979D02*
X129402723Y-152633479D01*
X129402723Y-152633479D02*
X129556233Y-152577401D01*
X129556233Y-152577401D02*
X129701758Y-152521432D01*
X129701758Y-152521432D02*
X129846118Y-152463151D01*
X129846118Y-152463151D02*
X129989294Y-152402589D01*
X129989294Y-152402589D02*
X130127977Y-152341251D01*
X130127977Y-152341251D02*
X130278518Y-152271618D01*
X130278518Y-152271618D02*
X130414719Y-152205826D01*
X130414719Y-152205826D02*
X130549702Y-152137941D01*
X130549702Y-152137941D02*
X130689785Y-152064600D01*
X130689785Y-152064600D02*
X130822211Y-151992495D01*
X130822211Y-151992495D02*
X130953355Y-151918362D01*
X130953355Y-151918362D02*
X131083196Y-151842220D01*
X131083196Y-151842220D02*
X131208671Y-151765974D01*
X131208671Y-151765974D02*
X131332864Y-151687858D01*
X131332864Y-151687858D02*
X131455759Y-151607886D01*
X131455759Y-151607886D02*
X131577333Y-151526080D01*
X131577333Y-151526080D02*
X131700481Y-151440396D01*
X131700481Y-151440396D02*
X131822203Y-151352830D01*
X131822203Y-151352830D02*
X131939631Y-151265553D01*
X131939631Y-151265553D02*
X132052847Y-151178713D01*
X132052847Y-151178713D02*
X132164712Y-151090222D01*
X132164712Y-151090222D02*
X132275210Y-151000098D01*
X132275210Y-151000098D02*
X132384319Y-150908356D01*
X132384319Y-150908356D02*
X132497373Y-150810308D01*
X132497373Y-150810308D02*
X132603586Y-150715315D01*
X132603586Y-150715315D02*
X132708354Y-150618757D01*
X132708354Y-150618757D02*
X132811663Y-150520659D01*
X132811663Y-150520659D02*
X132913493Y-150421039D01*
X132913493Y-150421039D02*
X133013827Y-150319912D01*
X133013827Y-150319912D02*
X133112643Y-150217298D01*
X133112643Y-150217298D02*
X133209929Y-150113215D01*
X133209929Y-150113215D02*
X133305662Y-150007680D01*
X133305662Y-150007680D02*
X133399827Y-149900716D01*
X133399827Y-149900716D02*
X133492403Y-149792333D01*
X133492403Y-149792333D02*
X133583371Y-149682558D01*
X133583371Y-149682558D02*
X133672718Y-149571403D01*
X133672718Y-149571403D02*
X133760421Y-149458890D01*
X133760421Y-149458890D02*
X133850722Y-149339309D01*
X133850722Y-149339309D02*
X133945417Y-149209566D01*
X133945417Y-149209566D02*
X134029821Y-149089924D01*
X134029821Y-149089924D02*
X134114413Y-148965964D01*
X134114413Y-148965964D02*
X134197086Y-148840609D01*
X134197086Y-148840609D02*
X134275924Y-148716917D01*
X134275924Y-148716917D02*
X134352896Y-148591935D01*
X134352896Y-148591935D02*
X134429788Y-148462590D01*
X134429788Y-148462590D02*
X134502922Y-148335061D01*
X134502922Y-148335061D02*
X134577557Y-148199992D01*
X134577557Y-148199992D02*
X134655027Y-148054028D01*
X134655027Y-148054028D02*
X134723596Y-147919450D01*
X134723596Y-147919450D02*
X134791639Y-147780403D01*
X134791639Y-147780403D02*
X134860481Y-147633537D01*
X134860481Y-147633537D02*
X134928326Y-147482011D01*
X134928326Y-147482011D02*
X134992193Y-147332433D01*
X134992193Y-147332433D02*
X135053564Y-147181554D01*
X135053564Y-147181554D02*
X135109850Y-147036188D01*
X135109850Y-147036188D02*
X135168709Y-146875995D01*
X135168709Y-146875995D02*
X135221851Y-146723093D01*
X135221851Y-146723093D02*
X135272446Y-146569017D01*
X135272446Y-146569017D02*
X135321523Y-146410293D01*
X135321523Y-146410293D02*
X135366897Y-146253923D01*
X135366897Y-146253923D02*
X135411048Y-146091133D01*
X135411048Y-146091133D02*
X135454103Y-145920045D01*
X135454103Y-145920045D02*
X135493250Y-145751345D01*
X135493250Y-145751345D02*
X135530123Y-145577887D01*
X135530123Y-145577887D02*
X135563151Y-145406926D01*
X135563151Y-145406926D02*
X135593412Y-145233054D01*
X135593412Y-145233054D02*
X135621577Y-145050728D01*
X135621577Y-145050728D02*
X135647883Y-144854265D01*
X135647883Y-144854265D02*
X135670548Y-144652815D01*
X135670548Y-144652815D02*
X135687457Y-144468933D01*
X135687457Y-144468933D02*
X135701328Y-144276490D01*
X135701328Y-144276490D02*
X135711519Y-144079204D01*
X135711519Y-144079204D02*
X135717756Y-143877055D01*
X135717756Y-143877055D02*
X135719767Y-143679634D01*
X118469656Y-137680000D02*
X118483607Y-137492533D01*
X118483607Y-137492533D02*
X118519998Y-137327593D01*
X118519998Y-137327593D02*
X118573506Y-137180303D01*
X118573506Y-137180303D02*
X118641418Y-137047159D01*
X118641418Y-137047159D02*
X118721926Y-136926801D01*
X118721926Y-136926801D02*
X118816759Y-136815486D01*
X118816759Y-136815486D02*
X118920929Y-136718370D01*
X118920929Y-136718370D02*
X119038811Y-136631458D01*
X119038811Y-136631458D02*
X119166673Y-136558598D01*
X119166673Y-136558598D02*
X119314234Y-136497154D01*
X119314234Y-136497154D02*
X119474454Y-136453983D01*
X119474454Y-136453983D02*
X119652881Y-136431696D01*
X119652881Y-136431696D02*
X119719709Y-136429947D01*
X126219570Y-137680000D02*
X126219570Y-137680000D01*
X132219721Y-143680150D02*
X132216310Y-143884419D01*
X132216310Y-143884419D02*
X132206547Y-144081012D01*
X132206547Y-144081012D02*
X132191452Y-144266433D01*
X132191452Y-144266433D02*
X132169418Y-144460770D01*
X132169418Y-144460770D02*
X132143685Y-144638093D01*
X132143685Y-144638093D02*
X132113698Y-144809103D01*
X132113698Y-144809103D02*
X132078918Y-144978415D01*
X132078918Y-144978415D02*
X132040549Y-145141451D01*
X132040549Y-145141451D02*
X131998093Y-145301629D01*
X131998093Y-145301629D02*
X131952389Y-145456720D01*
X131952389Y-145456720D02*
X131901909Y-145612212D01*
X131901909Y-145612212D02*
X131847342Y-145765817D01*
X131847342Y-145765817D02*
X131790460Y-145913226D01*
X131790460Y-145913226D02*
X131731194Y-146055587D01*
X131731194Y-146055587D02*
X131669361Y-146194004D01*
X131669361Y-146194004D02*
X131599127Y-146340737D01*
X131599127Y-146340737D02*
X131530898Y-146474203D01*
X131530898Y-146474203D02*
X131455028Y-146613620D01*
X131455028Y-146613620D02*
X131380240Y-146743004D01*
X131380240Y-146743004D02*
X131299945Y-146874151D01*
X131299945Y-146874151D02*
X131219541Y-146998357D01*
X131219541Y-146998357D02*
X131135537Y-147121354D01*
X131135537Y-147121354D02*
X131050596Y-147239414D01*
X131050596Y-147239414D02*
X130963581Y-147354418D01*
X130963581Y-147354418D02*
X130863205Y-147480321D01*
X130863205Y-147480321D02*
X130761028Y-147601736D01*
X130761028Y-147601736D02*
X130666325Y-147708725D01*
X130666325Y-147708725D02*
X130564485Y-147818311D01*
X130564485Y-147818311D02*
X130464745Y-147920554D01*
X130464745Y-147920554D02*
X130357731Y-148025065D01*
X130357731Y-148025065D02*
X130252312Y-148123126D01*
X130252312Y-148123126D02*
X130141156Y-148221608D01*
X130141156Y-148221608D02*
X130031919Y-148313781D01*
X130031919Y-148313781D02*
X129911612Y-148410321D01*
X129911612Y-148410321D02*
X129796945Y-148497758D01*
X129796945Y-148497758D02*
X129676454Y-148585083D01*
X129676454Y-148585083D02*
X129557492Y-148666957D01*
X129557492Y-148666957D02*
X129429809Y-148750260D01*
X129429809Y-148750260D02*
X129305728Y-148826889D01*
X129305728Y-148826889D02*
X129176716Y-148902245D01*
X129176716Y-148902245D02*
X129045686Y-148974452D01*
X129045686Y-148974452D02*
X128912689Y-149043464D01*
X128912689Y-149043464D02*
X128772631Y-149111657D01*
X128772631Y-149111657D02*
X128625346Y-149178583D01*
X128625346Y-149178583D02*
X128484441Y-149238178D01*
X128484441Y-149238178D02*
X128336369Y-149296283D01*
X128336369Y-149296283D02*
X128188584Y-149349793D01*
X128188584Y-149349793D02*
X128037931Y-149399864D01*
X128037931Y-149399864D02*
X127883316Y-149446669D01*
X127883316Y-149446669D02*
X127725852Y-149489689D01*
X127725852Y-149489689D02*
X127564428Y-149529026D01*
X127564428Y-149529026D02*
X127399039Y-149564436D01*
X127399039Y-149564436D02*
X127229683Y-149595659D01*
X127229683Y-149595659D02*
X127055198Y-149622595D01*
X127055198Y-149622595D02*
X126874378Y-149644994D01*
X126874378Y-149644994D02*
X126688366Y-149662266D01*
X126688366Y-149662266D02*
X126498357Y-149673942D01*
X126498357Y-149673942D02*
X126294699Y-149679840D01*
X126294699Y-149679840D02*
X126219570Y-149680302D01*
X127469623Y-135179894D02*
X127483644Y-134992485D01*
X127483644Y-134992485D02*
X127520629Y-134825757D01*
X127520629Y-134825757D02*
X127574388Y-134678629D01*
X127574388Y-134678629D02*
X127644438Y-134542410D01*
X127644438Y-134542410D02*
X127725200Y-134422861D01*
X127725200Y-134422861D02*
X127817884Y-134314692D01*
X127817884Y-134314692D02*
X127922517Y-134217438D01*
X127922517Y-134217438D02*
X128038940Y-134131765D01*
X128038940Y-134131765D02*
X128166780Y-134058942D01*
X128166780Y-134058942D02*
X128312499Y-133998153D01*
X128312499Y-133998153D02*
X128470672Y-133955148D01*
X128470672Y-133955148D02*
X128648628Y-133932338D01*
X128648628Y-133932338D02*
X128719677Y-133930360D01*
X128719677Y-136429947D02*
X128532210Y-136415988D01*
X128532210Y-136415988D02*
X128367270Y-136379595D01*
X128367270Y-136379595D02*
X128220415Y-136326280D01*
X128220415Y-136326280D02*
X128086835Y-136258175D01*
X128086835Y-136258175D02*
X127966477Y-136177668D01*
X127966477Y-136177668D02*
X127858043Y-136085588D01*
X127858043Y-136085588D02*
X127760449Y-135981547D01*
X127760449Y-135981547D02*
X127674224Y-135865511D01*
X127674224Y-135865511D02*
X127600803Y-135738009D01*
X127600803Y-135738009D02*
X127539970Y-135594405D01*
X127539970Y-135594405D02*
X127496139Y-135437303D01*
X127496139Y-135437303D02*
X127472217Y-135261167D01*
X127472217Y-135261167D02*
X127469623Y-135179894D01*
X135719767Y-94646443D02*
X135715919Y-94447562D01*
X135715919Y-94447562D02*
X135704556Y-94251695D01*
X135704556Y-94251695D02*
X135686943Y-94067792D01*
X135686943Y-94067792D02*
X135663246Y-93888847D01*
X135663246Y-93888847D02*
X135634062Y-93715830D01*
X135634062Y-93715830D02*
X135599470Y-93546818D01*
X135599470Y-93546818D02*
X135560490Y-93384647D01*
X135560490Y-93384647D02*
X135514136Y-93217218D01*
X135514136Y-93217218D02*
X135465836Y-93063152D01*
X135465836Y-93063152D02*
X135413748Y-92913996D01*
X135413748Y-92913996D02*
X135357854Y-92768826D01*
X135357854Y-92768826D02*
X135297242Y-92625033D01*
X135297242Y-92625033D02*
X135233959Y-92487018D01*
X135233959Y-92487018D02*
X135163182Y-92344596D01*
X135163182Y-92344596D02*
X135091736Y-92211413D01*
X135091736Y-92211413D02*
X135018350Y-92083939D01*
X135018350Y-92083939D02*
X134941861Y-91959679D01*
X134941861Y-91959679D02*
X134862409Y-91838655D01*
X134862409Y-91838655D02*
X134779028Y-91719363D01*
X134779028Y-91719363D02*
X134693433Y-91604155D01*
X134693433Y-91604155D02*
X134603453Y-91490086D01*
X134603453Y-91490086D02*
X134512087Y-91380879D01*
X134512087Y-91380879D02*
X134417061Y-91273671D01*
X134417061Y-91273671D02*
X134319679Y-91169927D01*
X134319679Y-91169927D02*
X134218062Y-91067699D01*
X134218062Y-91067699D02*
X134114217Y-90969065D01*
X134114217Y-90969065D02*
X134005451Y-90871581D01*
X134005451Y-90871581D02*
X133893838Y-90777276D01*
X133893838Y-90777276D02*
X133782412Y-90688511D01*
X133782412Y-90688511D02*
X133665382Y-90600689D01*
X133665382Y-90600689D02*
X133546486Y-90516784D01*
X133546486Y-90516784D02*
X133420305Y-90433246D01*
X133420305Y-90433246D02*
X133293078Y-90354433D01*
X133293078Y-90354433D02*
X133161685Y-90278444D01*
X133161685Y-90278444D02*
X133031138Y-90208107D01*
X133031138Y-90208107D02*
X132886327Y-90135818D01*
X132886327Y-90135818D02*
X132738860Y-90068117D01*
X132738860Y-90068117D02*
X132597677Y-90008654D01*
X132597677Y-90008654D02*
X132451610Y-89952428D01*
X132451610Y-89952428D02*
X132299707Y-89899466D01*
X132299707Y-89899466D02*
X132134499Y-89848024D01*
X132134499Y-89848024D02*
X131959353Y-89800265D01*
X131959353Y-89800265D02*
X131796894Y-89762018D01*
X131796894Y-89762018D02*
X131628556Y-89728366D01*
X131628556Y-89728366D02*
X131454307Y-89699799D01*
X131454307Y-89699799D02*
X131274109Y-89676816D01*
X131274109Y-89676816D02*
X131087952Y-89659948D01*
X131087952Y-89659948D02*
X130896829Y-89649782D01*
X130896829Y-89649782D02*
X130720070Y-89646750D01*
X120969761Y-137680000D02*
X120955802Y-137867459D01*
X120955802Y-137867459D02*
X120919409Y-138032398D01*
X120919409Y-138032398D02*
X120865905Y-138179690D01*
X120865905Y-138179690D02*
X120797989Y-138312831D01*
X120797989Y-138312831D02*
X120717764Y-138432816D01*
X120717764Y-138432816D02*
X120625242Y-138541797D01*
X120625242Y-138541797D02*
X120521720Y-138638918D01*
X120521720Y-138638918D02*
X120406504Y-138724669D01*
X120406504Y-138724669D02*
X120279517Y-138798017D01*
X120279517Y-138798017D02*
X120139180Y-138857944D01*
X120139180Y-138857944D02*
X119982113Y-138902473D01*
X119982113Y-138902473D02*
X119805458Y-138927156D01*
X119805458Y-138927156D02*
X119719709Y-138930054D01*
X122469928Y-135179894D02*
X122483949Y-134992486D01*
X122483949Y-134992486D02*
X122520934Y-134825758D01*
X122520934Y-134825758D02*
X122574693Y-134678630D01*
X122574693Y-134678630D02*
X122644743Y-134542411D01*
X122644743Y-134542411D02*
X122725505Y-134422862D01*
X122725505Y-134422862D02*
X122818189Y-134314693D01*
X122818189Y-134314693D02*
X122922822Y-134217439D01*
X122922822Y-134217439D02*
X123039245Y-134131766D01*
X123039245Y-134131766D02*
X123167085Y-134058943D01*
X123167085Y-134058943D02*
X123312804Y-133998153D01*
X123312804Y-133998153D02*
X123470976Y-133955148D01*
X123470976Y-133955148D02*
X123648932Y-133932338D01*
X123648932Y-133932338D02*
X123719981Y-133930360D01*
X132719950Y-138930054D02*
X132532483Y-138916095D01*
X132532483Y-138916095D02*
X132367543Y-138879702D01*
X132367543Y-138879702D02*
X132220688Y-138826387D01*
X132220688Y-138826387D02*
X132087108Y-138758282D01*
X132087108Y-138758282D02*
X131966750Y-138677775D01*
X131966750Y-138677775D02*
X131858316Y-138585695D01*
X131858316Y-138585695D02*
X131760722Y-138481654D01*
X131760722Y-138481654D02*
X131674497Y-138365617D01*
X131674497Y-138365617D02*
X131601076Y-138238115D01*
X131601076Y-138238115D02*
X131540243Y-138094511D01*
X131540243Y-138094511D02*
X131496413Y-137937409D01*
X131496413Y-137937409D02*
X131472491Y-137761273D01*
X131472491Y-137761273D02*
X131469897Y-137680000D01*
X128719677Y-133930360D02*
X128719677Y-133930360D01*
X121720103Y-89646750D02*
X121513186Y-89650909D01*
X121513186Y-89650909D02*
X121320383Y-89662342D01*
X121320383Y-89662342D02*
X121130632Y-89680812D01*
X121130632Y-89680812D02*
X120946946Y-89705630D01*
X120946946Y-89705630D02*
X120773150Y-89735523D01*
X120773150Y-89735523D02*
X120605279Y-89770443D01*
X120605279Y-89770443D02*
X120439552Y-89810889D01*
X120439552Y-89810889D02*
X120279759Y-89855661D01*
X120279759Y-89855661D02*
X120125839Y-89904306D01*
X120125839Y-89904306D02*
X119976829Y-89956722D01*
X119976829Y-89956722D02*
X119831813Y-90012941D01*
X119831813Y-90012941D02*
X119690784Y-90072716D01*
X119690784Y-90072716D02*
X119553740Y-90135818D01*
X119553740Y-90135818D02*
X119414786Y-90205060D01*
X119414786Y-90205060D02*
X119278355Y-90278444D01*
X119278355Y-90278444D02*
X119150990Y-90352016D01*
X119150990Y-90352016D02*
X119022878Y-90431218D01*
X119022878Y-90431218D02*
X118901271Y-90511487D01*
X118901271Y-90511487D02*
X118782955Y-90594622D01*
X118782955Y-90594622D02*
X118666465Y-90681636D01*
X118666465Y-90681636D02*
X118549018Y-90774900D01*
X118549018Y-90774900D02*
X118440147Y-90866667D01*
X118440147Y-90866667D02*
X118333975Y-90961456D01*
X118333975Y-90961456D02*
X118229896Y-91059856D01*
X118229896Y-91059856D02*
X118129337Y-91160514D01*
X118129337Y-91160514D02*
X118022193Y-91274363D01*
X118022193Y-91274363D02*
X117927170Y-91381588D01*
X117927170Y-91381588D02*
X117834039Y-91492996D01*
X117834039Y-91492996D02*
X117745269Y-91605643D01*
X117745269Y-91605643D02*
X117658604Y-91722410D01*
X117658604Y-91722410D02*
X117575298Y-91841767D01*
X117575298Y-91841767D02*
X117494910Y-91964443D01*
X117494910Y-91964443D02*
X117417584Y-92090418D01*
X117417584Y-92090418D02*
X117344372Y-92218014D01*
X117344372Y-92218014D02*
X117274406Y-92348796D01*
X117274406Y-92348796D02*
X117207423Y-92483597D01*
X117207423Y-92483597D02*
X117144027Y-92621554D01*
X117144027Y-92621554D02*
X117084369Y-92762641D01*
X117084369Y-92762641D02*
X117028277Y-92907717D01*
X117028277Y-92907717D02*
X116976289Y-93055871D01*
X116976289Y-93055871D02*
X116927750Y-93209831D01*
X116927750Y-93209831D02*
X116882109Y-93373411D01*
X116882109Y-93373411D02*
X116842755Y-93535436D01*
X116842755Y-93535436D02*
X116807956Y-93703347D01*
X116807956Y-93703347D02*
X116777596Y-93881072D01*
X116777596Y-93881072D02*
X116753052Y-94064842D01*
X116753052Y-94064842D02*
X116734946Y-94253683D01*
X116734946Y-94253683D02*
X116723618Y-94450577D01*
X116723618Y-94450577D02*
X116719892Y-94646443D01*
X130720070Y-89646750D02*
X121720103Y-89646750D01*
X133970000Y-137680000D02*
X133956041Y-137867459D01*
X133956041Y-137867459D02*
X133919648Y-138032397D01*
X133919648Y-138032397D02*
X133866144Y-138179689D01*
X133866144Y-138179689D02*
X133798229Y-138312830D01*
X133798229Y-138312830D02*
X133718004Y-138432814D01*
X133718004Y-138432814D02*
X133625482Y-138541795D01*
X133625482Y-138541795D02*
X133521961Y-138638916D01*
X133521961Y-138638916D02*
X133406745Y-138724668D01*
X133406745Y-138724668D02*
X133279758Y-138798016D01*
X133279758Y-138798016D02*
X133139421Y-138857944D01*
X133139421Y-138857944D02*
X132982354Y-138902473D01*
X132982354Y-138902473D02*
X132805699Y-138927156D01*
X132805699Y-138927156D02*
X132719950Y-138930054D01*
M02*
