G04 #@! TF.GenerationSoftware,KiCad,Pcbnew,5.1.5+dfsg1-2build2*
G04 #@! TF.CreationDate,2023-07-27T16:55:20+01:00*
G04 #@! TF.ProjectId,khipuv2,6b686970-7576-4322-9e6b-696361645f70,rev?*
G04 #@! TF.SameCoordinates,Original*
G04 #@! TF.FileFunction,Other,Comment*
%FSLAX46Y46*%
G04 Gerber Fmt 4.6, Leading zero omitted, Abs format (unit mm)*
G04 Created by KiCad (PCBNEW 5.1.5+dfsg1-2build2) date 2023-07-27 16:55:20*
%MOMM*%
%LPD*%
G04 APERTURE LIST*
G04 APERTURE END LIST*
M02*
