G21         ; Set units to mm
G90         ; Absolute positioning
G1 Z0.9999999999999999 F2540      ; Move to clearance level

;
; Operation:    0
; Name:         
; Type:         Pocket
; Paths:        1
; Direction:    Conventional
; Cut Depth:    5
; Pass Depth:   0.75
; Plunge rate:  127
; Cut rate:     200
;

; Path 0
; Rapid to initial position
G1 X17.0002 Y71.1751 F2540
G1 Z0.0000
; plunge
G1 Z-0.7500 F127
; cut
G1 X15.1752 Y71.1751 F200
G1 X15.1752 Y75.0001
G1 X17.0002 Y75.0001
G1 X17.0002 Y71.1751
; Rapid to initial position
G1 X17.0002 Y71.1751 F2540
G1 Z-0.7500
; plunge
G1 Z-1.5000 F127
; cut
G1 X15.1752 Y71.1751 F200
G1 X15.1752 Y75.0001
G1 X17.0002 Y75.0001
G1 X17.0002 Y71.1751
; Rapid to initial position
G1 X17.0002 Y71.1751 F2540
G1 Z-1.5000
; plunge
G1 Z-2.2500 F127
; cut
G1 X15.1752 Y71.1751 F200
G1 X15.1752 Y75.0001
G1 X17.0002 Y75.0001
G1 X17.0002 Y71.1751
; Rapid to initial position
G1 X17.0002 Y71.1751 F2540
G1 Z-2.2500
; plunge
G1 Z-3.0000 F127
; cut
G1 X15.1752 Y71.1751 F200
G1 X15.1752 Y75.0001
G1 X17.0002 Y75.0001
G1 X17.0002 Y71.1751
; Rapid to initial position
G1 X17.0002 Y71.1751 F2540
G1 Z-3.0000
; plunge
G1 Z-3.7500 F127
; cut
G1 X15.1752 Y71.1751 F200
G1 X15.1752 Y75.0001
G1 X17.0002 Y75.0001
G1 X17.0002 Y71.1751
; Rapid to initial position
G1 X17.0002 Y71.1751 F2540
G1 Z-3.7500
; plunge
G1 Z-4.5000 F127
; cut
G1 X15.1752 Y71.1751 F200
G1 X15.1752 Y75.0001
G1 X17.0002 Y75.0001
G1 X17.0002 Y71.1751
; Rapid to initial position
G1 X17.0002 Y71.1751 F2540
G1 Z-4.5000
; plunge
G1 Z-5.0000 F127
; cut
G1 X15.1752 Y71.1751 F200
G1 X15.1752 Y75.0001
G1 X17.0002 Y75.0001
G1 X17.0002 Y71.1751
; Retract
G1 Z1.0000 F2540

;
; Operation:    1
; Name:         
; Type:         Pocket
; Paths:        1
; Direction:    Conventional
; Cut Depth:    5
; Pass Depth:   0.75
; Plunge rate:  127
; Cut rate:     200
;

; Path 0
; Rapid to initial position
G1 X19.0002 Y72.1751 F2540
G1 Z0.0000
; plunge
G1 Z-0.7500 F127
; cut
G1 X13.1752 Y72.1751 F200
G1 X13.1752 Y73.0001
G1 X19.0002 Y73.0001
G1 X19.0002 Y72.1751
; Rapid to initial position
G1 X19.0002 Y72.1751 F2540
G1 Z-0.7500
; plunge
G1 Z-1.5000 F127
; cut
G1 X13.1752 Y72.1751 F200
G1 X13.1752 Y73.0001
G1 X19.0002 Y73.0001
G1 X19.0002 Y72.1751
; Rapid to initial position
G1 X19.0002 Y72.1751 F2540
G1 Z-1.5000
; plunge
G1 Z-2.2500 F127
; cut
G1 X13.1752 Y72.1751 F200
G1 X13.1752 Y73.0001
G1 X19.0002 Y73.0001
G1 X19.0002 Y72.1751
; Rapid to initial position
G1 X19.0002 Y72.1751 F2540
G1 Z-2.2500
; plunge
G1 Z-3.0000 F127
; cut
G1 X13.1752 Y72.1751 F200
G1 X13.1752 Y73.0001
G1 X19.0002 Y73.0001
G1 X19.0002 Y72.1751
; Rapid to initial position
G1 X19.0002 Y72.1751 F2540
G1 Z-3.0000
; plunge
G1 Z-3.7500 F127
; cut
G1 X13.1752 Y72.1751 F200
G1 X13.1752 Y73.0001
G1 X19.0002 Y73.0001
G1 X19.0002 Y72.1751
; Rapid to initial position
G1 X19.0002 Y72.1751 F2540
G1 Z-3.7500
; plunge
G1 Z-4.5000 F127
; cut
G1 X13.1752 Y72.1751 F200
G1 X13.1752 Y73.0001
G1 X19.0002 Y73.0001
G1 X19.0002 Y72.1751
; Rapid to initial position
G1 X19.0002 Y72.1751 F2540
G1 Z-4.5000
; plunge
G1 Z-5.0000 F127
; cut
G1 X13.1752 Y72.1751 F200
G1 X13.1752 Y73.0001
G1 X19.0002 Y73.0001
G1 X19.0002 Y72.1751
; Retract
G1 Z1.0000 F2540

;
; Operation:    2
; Name:         
; Type:         Inside
; Paths:        1
; Direction:    Conventional
; Cut Depth:    6
; Pass Depth:   0.75
; Plunge rate:  127
; Cut rate:     200
;

; Path 0
; Rapid to initial position
G1 X22.0002 Y15.2651 F2540
G1 Z0.0000
; plunge
G1 Z-0.7500 F127
; cut
G1 X21.9992 Y15.2631 F200
G1 X21.9631 Y15.1808
G1 X21.9321 Y15.0965
G1 X21.9057 Y15.0106
G1 X21.8839 Y14.9217
G1 X21.8534 Y14.7803
G1 X21.8209 Y14.6441
G1 X21.7884 Y14.5204
G1 X21.7528 Y14.3957
G1 X21.7157 Y14.2756
G1 X21.6746 Y14.1526
G1 X21.6329 Y14.0355
G1 X21.5829 Y13.9050
G1 X21.5377 Y13.7940
G1 X21.4866 Y13.6766
G1 X21.4330 Y13.5598
G1 X21.3777 Y13.4455
G1 X21.3203 Y13.3340
G1 X21.2603 Y13.2230
G1 X21.1993 Y13.1153
G1 X21.1348 Y13.0073
G1 X21.0675 Y12.8996
G1 X20.9987 Y12.7950
G1 X20.9266 Y12.6898
G1 X20.8506 Y12.5842
G1 X20.7810 Y12.4915
G1 X20.7028 Y12.3919
G1 X20.6192 Y12.2895
G1 X20.5476 Y12.2062
G1 X20.4544 Y12.1016
G1 X20.3771 Y12.0188
G1 X20.2819 Y11.9205
G1 X20.2052 Y11.8450
G1 X20.1069 Y11.7518
G1 X20.0106 Y11.6644
G1 X19.9296 Y11.5941
G1 X19.8222 Y11.5042
G1 X19.7353 Y11.4348
G1 X19.6273 Y11.3520
G1 X19.5311 Y11.2817
G1 X19.4315 Y11.2118
G1 X19.3241 Y11.1397
G1 X19.2164 Y11.0708
G1 X19.1173 Y11.0104
G1 X19.0068 Y10.9461
G1 X18.9034 Y10.8887
G1 X18.7805 Y10.8237
G1 X18.6746 Y10.7706
G1 X18.5651 Y10.7188
G1 X18.4495 Y10.6670
G1 X18.3332 Y10.6177
G1 X18.2176 Y10.5715
G1 X18.0998 Y10.5275
G1 X17.9768 Y10.4844
G1 X17.8534 Y10.4442
G1 X17.7457 Y10.4115
G1 X17.6152 Y10.3751
G1 X17.4932 Y10.3439
G1 X17.3721 Y10.3154
G1 X17.2552 Y10.2911
G1 X17.1127 Y10.2641
G1 X16.9964 Y10.2448
G1 X16.8676 Y10.2263
G1 X16.7363 Y10.2105
G1 X16.6098 Y10.1981
G1 X16.4803 Y10.1879
G1 X16.3584 Y10.1813
G1 X16.2220 Y10.1768
G1 X16.0879 Y10.1755
G1 X15.9527 Y10.1768
G1 X15.8239 Y10.1813
G1 X15.6959 Y10.1884
G1 X15.5689 Y10.1984
G1 X15.4424 Y10.2111
G1 X15.3126 Y10.2271
G1 X15.1773 Y10.2464
G1 X15.0548 Y10.2667
G1 X14.9393 Y10.2888
G1 X14.8087 Y10.3162
G1 X14.6840 Y10.3454
G1 X14.5557 Y10.3784
G1 X14.4338 Y10.4125
G1 X14.3246 Y10.4458
G1 X14.2037 Y10.4851
G1 X14.0686 Y10.5326
G1 X13.9670 Y10.5707
G1 X13.8506 Y10.6172
G1 X13.7310 Y10.6680
G1 X13.6129 Y10.7211
G1 X13.5047 Y10.7724
G1 X13.3993 Y10.8252
G1 X13.2756 Y10.8908
G1 X13.1737 Y10.9471
G1 X13.0739 Y11.0056
G1 X12.9548 Y11.0785
G1 X12.8534 Y11.1432
G1 X12.7516 Y11.2118
G1 X12.6467 Y11.2852
G1 X12.5562 Y11.3518
G1 X12.4412 Y11.4399
G1 X12.3589 Y11.5057
G1 X12.2542 Y11.5933
G1 X12.1686 Y11.6677
G1 X12.0726 Y11.7549
G1 X11.9835 Y11.8394
G1 X11.8880 Y11.9337
G1 X11.8123 Y12.0119
G1 X11.7259 Y12.1049
G1 X11.6337 Y12.2083
G1 X11.5631 Y12.2906
G1 X11.4701 Y12.4043
G1 X11.4051 Y12.4874
G1 X11.3256 Y12.5928
G1 X11.2601 Y12.6845
G1 X11.1816 Y12.7988
G1 X11.1183 Y12.8951
G1 X11.0472 Y13.0089
G1 X10.9827 Y13.1168
G1 X10.9212 Y13.2253
G1 X10.8628 Y13.3335
G1 X10.8049 Y13.4465
G1 X10.7508 Y13.5578
G1 X10.6977 Y13.6736
G1 X10.6434 Y13.7998
G1 X10.5961 Y13.9151
G1 X10.5527 Y14.0284
G1 X10.5080 Y14.1539
G1 X10.4681 Y14.2733
G1 X10.4297 Y14.3975
G1 X10.3939 Y14.5235
G1 X10.3612 Y14.6482
G1 X10.3307 Y14.7749
G1 X10.2992 Y14.9217
G1 X10.2779 Y15.0091
G1 X10.2514 Y15.0950
G1 X10.2205 Y15.1790
G1 X10.1846 Y15.2616
G1 X10.1750 Y15.2806
G1 X10.1750 Y68.0001
G1 X22.0002 Y68.0001
G1 X22.0002 Y15.2651
; Rapid to initial position
G1 X22.0002 Y15.2651 F2540
G1 Z-0.7500
; plunge
G1 Z-1.5000 F127
; cut
G1 X21.9992 Y15.2631 F200
G1 X21.9631 Y15.1808
G1 X21.9321 Y15.0965
G1 X21.9057 Y15.0106
G1 X21.8839 Y14.9217
G1 X21.8534 Y14.7803
G1 X21.8209 Y14.6441
G1 X21.7884 Y14.5204
G1 X21.7528 Y14.3957
G1 X21.7157 Y14.2756
G1 X21.6746 Y14.1526
G1 X21.6329 Y14.0355
G1 X21.5829 Y13.9050
G1 X21.5377 Y13.7940
G1 X21.4866 Y13.6766
G1 X21.4330 Y13.5598
G1 X21.3777 Y13.4455
G1 X21.3203 Y13.3340
G1 X21.2603 Y13.2230
G1 X21.1993 Y13.1153
G1 X21.1348 Y13.0073
G1 X21.0675 Y12.8996
G1 X20.9987 Y12.7950
G1 X20.9266 Y12.6898
G1 X20.8506 Y12.5842
G1 X20.7810 Y12.4915
G1 X20.7028 Y12.3919
G1 X20.6192 Y12.2895
G1 X20.5476 Y12.2062
G1 X20.4544 Y12.1016
G1 X20.3771 Y12.0188
G1 X20.2819 Y11.9205
G1 X20.2052 Y11.8450
G1 X20.1069 Y11.7518
G1 X20.0106 Y11.6644
G1 X19.9296 Y11.5941
G1 X19.8222 Y11.5042
G1 X19.7353 Y11.4348
G1 X19.6273 Y11.3520
G1 X19.5311 Y11.2817
G1 X19.4315 Y11.2118
G1 X19.3241 Y11.1397
G1 X19.2164 Y11.0708
G1 X19.1173 Y11.0104
G1 X19.0068 Y10.9461
G1 X18.9034 Y10.8887
G1 X18.7805 Y10.8237
G1 X18.6746 Y10.7706
G1 X18.5651 Y10.7188
G1 X18.4495 Y10.6670
G1 X18.3332 Y10.6177
G1 X18.2176 Y10.5715
G1 X18.0998 Y10.5275
G1 X17.9768 Y10.4844
G1 X17.8534 Y10.4442
G1 X17.7457 Y10.4115
G1 X17.6152 Y10.3751
G1 X17.4932 Y10.3439
G1 X17.3721 Y10.3154
G1 X17.2552 Y10.2911
G1 X17.1127 Y10.2641
G1 X16.9964 Y10.2448
G1 X16.8676 Y10.2263
G1 X16.7363 Y10.2105
G1 X16.6098 Y10.1981
G1 X16.4803 Y10.1879
G1 X16.3584 Y10.1813
G1 X16.2220 Y10.1768
G1 X16.0879 Y10.1755
G1 X15.9527 Y10.1768
G1 X15.8239 Y10.1813
G1 X15.6959 Y10.1884
G1 X15.5689 Y10.1984
G1 X15.4424 Y10.2111
G1 X15.3126 Y10.2271
G1 X15.1773 Y10.2464
G1 X15.0548 Y10.2667
G1 X14.9393 Y10.2888
G1 X14.8087 Y10.3162
G1 X14.6840 Y10.3454
G1 X14.5557 Y10.3784
G1 X14.4338 Y10.4125
G1 X14.3246 Y10.4458
G1 X14.2037 Y10.4851
G1 X14.0686 Y10.5326
G1 X13.9670 Y10.5707
G1 X13.8506 Y10.6172
G1 X13.7310 Y10.6680
G1 X13.6129 Y10.7211
G1 X13.5047 Y10.7724
G1 X13.3993 Y10.8252
G1 X13.2756 Y10.8908
G1 X13.1737 Y10.9471
G1 X13.0739 Y11.0056
G1 X12.9548 Y11.0785
G1 X12.8534 Y11.1432
G1 X12.7516 Y11.2118
G1 X12.6467 Y11.2852
G1 X12.5562 Y11.3518
G1 X12.4412 Y11.4399
G1 X12.3589 Y11.5057
G1 X12.2542 Y11.5933
G1 X12.1686 Y11.6677
G1 X12.0726 Y11.7549
G1 X11.9835 Y11.8394
G1 X11.8880 Y11.9337
G1 X11.8123 Y12.0119
G1 X11.7259 Y12.1049
G1 X11.6337 Y12.2083
G1 X11.5631 Y12.2906
G1 X11.4701 Y12.4043
G1 X11.4051 Y12.4874
G1 X11.3256 Y12.5928
G1 X11.2601 Y12.6845
G1 X11.1816 Y12.7988
G1 X11.1183 Y12.8951
G1 X11.0472 Y13.0089
G1 X10.9827 Y13.1168
G1 X10.9212 Y13.2253
G1 X10.8628 Y13.3335
G1 X10.8049 Y13.4465
G1 X10.7508 Y13.5578
G1 X10.6977 Y13.6736
G1 X10.6434 Y13.7998
G1 X10.5961 Y13.9151
G1 X10.5527 Y14.0284
G1 X10.5080 Y14.1539
G1 X10.4681 Y14.2733
G1 X10.4297 Y14.3975
G1 X10.3939 Y14.5235
G1 X10.3612 Y14.6482
G1 X10.3307 Y14.7749
G1 X10.2992 Y14.9217
G1 X10.2779 Y15.0091
G1 X10.2514 Y15.0950
G1 X10.2205 Y15.1790
G1 X10.1846 Y15.2616
G1 X10.1750 Y15.2806
G1 X10.1750 Y68.0001
G1 X22.0002 Y68.0001
G1 X22.0002 Y15.2651
; Rapid to initial position
G1 X22.0002 Y15.2651 F2540
G1 Z-1.5000
; plunge
G1 Z-2.2500 F127
; cut
G1 X21.9992 Y15.2631 F200
G1 X21.9631 Y15.1808
G1 X21.9321 Y15.0965
G1 X21.9057 Y15.0106
G1 X21.8839 Y14.9217
G1 X21.8534 Y14.7803
G1 X21.8209 Y14.6441
G1 X21.7884 Y14.5204
G1 X21.7528 Y14.3957
G1 X21.7157 Y14.2756
G1 X21.6746 Y14.1526
G1 X21.6329 Y14.0355
G1 X21.5829 Y13.9050
G1 X21.5377 Y13.7940
G1 X21.4866 Y13.6766
G1 X21.4330 Y13.5598
G1 X21.3777 Y13.4455
G1 X21.3203 Y13.3340
G1 X21.2603 Y13.2230
G1 X21.1993 Y13.1153
G1 X21.1348 Y13.0073
G1 X21.0675 Y12.8996
G1 X20.9987 Y12.7950
G1 X20.9266 Y12.6898
G1 X20.8506 Y12.5842
G1 X20.7810 Y12.4915
G1 X20.7028 Y12.3919
G1 X20.6192 Y12.2895
G1 X20.5476 Y12.2062
G1 X20.4544 Y12.1016
G1 X20.3771 Y12.0188
G1 X20.2819 Y11.9205
G1 X20.2052 Y11.8450
G1 X20.1069 Y11.7518
G1 X20.0106 Y11.6644
G1 X19.9296 Y11.5941
G1 X19.8222 Y11.5042
G1 X19.7353 Y11.4348
G1 X19.6273 Y11.3520
G1 X19.5311 Y11.2817
G1 X19.4315 Y11.2118
G1 X19.3241 Y11.1397
G1 X19.2164 Y11.0708
G1 X19.1173 Y11.0104
G1 X19.0068 Y10.9461
G1 X18.9034 Y10.8887
G1 X18.7805 Y10.8237
G1 X18.6746 Y10.7706
G1 X18.5651 Y10.7188
G1 X18.4495 Y10.6670
G1 X18.3332 Y10.6177
G1 X18.2176 Y10.5715
G1 X18.0998 Y10.5275
G1 X17.9768 Y10.4844
G1 X17.8534 Y10.4442
G1 X17.7457 Y10.4115
G1 X17.6152 Y10.3751
G1 X17.4932 Y10.3439
G1 X17.3721 Y10.3154
G1 X17.2552 Y10.2911
G1 X17.1127 Y10.2641
G1 X16.9964 Y10.2448
G1 X16.8676 Y10.2263
G1 X16.7363 Y10.2105
G1 X16.6098 Y10.1981
G1 X16.4803 Y10.1879
G1 X16.3584 Y10.1813
G1 X16.2220 Y10.1768
G1 X16.0879 Y10.1755
G1 X15.9527 Y10.1768
G1 X15.8239 Y10.1813
G1 X15.6959 Y10.1884
G1 X15.5689 Y10.1984
G1 X15.4424 Y10.2111
G1 X15.3126 Y10.2271
G1 X15.1773 Y10.2464
G1 X15.0548 Y10.2667
G1 X14.9393 Y10.2888
G1 X14.8087 Y10.3162
G1 X14.6840 Y10.3454
G1 X14.5557 Y10.3784
G1 X14.4338 Y10.4125
G1 X14.3246 Y10.4458
G1 X14.2037 Y10.4851
G1 X14.0686 Y10.5326
G1 X13.9670 Y10.5707
G1 X13.8506 Y10.6172
G1 X13.7310 Y10.6680
G1 X13.6129 Y10.7211
G1 X13.5047 Y10.7724
G1 X13.3993 Y10.8252
G1 X13.2756 Y10.8908
G1 X13.1737 Y10.9471
G1 X13.0739 Y11.0056
G1 X12.9548 Y11.0785
G1 X12.8534 Y11.1432
G1 X12.7516 Y11.2118
G1 X12.6467 Y11.2852
G1 X12.5562 Y11.3518
G1 X12.4412 Y11.4399
G1 X12.3589 Y11.5057
G1 X12.2542 Y11.5933
G1 X12.1686 Y11.6677
G1 X12.0726 Y11.7549
G1 X11.9835 Y11.8394
G1 X11.8880 Y11.9337
G1 X11.8123 Y12.0119
G1 X11.7259 Y12.1049
G1 X11.6337 Y12.2083
G1 X11.5631 Y12.2906
G1 X11.4701 Y12.4043
G1 X11.4051 Y12.4874
G1 X11.3256 Y12.5928
G1 X11.2601 Y12.6845
G1 X11.1816 Y12.7988
G1 X11.1183 Y12.8951
G1 X11.0472 Y13.0089
G1 X10.9827 Y13.1168
G1 X10.9212 Y13.2253
G1 X10.8628 Y13.3335
G1 X10.8049 Y13.4465
G1 X10.7508 Y13.5578
G1 X10.6977 Y13.6736
G1 X10.6434 Y13.7998
G1 X10.5961 Y13.9151
G1 X10.5527 Y14.0284
G1 X10.5080 Y14.1539
G1 X10.4681 Y14.2733
G1 X10.4297 Y14.3975
G1 X10.3939 Y14.5235
G1 X10.3612 Y14.6482
G1 X10.3307 Y14.7749
G1 X10.2992 Y14.9217
G1 X10.2779 Y15.0091
G1 X10.2514 Y15.0950
G1 X10.2205 Y15.1790
G1 X10.1846 Y15.2616
G1 X10.1750 Y15.2806
G1 X10.1750 Y68.0001
G1 X22.0002 Y68.0001
G1 X22.0002 Y15.2651
; Rapid to initial position
G1 X22.0002 Y15.2651 F2540
G1 Z-2.2500
; plunge
G1 Z-3.0000 F127
; cut
G1 X21.9992 Y15.2631 F200
G1 X21.9631 Y15.1808
G1 X21.9321 Y15.0965
G1 X21.9057 Y15.0106
G1 X21.8839 Y14.9217
G1 X21.8534 Y14.7803
G1 X21.8209 Y14.6441
G1 X21.7884 Y14.5204
G1 X21.7528 Y14.3957
G1 X21.7157 Y14.2756
G1 X21.6746 Y14.1526
G1 X21.6329 Y14.0355
G1 X21.5829 Y13.9050
G1 X21.5377 Y13.7940
G1 X21.4866 Y13.6766
G1 X21.4330 Y13.5598
G1 X21.3777 Y13.4455
G1 X21.3203 Y13.3340
G1 X21.2603 Y13.2230
G1 X21.1993 Y13.1153
G1 X21.1348 Y13.0073
G1 X21.0675 Y12.8996
G1 X20.9987 Y12.7950
G1 X20.9266 Y12.6898
G1 X20.8506 Y12.5842
G1 X20.7810 Y12.4915
G1 X20.7028 Y12.3919
G1 X20.6192 Y12.2895
G1 X20.5476 Y12.2062
G1 X20.4544 Y12.1016
G1 X20.3771 Y12.0188
G1 X20.2819 Y11.9205
G1 X20.2052 Y11.8450
G1 X20.1069 Y11.7518
G1 X20.0106 Y11.6644
G1 X19.9296 Y11.5941
G1 X19.8222 Y11.5042
G1 X19.7353 Y11.4348
G1 X19.6273 Y11.3520
G1 X19.5311 Y11.2817
G1 X19.4315 Y11.2118
G1 X19.3241 Y11.1397
G1 X19.2164 Y11.0708
G1 X19.1173 Y11.0104
G1 X19.0068 Y10.9461
G1 X18.9034 Y10.8887
G1 X18.7805 Y10.8237
G1 X18.6746 Y10.7706
G1 X18.5651 Y10.7188
G1 X18.4495 Y10.6670
G1 X18.3332 Y10.6177
G1 X18.2176 Y10.5715
G1 X18.0998 Y10.5275
G1 X17.9768 Y10.4844
G1 X17.8534 Y10.4442
G1 X17.7457 Y10.4115
G1 X17.6152 Y10.3751
G1 X17.4932 Y10.3439
G1 X17.3721 Y10.3154
G1 X17.2552 Y10.2911
G1 X17.1127 Y10.2641
G1 X16.9964 Y10.2448
G1 X16.8676 Y10.2263
G1 X16.7363 Y10.2105
G1 X16.6098 Y10.1981
G1 X16.4803 Y10.1879
G1 X16.3584 Y10.1813
G1 X16.2220 Y10.1768
G1 X16.0879 Y10.1755
G1 X15.9527 Y10.1768
G1 X15.8239 Y10.1813
G1 X15.6959 Y10.1884
G1 X15.5689 Y10.1984
G1 X15.4424 Y10.2111
G1 X15.3126 Y10.2271
G1 X15.1773 Y10.2464
G1 X15.0548 Y10.2667
G1 X14.9393 Y10.2888
G1 X14.8087 Y10.3162
G1 X14.6840 Y10.3454
G1 X14.5557 Y10.3784
G1 X14.4338 Y10.4125
G1 X14.3246 Y10.4458
G1 X14.2037 Y10.4851
G1 X14.0686 Y10.5326
G1 X13.9670 Y10.5707
G1 X13.8506 Y10.6172
G1 X13.7310 Y10.6680
G1 X13.6129 Y10.7211
G1 X13.5047 Y10.7724
G1 X13.3993 Y10.8252
G1 X13.2756 Y10.8908
G1 X13.1737 Y10.9471
G1 X13.0739 Y11.0056
G1 X12.9548 Y11.0785
G1 X12.8534 Y11.1432
G1 X12.7516 Y11.2118
G1 X12.6467 Y11.2852
G1 X12.5562 Y11.3518
G1 X12.4412 Y11.4399
G1 X12.3589 Y11.5057
G1 X12.2542 Y11.5933
G1 X12.1686 Y11.6677
G1 X12.0726 Y11.7549
G1 X11.9835 Y11.8394
G1 X11.8880 Y11.9337
G1 X11.8123 Y12.0119
G1 X11.7259 Y12.1049
G1 X11.6337 Y12.2083
G1 X11.5631 Y12.2906
G1 X11.4701 Y12.4043
G1 X11.4051 Y12.4874
G1 X11.3256 Y12.5928
G1 X11.2601 Y12.6845
G1 X11.1816 Y12.7988
G1 X11.1183 Y12.8951
G1 X11.0472 Y13.0089
G1 X10.9827 Y13.1168
G1 X10.9212 Y13.2253
G1 X10.8628 Y13.3335
G1 X10.8049 Y13.4465
G1 X10.7508 Y13.5578
G1 X10.6977 Y13.6736
G1 X10.6434 Y13.7998
G1 X10.5961 Y13.9151
G1 X10.5527 Y14.0284
G1 X10.5080 Y14.1539
G1 X10.4681 Y14.2733
G1 X10.4297 Y14.3975
G1 X10.3939 Y14.5235
G1 X10.3612 Y14.6482
G1 X10.3307 Y14.7749
G1 X10.2992 Y14.9217
G1 X10.2779 Y15.0091
G1 X10.2514 Y15.0950
G1 X10.2205 Y15.1790
G1 X10.1846 Y15.2616
G1 X10.1750 Y15.2806
G1 X10.1750 Y68.0001
G1 X22.0002 Y68.0001
G1 X22.0002 Y15.2651
; Rapid to initial position
G1 X22.0002 Y15.2651 F2540
G1 Z-3.0000
; plunge
G1 Z-3.7500 F127
; cut
G1 X21.9992 Y15.2631 F200
G1 X21.9631 Y15.1808
G1 X21.9321 Y15.0965
G1 X21.9057 Y15.0106
G1 X21.8839 Y14.9217
G1 X21.8534 Y14.7803
G1 X21.8209 Y14.6441
G1 X21.7884 Y14.5204
G1 X21.7528 Y14.3957
G1 X21.7157 Y14.2756
G1 X21.6746 Y14.1526
G1 X21.6329 Y14.0355
G1 X21.5829 Y13.9050
G1 X21.5377 Y13.7940
G1 X21.4866 Y13.6766
G1 X21.4330 Y13.5598
G1 X21.3777 Y13.4455
G1 X21.3203 Y13.3340
G1 X21.2603 Y13.2230
G1 X21.1993 Y13.1153
G1 X21.1348 Y13.0073
G1 X21.0675 Y12.8996
G1 X20.9987 Y12.7950
G1 X20.9266 Y12.6898
G1 X20.8506 Y12.5842
G1 X20.7810 Y12.4915
G1 X20.7028 Y12.3919
G1 X20.6192 Y12.2895
G1 X20.5476 Y12.2062
G1 X20.4544 Y12.1016
G1 X20.3771 Y12.0188
G1 X20.2819 Y11.9205
G1 X20.2052 Y11.8450
G1 X20.1069 Y11.7518
G1 X20.0106 Y11.6644
G1 X19.9296 Y11.5941
G1 X19.8222 Y11.5042
G1 X19.7353 Y11.4348
G1 X19.6273 Y11.3520
G1 X19.5311 Y11.2817
G1 X19.4315 Y11.2118
G1 X19.3241 Y11.1397
G1 X19.2164 Y11.0708
G1 X19.1173 Y11.0104
G1 X19.0068 Y10.9461
G1 X18.9034 Y10.8887
G1 X18.7805 Y10.8237
G1 X18.6746 Y10.7706
G1 X18.5651 Y10.7188
G1 X18.4495 Y10.6670
G1 X18.3332 Y10.6177
G1 X18.2176 Y10.5715
G1 X18.0998 Y10.5275
G1 X17.9768 Y10.4844
G1 X17.8534 Y10.4442
G1 X17.7457 Y10.4115
G1 X17.6152 Y10.3751
G1 X17.4932 Y10.3439
G1 X17.3721 Y10.3154
G1 X17.2552 Y10.2911
G1 X17.1127 Y10.2641
G1 X16.9964 Y10.2448
G1 X16.8676 Y10.2263
G1 X16.7363 Y10.2105
G1 X16.6098 Y10.1981
G1 X16.4803 Y10.1879
G1 X16.3584 Y10.1813
G1 X16.2220 Y10.1768
G1 X16.0879 Y10.1755
G1 X15.9527 Y10.1768
G1 X15.8239 Y10.1813
G1 X15.6959 Y10.1884
G1 X15.5689 Y10.1984
G1 X15.4424 Y10.2111
G1 X15.3126 Y10.2271
G1 X15.1773 Y10.2464
G1 X15.0548 Y10.2667
G1 X14.9393 Y10.2888
G1 X14.8087 Y10.3162
G1 X14.6840 Y10.3454
G1 X14.5557 Y10.3784
G1 X14.4338 Y10.4125
G1 X14.3246 Y10.4458
G1 X14.2037 Y10.4851
G1 X14.0686 Y10.5326
G1 X13.9670 Y10.5707
G1 X13.8506 Y10.6172
G1 X13.7310 Y10.6680
G1 X13.6129 Y10.7211
G1 X13.5047 Y10.7724
G1 X13.3993 Y10.8252
G1 X13.2756 Y10.8908
G1 X13.1737 Y10.9471
G1 X13.0739 Y11.0056
G1 X12.9548 Y11.0785
G1 X12.8534 Y11.1432
G1 X12.7516 Y11.2118
G1 X12.6467 Y11.2852
G1 X12.5562 Y11.3518
G1 X12.4412 Y11.4399
G1 X12.3589 Y11.5057
G1 X12.2542 Y11.5933
G1 X12.1686 Y11.6677
G1 X12.0726 Y11.7549
G1 X11.9835 Y11.8394
G1 X11.8880 Y11.9337
G1 X11.8123 Y12.0119
G1 X11.7259 Y12.1049
G1 X11.6337 Y12.2083
G1 X11.5631 Y12.2906
G1 X11.4701 Y12.4043
G1 X11.4051 Y12.4874
G1 X11.3256 Y12.5928
G1 X11.2601 Y12.6845
G1 X11.1816 Y12.7988
G1 X11.1183 Y12.8951
G1 X11.0472 Y13.0089
G1 X10.9827 Y13.1168
G1 X10.9212 Y13.2253
G1 X10.8628 Y13.3335
G1 X10.8049 Y13.4465
G1 X10.7508 Y13.5578
G1 X10.6977 Y13.6736
G1 X10.6434 Y13.7998
G1 X10.5961 Y13.9151
G1 X10.5527 Y14.0284
G1 X10.5080 Y14.1539
G1 X10.4681 Y14.2733
G1 X10.4297 Y14.3975
G1 X10.3939 Y14.5235
G1 X10.3612 Y14.6482
G1 X10.3307 Y14.7749
G1 X10.2992 Y14.9217
G1 X10.2779 Y15.0091
G1 X10.2514 Y15.0950
G1 X10.2205 Y15.1790
G1 X10.1846 Y15.2616
G1 X10.1750 Y15.2806
G1 X10.1750 Y68.0001
G1 X22.0002 Y68.0001
G1 X22.0002 Y15.2651
; Rapid to initial position
G1 X22.0002 Y15.2651 F2540
G1 Z-3.7500
; plunge
G1 Z-4.5000 F127
; cut
G1 X21.9992 Y15.2631 F200
G1 X21.9631 Y15.1808
G1 X21.9321 Y15.0965
G1 X21.9057 Y15.0106
G1 X21.8839 Y14.9217
G1 X21.8534 Y14.7803
G1 X21.8209 Y14.6441
G1 X21.7884 Y14.5204
G1 X21.7528 Y14.3957
G1 X21.7157 Y14.2756
G1 X21.6746 Y14.1526
G1 X21.6329 Y14.0355
G1 X21.5829 Y13.9050
G1 X21.5377 Y13.7940
G1 X21.4866 Y13.6766
G1 X21.4330 Y13.5598
G1 X21.3777 Y13.4455
G1 X21.3203 Y13.3340
G1 X21.2603 Y13.2230
G1 X21.1993 Y13.1153
G1 X21.1348 Y13.0073
G1 X21.0675 Y12.8996
G1 X20.9987 Y12.7950
G1 X20.9266 Y12.6898
G1 X20.8506 Y12.5842
G1 X20.7810 Y12.4915
G1 X20.7028 Y12.3919
G1 X20.6192 Y12.2895
G1 X20.5476 Y12.2062
G1 X20.4544 Y12.1016
G1 X20.3771 Y12.0188
G1 X20.2819 Y11.9205
G1 X20.2052 Y11.8450
G1 X20.1069 Y11.7518
G1 X20.0106 Y11.6644
G1 X19.9296 Y11.5941
G1 X19.8222 Y11.5042
G1 X19.7353 Y11.4348
G1 X19.6273 Y11.3520
G1 X19.5311 Y11.2817
G1 X19.4315 Y11.2118
G1 X19.3241 Y11.1397
G1 X19.2164 Y11.0708
G1 X19.1173 Y11.0104
G1 X19.0068 Y10.9461
G1 X18.9034 Y10.8887
G1 X18.7805 Y10.8237
G1 X18.6746 Y10.7706
G1 X18.5651 Y10.7188
G1 X18.4495 Y10.6670
G1 X18.3332 Y10.6177
G1 X18.2176 Y10.5715
G1 X18.0998 Y10.5275
G1 X17.9768 Y10.4844
G1 X17.8534 Y10.4442
G1 X17.7457 Y10.4115
G1 X17.6152 Y10.3751
G1 X17.4932 Y10.3439
G1 X17.3721 Y10.3154
G1 X17.2552 Y10.2911
G1 X17.1127 Y10.2641
G1 X16.9964 Y10.2448
G1 X16.8676 Y10.2263
G1 X16.7363 Y10.2105
G1 X16.6098 Y10.1981
G1 X16.4803 Y10.1879
G1 X16.3584 Y10.1813
G1 X16.2220 Y10.1768
G1 X16.0879 Y10.1755
G1 X15.9527 Y10.1768
G1 X15.8239 Y10.1813
G1 X15.6959 Y10.1884
G1 X15.5689 Y10.1984
G1 X15.4424 Y10.2111
G1 X15.3126 Y10.2271
G1 X15.1773 Y10.2464
G1 X15.0548 Y10.2667
G1 X14.9393 Y10.2888
G1 X14.8087 Y10.3162
G1 X14.6840 Y10.3454
G1 X14.5557 Y10.3784
G1 X14.4338 Y10.4125
G1 X14.3246 Y10.4458
G1 X14.2037 Y10.4851
G1 X14.0686 Y10.5326
G1 X13.9670 Y10.5707
G1 X13.8506 Y10.6172
G1 X13.7310 Y10.6680
G1 X13.6129 Y10.7211
G1 X13.5047 Y10.7724
G1 X13.3993 Y10.8252
G1 X13.2756 Y10.8908
G1 X13.1737 Y10.9471
G1 X13.0739 Y11.0056
G1 X12.9548 Y11.0785
G1 X12.8534 Y11.1432
G1 X12.7516 Y11.2118
G1 X12.6467 Y11.2852
G1 X12.5562 Y11.3518
G1 X12.4412 Y11.4399
G1 X12.3589 Y11.5057
G1 X12.2542 Y11.5933
G1 X12.1686 Y11.6677
G1 X12.0726 Y11.7549
G1 X11.9835 Y11.8394
G1 X11.8880 Y11.9337
G1 X11.8123 Y12.0119
G1 X11.7259 Y12.1049
G1 X11.6337 Y12.2083
G1 X11.5631 Y12.2906
G1 X11.4701 Y12.4043
G1 X11.4051 Y12.4874
G1 X11.3256 Y12.5928
G1 X11.2601 Y12.6845
G1 X11.1816 Y12.7988
G1 X11.1183 Y12.8951
G1 X11.0472 Y13.0089
G1 X10.9827 Y13.1168
G1 X10.9212 Y13.2253
G1 X10.8628 Y13.3335
G1 X10.8049 Y13.4465
G1 X10.7508 Y13.5578
G1 X10.6977 Y13.6736
G1 X10.6434 Y13.7998
G1 X10.5961 Y13.9151
G1 X10.5527 Y14.0284
G1 X10.5080 Y14.1539
G1 X10.4681 Y14.2733
G1 X10.4297 Y14.3975
G1 X10.3939 Y14.5235
G1 X10.3612 Y14.6482
G1 X10.3307 Y14.7749
G1 X10.2992 Y14.9217
G1 X10.2779 Y15.0091
G1 X10.2514 Y15.0950
G1 X10.2205 Y15.1790
G1 X10.1846 Y15.2616
G1 X10.1750 Y15.2806
G1 X10.1750 Y68.0001
G1 X22.0002 Y68.0001
G1 X22.0002 Y15.2651
; Rapid to initial position
G1 X22.0002 Y15.2651 F2540
G1 Z-4.5000
; plunge
G1 Z-5.2500 F127
; cut
G1 X21.9992 Y15.2631 F200
G1 X21.9631 Y15.1808
G1 X21.9321 Y15.0965
G1 X21.9057 Y15.0106
G1 X21.8839 Y14.9217
G1 X21.8534 Y14.7803
G1 X21.8209 Y14.6441
G1 X21.7884 Y14.5204
G1 X21.7528 Y14.3957
G1 X21.7157 Y14.2756
G1 X21.6746 Y14.1526
G1 X21.6329 Y14.0355
G1 X21.5829 Y13.9050
G1 X21.5377 Y13.7940
G1 X21.4866 Y13.6766
G1 X21.4330 Y13.5598
G1 X21.3777 Y13.4455
G1 X21.3203 Y13.3340
G1 X21.2603 Y13.2230
G1 X21.1993 Y13.1153
G1 X21.1348 Y13.0073
G1 X21.0675 Y12.8996
G1 X20.9987 Y12.7950
G1 X20.9266 Y12.6898
G1 X20.8506 Y12.5842
G1 X20.7810 Y12.4915
G1 X20.7028 Y12.3919
G1 X20.6192 Y12.2895
G1 X20.5476 Y12.2062
G1 X20.4544 Y12.1016
G1 X20.3771 Y12.0188
G1 X20.2819 Y11.9205
G1 X20.2052 Y11.8450
G1 X20.1069 Y11.7518
G1 X20.0106 Y11.6644
G1 X19.9296 Y11.5941
G1 X19.8222 Y11.5042
G1 X19.7353 Y11.4348
G1 X19.6273 Y11.3520
G1 X19.5311 Y11.2817
G1 X19.4315 Y11.2118
G1 X19.3241 Y11.1397
G1 X19.2164 Y11.0708
G1 X19.1173 Y11.0104
G1 X19.0068 Y10.9461
G1 X18.9034 Y10.8887
G1 X18.7805 Y10.8237
G1 X18.6746 Y10.7706
G1 X18.5651 Y10.7188
G1 X18.4495 Y10.6670
G1 X18.3332 Y10.6177
G1 X18.2176 Y10.5715
G1 X18.0998 Y10.5275
G1 X17.9768 Y10.4844
G1 X17.8534 Y10.4442
G1 X17.7457 Y10.4115
G1 X17.6152 Y10.3751
G1 X17.4932 Y10.3439
G1 X17.3721 Y10.3154
G1 X17.2552 Y10.2911
G1 X17.1127 Y10.2641
G1 X16.9964 Y10.2448
G1 X16.8676 Y10.2263
G1 X16.7363 Y10.2105
G1 X16.6098 Y10.1981
G1 X16.4803 Y10.1879
G1 X16.3584 Y10.1813
G1 X16.2220 Y10.1768
G1 X16.0879 Y10.1755
G1 X15.9527 Y10.1768
G1 X15.8239 Y10.1813
G1 X15.6959 Y10.1884
G1 X15.5689 Y10.1984
G1 X15.4424 Y10.2111
G1 X15.3126 Y10.2271
G1 X15.1773 Y10.2464
G1 X15.0548 Y10.2667
G1 X14.9393 Y10.2888
G1 X14.8087 Y10.3162
G1 X14.6840 Y10.3454
G1 X14.5557 Y10.3784
G1 X14.4338 Y10.4125
G1 X14.3246 Y10.4458
G1 X14.2037 Y10.4851
G1 X14.0686 Y10.5326
G1 X13.9670 Y10.5707
G1 X13.8506 Y10.6172
G1 X13.7310 Y10.6680
G1 X13.6129 Y10.7211
G1 X13.5047 Y10.7724
G1 X13.3993 Y10.8252
G1 X13.2756 Y10.8908
G1 X13.1737 Y10.9471
G1 X13.0739 Y11.0056
G1 X12.9548 Y11.0785
G1 X12.8534 Y11.1432
G1 X12.7516 Y11.2118
G1 X12.6467 Y11.2852
G1 X12.5562 Y11.3518
G1 X12.4412 Y11.4399
G1 X12.3589 Y11.5057
G1 X12.2542 Y11.5933
G1 X12.1686 Y11.6677
G1 X12.0726 Y11.7549
G1 X11.9835 Y11.8394
G1 X11.8880 Y11.9337
G1 X11.8123 Y12.0119
G1 X11.7259 Y12.1049
G1 X11.6337 Y12.2083
G1 X11.5631 Y12.2906
G1 X11.4701 Y12.4043
G1 X11.4051 Y12.4874
G1 X11.3256 Y12.5928
G1 X11.2601 Y12.6845
G1 X11.1816 Y12.7988
G1 X11.1183 Y12.8951
G1 X11.0472 Y13.0089
G1 X10.9827 Y13.1168
G1 X10.9212 Y13.2253
G1 X10.8628 Y13.3335
G1 X10.8049 Y13.4465
G1 X10.7508 Y13.5578
G1 X10.6977 Y13.6736
G1 X10.6434 Y13.7998
G1 X10.5961 Y13.9151
G1 X10.5527 Y14.0284
G1 X10.5080 Y14.1539
G1 X10.4681 Y14.2733
G1 X10.4297 Y14.3975
G1 X10.3939 Y14.5235
G1 X10.3612 Y14.6482
G1 X10.3307 Y14.7749
G1 X10.2992 Y14.9217
G1 X10.2779 Y15.0091
G1 X10.2514 Y15.0950
G1 X10.2205 Y15.1790
G1 X10.1846 Y15.2616
G1 X10.1750 Y15.2806
G1 X10.1750 Y68.0001
G1 X22.0002 Y68.0001
G1 X22.0002 Y15.2651
; Rapid to initial position
G1 X22.0002 Y15.2651 F2540
G1 Z-5.2500
; plunge
G1 Z-6.0000 F127
; cut
G1 X21.9992 Y15.2631 F200
G1 X21.9631 Y15.1808
G1 X21.9321 Y15.0965
G1 X21.9057 Y15.0106
G1 X21.8839 Y14.9217
G1 X21.8534 Y14.7803
G1 X21.8209 Y14.6441
G1 X21.7884 Y14.5204
G1 X21.7528 Y14.3957
G1 X21.7157 Y14.2756
G1 X21.6746 Y14.1526
G1 X21.6329 Y14.0355
G1 X21.5829 Y13.9050
G1 X21.5377 Y13.7940
G1 X21.4866 Y13.6766
G1 X21.4330 Y13.5598
G1 X21.3777 Y13.4455
G1 X21.3203 Y13.3340
G1 X21.2603 Y13.2230
G1 X21.1993 Y13.1153
G1 X21.1348 Y13.0073
G1 X21.0675 Y12.8996
G1 X20.9987 Y12.7950
G1 X20.9266 Y12.6898
G1 X20.8506 Y12.5842
G1 X20.7810 Y12.4915
G1 X20.7028 Y12.3919
G1 X20.6192 Y12.2895
G1 X20.5476 Y12.2062
G1 X20.4544 Y12.1016
G1 X20.3771 Y12.0188
G1 X20.2819 Y11.9205
G1 X20.2052 Y11.8450
G1 X20.1069 Y11.7518
G1 X20.0106 Y11.6644
G1 X19.9296 Y11.5941
G1 X19.8222 Y11.5042
G1 X19.7353 Y11.4348
G1 X19.6273 Y11.3520
G1 X19.5311 Y11.2817
G1 X19.4315 Y11.2118
G1 X19.3241 Y11.1397
G1 X19.2164 Y11.0708
G1 X19.1173 Y11.0104
G1 X19.0068 Y10.9461
G1 X18.9034 Y10.8887
G1 X18.7805 Y10.8237
G1 X18.6746 Y10.7706
G1 X18.5651 Y10.7188
G1 X18.4495 Y10.6670
G1 X18.3332 Y10.6177
G1 X18.2176 Y10.5715
G1 X18.0998 Y10.5275
G1 X17.9768 Y10.4844
G1 X17.8534 Y10.4442
G1 X17.7457 Y10.4115
G1 X17.6152 Y10.3751
G1 X17.4932 Y10.3439
G1 X17.3721 Y10.3154
G1 X17.2552 Y10.2911
G1 X17.1127 Y10.2641
G1 X16.9964 Y10.2448
G1 X16.8676 Y10.2263
G1 X16.7363 Y10.2105
G1 X16.6098 Y10.1981
G1 X16.4803 Y10.1879
G1 X16.3584 Y10.1813
G1 X16.2220 Y10.1768
G1 X16.0879 Y10.1755
G1 X15.9527 Y10.1768
G1 X15.8239 Y10.1813
G1 X15.6959 Y10.1884
G1 X15.5689 Y10.1984
G1 X15.4424 Y10.2111
G1 X15.3126 Y10.2271
G1 X15.1773 Y10.2464
G1 X15.0548 Y10.2667
G1 X14.9393 Y10.2888
G1 X14.8087 Y10.3162
G1 X14.6840 Y10.3454
G1 X14.5557 Y10.3784
G1 X14.4338 Y10.4125
G1 X14.3246 Y10.4458
G1 X14.2037 Y10.4851
G1 X14.0686 Y10.5326
G1 X13.9670 Y10.5707
G1 X13.8506 Y10.6172
G1 X13.7310 Y10.6680
G1 X13.6129 Y10.7211
G1 X13.5047 Y10.7724
G1 X13.3993 Y10.8252
G1 X13.2756 Y10.8908
G1 X13.1737 Y10.9471
G1 X13.0739 Y11.0056
G1 X12.9548 Y11.0785
G1 X12.8534 Y11.1432
G1 X12.7516 Y11.2118
G1 X12.6467 Y11.2852
G1 X12.5562 Y11.3518
G1 X12.4412 Y11.4399
G1 X12.3589 Y11.5057
G1 X12.2542 Y11.5933
G1 X12.1686 Y11.6677
G1 X12.0726 Y11.7549
G1 X11.9835 Y11.8394
G1 X11.8880 Y11.9337
G1 X11.8123 Y12.0119
G1 X11.7259 Y12.1049
G1 X11.6337 Y12.2083
G1 X11.5631 Y12.2906
G1 X11.4701 Y12.4043
G1 X11.4051 Y12.4874
G1 X11.3256 Y12.5928
G1 X11.2601 Y12.6845
G1 X11.1816 Y12.7988
G1 X11.1183 Y12.8951
G1 X11.0472 Y13.0089
G1 X10.9827 Y13.1168
G1 X10.9212 Y13.2253
G1 X10.8628 Y13.3335
G1 X10.8049 Y13.4465
G1 X10.7508 Y13.5578
G1 X10.6977 Y13.6736
G1 X10.6434 Y13.7998
G1 X10.5961 Y13.9151
G1 X10.5527 Y14.0284
G1 X10.5080 Y14.1539
G1 X10.4681 Y14.2733
G1 X10.4297 Y14.3975
G1 X10.3939 Y14.5235
G1 X10.3612 Y14.6482
G1 X10.3307 Y14.7749
G1 X10.2992 Y14.9217
G1 X10.2779 Y15.0091
G1 X10.2514 Y15.0950
G1 X10.2205 Y15.1790
G1 X10.1846 Y15.2616
G1 X10.1750 Y15.2806
G1 X10.1750 Y68.0001
G1 X22.0002 Y68.0001
G1 X22.0002 Y15.2651
; Retract
G1 Z1.0000 F2540

;
; Operation:    3
; Name:         
; Type:         Outside
; Paths:        1
; Direction:    Conventional
; Cut Depth:    6
; Pass Depth:   0.75
; Plunge rate:  127
; Cut rate:     200
;

; Path 0
; Rapid to initial position
G1 X30.5877 Y78.1751 F2540
G1 Z0.0000
; plunge
G1 Z-0.7500 F127
; cut
G1 X1.5875 Y78.1751 F200
G1 X1.5187 Y78.1736
G1 X1.4290 Y78.1672
G1 X1.3401 Y78.1558
G1 X1.2517 Y78.1393
G1 X1.1646 Y78.1177
G1 X1.0787 Y78.0913
G1 X0.9944 Y78.0603
G1 X0.9121 Y78.0242
G1 X0.8321 Y77.9838
G1 X0.7544 Y77.9389
G1 X0.6792 Y77.8896
G1 X0.6071 Y77.8363
G1 X0.5380 Y77.7789
G1 X0.4724 Y77.7174
G1 X0.4102 Y77.6526
G1 X0.3520 Y77.5843
G1 X0.2977 Y77.5129
G1 X0.2474 Y77.4385
G1 X0.2014 Y77.3613
G1 X0.1598 Y77.2818
G1 X0.1229 Y77.2000
G1 X0.0907 Y77.1162
G1 X0.0630 Y77.0306
G1 X0.0404 Y76.9437
G1 X0.0229 Y76.8558
G1 X0.0102 Y76.7669
G1 X0.0025 Y76.6773
G1 X0.0000 Y76.5876
G1 X0.0000 Y14.5877
G1 X0.0015 Y14.5189
G1 X0.0079 Y14.4292
G1 X0.0193 Y14.3403
G1 X0.0358 Y14.2519
G1 X0.0574 Y14.1648
G1 X0.0838 Y14.0790
G1 X0.1148 Y13.9946
G1 X0.1509 Y13.9123
G1 X0.1689 Y13.8765
G1 X0.1709 Y13.8618
G1 X0.1986 Y13.6718
G1 X0.2283 Y13.4828
G1 X0.2598 Y13.2964
G1 X0.2939 Y13.1087
G1 X0.3297 Y12.9233
G1 X0.3680 Y12.7371
G1 X0.4082 Y12.5534
G1 X0.4508 Y12.3683
G1 X0.4950 Y12.1862
G1 X0.5413 Y12.0045
G1 X0.5905 Y11.8217
G1 X0.6411 Y11.6413
G1 X0.6934 Y11.4630
G1 X0.7480 Y11.2842
G1 X0.8047 Y11.1067
G1 X0.8633 Y10.9296
G1 X0.9238 Y10.7541
G1 X0.9853 Y10.5816
G1 X1.0508 Y10.4049
G1 X1.1171 Y10.2319
G1 X1.1849 Y10.0614
G1 X1.2550 Y9.8905
G1 X1.3274 Y9.7196
G1 X1.4008 Y9.5519
G1 X1.4768 Y9.3838
G1 X1.5542 Y9.2174
G1 X1.6337 Y9.0515
G1 X1.7142 Y8.8885
G1 X1.7983 Y8.7229
G1 X1.8829 Y8.5611
G1 X1.9685 Y8.4013
G1 X2.0569 Y8.2408
G1 X2.1478 Y8.0808
G1 X2.2395 Y7.9233
G1 X2.3315 Y7.7691
G1 X2.4275 Y7.6121
G1 X2.5243 Y7.4582
G1 X2.6236 Y7.3045
G1 X2.7236 Y7.1529
G1 X2.8240 Y7.0043
G1 X2.9294 Y6.8524
G1 X3.0333 Y6.7061
G1 X3.1407 Y6.5585
G1 X3.2476 Y6.4148
G1 X3.3584 Y6.2695
G1 X3.4707 Y6.1257
G1 X3.5824 Y5.9858
G1 X3.6980 Y5.8445
G1 X3.8125 Y5.7071
G1 X3.9309 Y5.5690
G1 X4.0498 Y5.4328
G1 X4.1702 Y5.2984
G1 X4.2918 Y5.1653
G1 X4.4166 Y5.0322
G1 X4.5397 Y4.9032
G1 X4.6672 Y4.7732
G1 X4.7948 Y4.6457
G1 X4.9238 Y4.5197
G1 X5.0541 Y4.3950
G1 X5.1857 Y4.2720
G1 X5.3203 Y4.1493
G1 X5.4534 Y4.0302
G1 X5.5905 Y3.9106
G1 X5.7264 Y3.7945
G1 X5.8677 Y3.6769
G1 X6.0046 Y3.5649
G1 X6.1468 Y3.4514
G1 X6.2908 Y3.3393
G1 X6.4315 Y3.2322
G1 X6.5794 Y3.1222
G1 X6.7239 Y3.0170
G1 X6.8725 Y2.9116
G1 X7.0183 Y2.8105
G1 X7.1709 Y2.7071
G1 X7.3203 Y2.6086
G1 X7.4755 Y2.5088
G1 X7.6258 Y2.4143
G1 X7.7813 Y2.3188
G1 X7.9357 Y2.2266
G1 X8.0940 Y2.1344
G1 X8.2499 Y2.0457
G1 X8.4104 Y1.9571
G1 X8.5702 Y1.8712
G1 X8.7312 Y1.7869
G1 X8.8938 Y1.7041
G1 X9.0566 Y1.6236
G1 X9.2205 Y1.5448
G1 X9.3863 Y1.4676
G1 X9.5509 Y1.3929
G1 X9.7173 Y1.3195
G1 X9.8890 Y1.2464
G1 X10.0554 Y1.1778
G1 X10.2258 Y1.1097
G1 X10.3962 Y1.0439
G1 X10.5692 Y0.9792
G1 X10.7414 Y0.9172
G1 X10.9162 Y0.8567
G1 X11.0886 Y0.7991
G1 X11.2641 Y0.7424
G1 X11.4427 Y0.6876
G1 X11.6175 Y0.6355
G1 X11.7953 Y0.5850
G1 X11.9761 Y0.5362
G1 X12.1524 Y0.4902
G1 X12.3347 Y0.4455
G1 X12.5153 Y0.4031
G1 X12.6967 Y0.3627
G1 X12.8803 Y0.3244
G1 X13.0625 Y0.2883
G1 X13.2456 Y0.2543
G1 X13.4292 Y0.2223
G1 X13.6180 Y0.1918
G1 X13.7998 Y0.1643
G1 X13.9878 Y0.1384
G1 X14.1757 Y0.1148
G1 X14.3642 Y0.0935
G1 X14.5506 Y0.0744
G1 X14.7404 Y0.0574
G1 X14.9278 Y0.0424
G1 X15.1206 Y0.0297
G1 X15.3088 Y0.0193
G1 X15.5026 Y0.0112
G1 X15.6919 Y0.0053
G1 X15.8839 Y0.0015
G1 X16.0762 Y0.0000
G1 X16.2710 Y0.0010
G1 X16.4630 Y0.0043
G1 X16.6571 Y0.0102
G1 X16.8460 Y0.0178
G1 X17.0368 Y0.0279
G1 X17.2273 Y0.0401
G1 X17.4170 Y0.0549
G1 X17.6042 Y0.0711
G1 X17.7957 Y0.0904
G1 X17.9819 Y0.1113
G1 X18.1676 Y0.1341
G1 X18.3576 Y0.1600
G1 X18.5400 Y0.1867
G1 X18.7287 Y0.2172
G1 X18.9123 Y0.2487
G1 X19.0952 Y0.2822
G1 X19.2801 Y0.3185
G1 X19.4617 Y0.3561
G1 X19.6431 Y0.3960
G1 X19.8260 Y0.4387
G1 X20.0055 Y0.4826
G1 X20.1849 Y0.5286
G1 X20.3637 Y0.5768
G1 X20.5415 Y0.6269
G1 X20.7203 Y0.6797
G1 X20.8951 Y0.7333
G1 X21.0703 Y0.7889
G1 X21.2458 Y0.8473
G1 X21.4213 Y0.9081
G1 X21.5930 Y0.9695
G1 X21.7632 Y1.0325
G1 X21.9370 Y1.0993
G1 X22.1056 Y1.1664
G1 X22.2761 Y1.2365
G1 X22.4429 Y1.3068
G1 X22.6108 Y1.3802
G1 X22.7787 Y1.4562
G1 X22.9428 Y1.5324
G1 X23.1087 Y1.6119
G1 X23.2715 Y1.6921
G1 X23.4325 Y1.7737
G1 X23.5953 Y1.8588
G1 X23.7533 Y1.9434
G1 X23.9151 Y2.0325
G1 X24.0713 Y2.1206
G1 X24.2280 Y2.2113
G1 X24.3865 Y2.3061
G1 X24.5402 Y2.3998
G1 X24.6918 Y2.4948
G1 X24.8460 Y2.5938
G1 X24.9956 Y2.6919
G1 X25.1485 Y2.7953
G1 X25.2956 Y2.8969
G1 X25.4434 Y3.0013
G1 X25.5900 Y3.1074
G1 X25.7363 Y3.2161
G1 X25.8788 Y3.3241
G1 X26.0215 Y3.4351
G1 X26.1628 Y3.5471
G1 X26.3040 Y3.6622
G1 X26.4414 Y3.7765
G1 X26.5803 Y3.8946
G1 X26.7175 Y4.0142
G1 X26.8496 Y4.1318
G1 X26.9845 Y4.2545
G1 X27.1178 Y4.3787
G1 X27.2471 Y4.5019
G1 X27.3774 Y4.6289
G1 X27.5054 Y4.7564
G1 X27.6316 Y4.8852
G1 X27.7566 Y5.0152
G1 X27.8801 Y5.1468
G1 X28.0022 Y5.2799
G1 X28.1239 Y5.4155
G1 X28.2420 Y5.5499
G1 X28.3619 Y5.6899
G1 X28.4757 Y5.8255
G1 X28.5913 Y5.9665
G1 X28.7045 Y6.1074
G1 X28.8171 Y6.2514
G1 X28.9268 Y6.3952
G1 X29.0350 Y6.5400
G1 X29.1427 Y6.6878
G1 X29.2468 Y6.8341
G1 X29.3507 Y6.9830
G1 X29.4533 Y7.1344
G1 X29.5537 Y7.2857
G1 X29.6530 Y7.4397
G1 X29.7500 Y7.5936
G1 X29.8442 Y7.7467
G1 X29.9390 Y7.9047
G1 X30.0307 Y8.0617
G1 X30.1214 Y8.2215
G1 X30.2097 Y8.3810
G1 X30.2966 Y8.5423
G1 X30.3817 Y8.7051
G1 X30.4643 Y8.8669
G1 X30.5460 Y9.0317
G1 X30.6258 Y9.1976
G1 X30.7033 Y9.3632
G1 X30.7797 Y9.5321
G1 X30.8541 Y9.7020
G1 X30.9258 Y9.8699
G1 X30.9964 Y10.0419
G1 X31.0645 Y10.2126
G1 X31.1313 Y10.3853
G1 X31.1958 Y10.5590
G1 X31.2588 Y10.7345
G1 X31.3197 Y10.9111
G1 X31.3784 Y11.0876
G1 X31.4350 Y11.2649
G1 X31.4896 Y11.4419
G1 X31.5427 Y11.6223
G1 X31.5938 Y11.8029
G1 X31.6428 Y11.9858
G1 X31.6890 Y12.1658
G1 X31.7340 Y12.3497
G1 X31.7764 Y12.5326
G1 X31.8173 Y12.7193
G1 X31.8554 Y12.9032
G1 X31.8915 Y13.0884
G1 X31.9260 Y13.2766
G1 X31.9580 Y13.4653
G1 X31.9877 Y13.6525
G1 X32.0157 Y13.8422
G1 X32.0256 Y13.9162
G1 X32.0523 Y13.9753
G1 X32.0845 Y14.0592
G1 X32.1122 Y14.1448
G1 X32.1348 Y14.2316
G1 X32.1523 Y14.3195
G1 X32.1650 Y14.4084
G1 X32.1727 Y14.4981
G1 X32.1752 Y14.5877
G1 X32.1752 Y76.5876
G1 X32.1737 Y76.6564
G1 X32.1673 Y76.7461
G1 X32.1559 Y76.8350
G1 X32.1394 Y76.9234
G1 X32.1178 Y77.0105
G1 X32.0914 Y77.0964
G1 X32.0604 Y77.1807
G1 X32.0243 Y77.2630
G1 X31.9839 Y77.3430
G1 X31.9390 Y77.4207
G1 X31.8897 Y77.4959
G1 X31.8364 Y77.5680
G1 X31.7790 Y77.6371
G1 X31.7175 Y77.7027
G1 X31.6527 Y77.7649
G1 X31.5844 Y77.8231
G1 X31.5130 Y77.8774
G1 X31.4386 Y77.9277
G1 X31.3614 Y77.9737
G1 X31.2819 Y78.0153
G1 X31.2001 Y78.0522
G1 X31.1163 Y78.0844
G1 X31.0307 Y78.1121
G1 X30.9438 Y78.1347
G1 X30.8559 Y78.1522
G1 X30.7670 Y78.1649
G1 X30.6774 Y78.1726
G1 X30.5877 Y78.1751
; Rapid to initial position
G1 X30.5877 Y78.1751 F2540
G1 Z-0.7500
; plunge
G1 Z-1.5000 F127
; cut
G1 X1.5875 Y78.1751 F200
G1 X1.5187 Y78.1736
G1 X1.4290 Y78.1672
G1 X1.3401 Y78.1558
G1 X1.2517 Y78.1393
G1 X1.1646 Y78.1177
G1 X1.0787 Y78.0913
G1 X0.9944 Y78.0603
G1 X0.9121 Y78.0242
G1 X0.8321 Y77.9838
G1 X0.7544 Y77.9389
G1 X0.6792 Y77.8896
G1 X0.6071 Y77.8363
G1 X0.5380 Y77.7789
G1 X0.4724 Y77.7174
G1 X0.4102 Y77.6526
G1 X0.3520 Y77.5843
G1 X0.2977 Y77.5129
G1 X0.2474 Y77.4385
G1 X0.2014 Y77.3613
G1 X0.1598 Y77.2818
G1 X0.1229 Y77.2000
G1 X0.0907 Y77.1162
G1 X0.0630 Y77.0306
G1 X0.0404 Y76.9437
G1 X0.0229 Y76.8558
G1 X0.0102 Y76.7669
G1 X0.0025 Y76.6773
G1 X0.0000 Y76.5876
G1 X0.0000 Y14.5877
G1 X0.0015 Y14.5189
G1 X0.0079 Y14.4292
G1 X0.0193 Y14.3403
G1 X0.0358 Y14.2519
G1 X0.0574 Y14.1648
G1 X0.0838 Y14.0790
G1 X0.1148 Y13.9946
G1 X0.1509 Y13.9123
G1 X0.1689 Y13.8765
G1 X0.1709 Y13.8618
G1 X0.1986 Y13.6718
G1 X0.2283 Y13.4828
G1 X0.2598 Y13.2964
G1 X0.2939 Y13.1087
G1 X0.3297 Y12.9233
G1 X0.3680 Y12.7371
G1 X0.4082 Y12.5534
G1 X0.4508 Y12.3683
G1 X0.4950 Y12.1862
G1 X0.5413 Y12.0045
G1 X0.5905 Y11.8217
G1 X0.6411 Y11.6413
G1 X0.6934 Y11.4630
G1 X0.7480 Y11.2842
G1 X0.8047 Y11.1067
G1 X0.8633 Y10.9296
G1 X0.9238 Y10.7541
G1 X0.9853 Y10.5816
G1 X1.0508 Y10.4049
G1 X1.1171 Y10.2319
G1 X1.1849 Y10.0614
G1 X1.2550 Y9.8905
G1 X1.3274 Y9.7196
G1 X1.4008 Y9.5519
G1 X1.4768 Y9.3838
G1 X1.5542 Y9.2174
G1 X1.6337 Y9.0515
G1 X1.7142 Y8.8885
G1 X1.7983 Y8.7229
G1 X1.8829 Y8.5611
G1 X1.9685 Y8.4013
G1 X2.0569 Y8.2408
G1 X2.1478 Y8.0808
G1 X2.2395 Y7.9233
G1 X2.3315 Y7.7691
G1 X2.4275 Y7.6121
G1 X2.5243 Y7.4582
G1 X2.6236 Y7.3045
G1 X2.7236 Y7.1529
G1 X2.8240 Y7.0043
G1 X2.9294 Y6.8524
G1 X3.0333 Y6.7061
G1 X3.1407 Y6.5585
G1 X3.2476 Y6.4148
G1 X3.3584 Y6.2695
G1 X3.4707 Y6.1257
G1 X3.5824 Y5.9858
G1 X3.6980 Y5.8445
G1 X3.8125 Y5.7071
G1 X3.9309 Y5.5690
G1 X4.0498 Y5.4328
G1 X4.1702 Y5.2984
G1 X4.2918 Y5.1653
G1 X4.4166 Y5.0322
G1 X4.5397 Y4.9032
G1 X4.6672 Y4.7732
G1 X4.7948 Y4.6457
G1 X4.9238 Y4.5197
G1 X5.0541 Y4.3950
G1 X5.1857 Y4.2720
G1 X5.3203 Y4.1493
G1 X5.4534 Y4.0302
G1 X5.5905 Y3.9106
G1 X5.7264 Y3.7945
G1 X5.8677 Y3.6769
G1 X6.0046 Y3.5649
G1 X6.1468 Y3.4514
G1 X6.2908 Y3.3393
G1 X6.4315 Y3.2322
G1 X6.5794 Y3.1222
G1 X6.7239 Y3.0170
G1 X6.8725 Y2.9116
G1 X7.0183 Y2.8105
G1 X7.1709 Y2.7071
G1 X7.3203 Y2.6086
G1 X7.4755 Y2.5088
G1 X7.6258 Y2.4143
G1 X7.7813 Y2.3188
G1 X7.9357 Y2.2266
G1 X8.0940 Y2.1344
G1 X8.2499 Y2.0457
G1 X8.4104 Y1.9571
G1 X8.5702 Y1.8712
G1 X8.7312 Y1.7869
G1 X8.8938 Y1.7041
G1 X9.0566 Y1.6236
G1 X9.2205 Y1.5448
G1 X9.3863 Y1.4676
G1 X9.5509 Y1.3929
G1 X9.7173 Y1.3195
G1 X9.8890 Y1.2464
G1 X10.0554 Y1.1778
G1 X10.2258 Y1.1097
G1 X10.3962 Y1.0439
G1 X10.5692 Y0.9792
G1 X10.7414 Y0.9172
G1 X10.9162 Y0.8567
G1 X11.0886 Y0.7991
G1 X11.2641 Y0.7424
G1 X11.4427 Y0.6876
G1 X11.6175 Y0.6355
G1 X11.7953 Y0.5850
G1 X11.9761 Y0.5362
G1 X12.1524 Y0.4902
G1 X12.3347 Y0.4455
G1 X12.5153 Y0.4031
G1 X12.6967 Y0.3627
G1 X12.8803 Y0.3244
G1 X13.0625 Y0.2883
G1 X13.2456 Y0.2543
G1 X13.4292 Y0.2223
G1 X13.6180 Y0.1918
G1 X13.7998 Y0.1643
G1 X13.9878 Y0.1384
G1 X14.1757 Y0.1148
G1 X14.3642 Y0.0935
G1 X14.5506 Y0.0744
G1 X14.7404 Y0.0574
G1 X14.9278 Y0.0424
G1 X15.1206 Y0.0297
G1 X15.3088 Y0.0193
G1 X15.5026 Y0.0112
G1 X15.6919 Y0.0053
G1 X15.8839 Y0.0015
G1 X16.0762 Y0.0000
G1 X16.2710 Y0.0010
G1 X16.4630 Y0.0043
G1 X16.6571 Y0.0102
G1 X16.8460 Y0.0178
G1 X17.0368 Y0.0279
G1 X17.2273 Y0.0401
G1 X17.4170 Y0.0549
G1 X17.6042 Y0.0711
G1 X17.7957 Y0.0904
G1 X17.9819 Y0.1113
G1 X18.1676 Y0.1341
G1 X18.3576 Y0.1600
G1 X18.5400 Y0.1867
G1 X18.7287 Y0.2172
G1 X18.9123 Y0.2487
G1 X19.0952 Y0.2822
G1 X19.2801 Y0.3185
G1 X19.4617 Y0.3561
G1 X19.6431 Y0.3960
G1 X19.8260 Y0.4387
G1 X20.0055 Y0.4826
G1 X20.1849 Y0.5286
G1 X20.3637 Y0.5768
G1 X20.5415 Y0.6269
G1 X20.7203 Y0.6797
G1 X20.8951 Y0.7333
G1 X21.0703 Y0.7889
G1 X21.2458 Y0.8473
G1 X21.4213 Y0.9081
G1 X21.5930 Y0.9695
G1 X21.7632 Y1.0325
G1 X21.9370 Y1.0993
G1 X22.1056 Y1.1664
G1 X22.2761 Y1.2365
G1 X22.4429 Y1.3068
G1 X22.6108 Y1.3802
G1 X22.7787 Y1.4562
G1 X22.9428 Y1.5324
G1 X23.1087 Y1.6119
G1 X23.2715 Y1.6921
G1 X23.4325 Y1.7737
G1 X23.5953 Y1.8588
G1 X23.7533 Y1.9434
G1 X23.9151 Y2.0325
G1 X24.0713 Y2.1206
G1 X24.2280 Y2.2113
G1 X24.3865 Y2.3061
G1 X24.5402 Y2.3998
G1 X24.6918 Y2.4948
G1 X24.8460 Y2.5938
G1 X24.9956 Y2.6919
G1 X25.1485 Y2.7953
G1 X25.2956 Y2.8969
G1 X25.4434 Y3.0013
G1 X25.5900 Y3.1074
G1 X25.7363 Y3.2161
G1 X25.8788 Y3.3241
G1 X26.0215 Y3.4351
G1 X26.1628 Y3.5471
G1 X26.3040 Y3.6622
G1 X26.4414 Y3.7765
G1 X26.5803 Y3.8946
G1 X26.7175 Y4.0142
G1 X26.8496 Y4.1318
G1 X26.9845 Y4.2545
G1 X27.1178 Y4.3787
G1 X27.2471 Y4.5019
G1 X27.3774 Y4.6289
G1 X27.5054 Y4.7564
G1 X27.6316 Y4.8852
G1 X27.7566 Y5.0152
G1 X27.8801 Y5.1468
G1 X28.0022 Y5.2799
G1 X28.1239 Y5.4155
G1 X28.2420 Y5.5499
G1 X28.3619 Y5.6899
G1 X28.4757 Y5.8255
G1 X28.5913 Y5.9665
G1 X28.7045 Y6.1074
G1 X28.8171 Y6.2514
G1 X28.9268 Y6.3952
G1 X29.0350 Y6.5400
G1 X29.1427 Y6.6878
G1 X29.2468 Y6.8341
G1 X29.3507 Y6.9830
G1 X29.4533 Y7.1344
G1 X29.5537 Y7.2857
G1 X29.6530 Y7.4397
G1 X29.7500 Y7.5936
G1 X29.8442 Y7.7467
G1 X29.9390 Y7.9047
G1 X30.0307 Y8.0617
G1 X30.1214 Y8.2215
G1 X30.2097 Y8.3810
G1 X30.2966 Y8.5423
G1 X30.3817 Y8.7051
G1 X30.4643 Y8.8669
G1 X30.5460 Y9.0317
G1 X30.6258 Y9.1976
G1 X30.7033 Y9.3632
G1 X30.7797 Y9.5321
G1 X30.8541 Y9.7020
G1 X30.9258 Y9.8699
G1 X30.9964 Y10.0419
G1 X31.0645 Y10.2126
G1 X31.1313 Y10.3853
G1 X31.1958 Y10.5590
G1 X31.2588 Y10.7345
G1 X31.3197 Y10.9111
G1 X31.3784 Y11.0876
G1 X31.4350 Y11.2649
G1 X31.4896 Y11.4419
G1 X31.5427 Y11.6223
G1 X31.5938 Y11.8029
G1 X31.6428 Y11.9858
G1 X31.6890 Y12.1658
G1 X31.7340 Y12.3497
G1 X31.7764 Y12.5326
G1 X31.8173 Y12.7193
G1 X31.8554 Y12.9032
G1 X31.8915 Y13.0884
G1 X31.9260 Y13.2766
G1 X31.9580 Y13.4653
G1 X31.9877 Y13.6525
G1 X32.0157 Y13.8422
G1 X32.0256 Y13.9162
G1 X32.0523 Y13.9753
G1 X32.0845 Y14.0592
G1 X32.1122 Y14.1448
G1 X32.1348 Y14.2316
G1 X32.1523 Y14.3195
G1 X32.1650 Y14.4084
G1 X32.1727 Y14.4981
G1 X32.1752 Y14.5877
G1 X32.1752 Y76.5876
G1 X32.1737 Y76.6564
G1 X32.1673 Y76.7461
G1 X32.1559 Y76.8350
G1 X32.1394 Y76.9234
G1 X32.1178 Y77.0105
G1 X32.0914 Y77.0964
G1 X32.0604 Y77.1807
G1 X32.0243 Y77.2630
G1 X31.9839 Y77.3430
G1 X31.9390 Y77.4207
G1 X31.8897 Y77.4959
G1 X31.8364 Y77.5680
G1 X31.7790 Y77.6371
G1 X31.7175 Y77.7027
G1 X31.6527 Y77.7649
G1 X31.5844 Y77.8231
G1 X31.5130 Y77.8774
G1 X31.4386 Y77.9277
G1 X31.3614 Y77.9737
G1 X31.2819 Y78.0153
G1 X31.2001 Y78.0522
G1 X31.1163 Y78.0844
G1 X31.0307 Y78.1121
G1 X30.9438 Y78.1347
G1 X30.8559 Y78.1522
G1 X30.7670 Y78.1649
G1 X30.6774 Y78.1726
G1 X30.5877 Y78.1751
; Rapid to initial position
G1 X30.5877 Y78.1751 F2540
G1 Z-1.5000
; plunge
G1 Z-2.2500 F127
; cut
G1 X1.5875 Y78.1751 F200
G1 X1.5187 Y78.1736
G1 X1.4290 Y78.1672
G1 X1.3401 Y78.1558
G1 X1.2517 Y78.1393
G1 X1.1646 Y78.1177
G1 X1.0787 Y78.0913
G1 X0.9944 Y78.0603
G1 X0.9121 Y78.0242
G1 X0.8321 Y77.9838
G1 X0.7544 Y77.9389
G1 X0.6792 Y77.8896
G1 X0.6071 Y77.8363
G1 X0.5380 Y77.7789
G1 X0.4724 Y77.7174
G1 X0.4102 Y77.6526
G1 X0.3520 Y77.5843
G1 X0.2977 Y77.5129
G1 X0.2474 Y77.4385
G1 X0.2014 Y77.3613
G1 X0.1598 Y77.2818
G1 X0.1229 Y77.2000
G1 X0.0907 Y77.1162
G1 X0.0630 Y77.0306
G1 X0.0404 Y76.9437
G1 X0.0229 Y76.8558
G1 X0.0102 Y76.7669
G1 X0.0025 Y76.6773
G1 X0.0000 Y76.5876
G1 X0.0000 Y14.5877
G1 X0.0015 Y14.5189
G1 X0.0079 Y14.4292
G1 X0.0193 Y14.3403
G1 X0.0358 Y14.2519
G1 X0.0574 Y14.1648
G1 X0.0838 Y14.0790
G1 X0.1148 Y13.9946
G1 X0.1509 Y13.9123
G1 X0.1689 Y13.8765
G1 X0.1709 Y13.8618
G1 X0.1986 Y13.6718
G1 X0.2283 Y13.4828
G1 X0.2598 Y13.2964
G1 X0.2939 Y13.1087
G1 X0.3297 Y12.9233
G1 X0.3680 Y12.7371
G1 X0.4082 Y12.5534
G1 X0.4508 Y12.3683
G1 X0.4950 Y12.1862
G1 X0.5413 Y12.0045
G1 X0.5905 Y11.8217
G1 X0.6411 Y11.6413
G1 X0.6934 Y11.4630
G1 X0.7480 Y11.2842
G1 X0.8047 Y11.1067
G1 X0.8633 Y10.9296
G1 X0.9238 Y10.7541
G1 X0.9853 Y10.5816
G1 X1.0508 Y10.4049
G1 X1.1171 Y10.2319
G1 X1.1849 Y10.0614
G1 X1.2550 Y9.8905
G1 X1.3274 Y9.7196
G1 X1.4008 Y9.5519
G1 X1.4768 Y9.3838
G1 X1.5542 Y9.2174
G1 X1.6337 Y9.0515
G1 X1.7142 Y8.8885
G1 X1.7983 Y8.7229
G1 X1.8829 Y8.5611
G1 X1.9685 Y8.4013
G1 X2.0569 Y8.2408
G1 X2.1478 Y8.0808
G1 X2.2395 Y7.9233
G1 X2.3315 Y7.7691
G1 X2.4275 Y7.6121
G1 X2.5243 Y7.4582
G1 X2.6236 Y7.3045
G1 X2.7236 Y7.1529
G1 X2.8240 Y7.0043
G1 X2.9294 Y6.8524
G1 X3.0333 Y6.7061
G1 X3.1407 Y6.5585
G1 X3.2476 Y6.4148
G1 X3.3584 Y6.2695
G1 X3.4707 Y6.1257
G1 X3.5824 Y5.9858
G1 X3.6980 Y5.8445
G1 X3.8125 Y5.7071
G1 X3.9309 Y5.5690
G1 X4.0498 Y5.4328
G1 X4.1702 Y5.2984
G1 X4.2918 Y5.1653
G1 X4.4166 Y5.0322
G1 X4.5397 Y4.9032
G1 X4.6672 Y4.7732
G1 X4.7948 Y4.6457
G1 X4.9238 Y4.5197
G1 X5.0541 Y4.3950
G1 X5.1857 Y4.2720
G1 X5.3203 Y4.1493
G1 X5.4534 Y4.0302
G1 X5.5905 Y3.9106
G1 X5.7264 Y3.7945
G1 X5.8677 Y3.6769
G1 X6.0046 Y3.5649
G1 X6.1468 Y3.4514
G1 X6.2908 Y3.3393
G1 X6.4315 Y3.2322
G1 X6.5794 Y3.1222
G1 X6.7239 Y3.0170
G1 X6.8725 Y2.9116
G1 X7.0183 Y2.8105
G1 X7.1709 Y2.7071
G1 X7.3203 Y2.6086
G1 X7.4755 Y2.5088
G1 X7.6258 Y2.4143
G1 X7.7813 Y2.3188
G1 X7.9357 Y2.2266
G1 X8.0940 Y2.1344
G1 X8.2499 Y2.0457
G1 X8.4104 Y1.9571
G1 X8.5702 Y1.8712
G1 X8.7312 Y1.7869
G1 X8.8938 Y1.7041
G1 X9.0566 Y1.6236
G1 X9.2205 Y1.5448
G1 X9.3863 Y1.4676
G1 X9.5509 Y1.3929
G1 X9.7173 Y1.3195
G1 X9.8890 Y1.2464
G1 X10.0554 Y1.1778
G1 X10.2258 Y1.1097
G1 X10.3962 Y1.0439
G1 X10.5692 Y0.9792
G1 X10.7414 Y0.9172
G1 X10.9162 Y0.8567
G1 X11.0886 Y0.7991
G1 X11.2641 Y0.7424
G1 X11.4427 Y0.6876
G1 X11.6175 Y0.6355
G1 X11.7953 Y0.5850
G1 X11.9761 Y0.5362
G1 X12.1524 Y0.4902
G1 X12.3347 Y0.4455
G1 X12.5153 Y0.4031
G1 X12.6967 Y0.3627
G1 X12.8803 Y0.3244
G1 X13.0625 Y0.2883
G1 X13.2456 Y0.2543
G1 X13.4292 Y0.2223
G1 X13.6180 Y0.1918
G1 X13.7998 Y0.1643
G1 X13.9878 Y0.1384
G1 X14.1757 Y0.1148
G1 X14.3642 Y0.0935
G1 X14.5506 Y0.0744
G1 X14.7404 Y0.0574
G1 X14.9278 Y0.0424
G1 X15.1206 Y0.0297
G1 X15.3088 Y0.0193
G1 X15.5026 Y0.0112
G1 X15.6919 Y0.0053
G1 X15.8839 Y0.0015
G1 X16.0762 Y0.0000
G1 X16.2710 Y0.0010
G1 X16.4630 Y0.0043
G1 X16.6571 Y0.0102
G1 X16.8460 Y0.0178
G1 X17.0368 Y0.0279
G1 X17.2273 Y0.0401
G1 X17.4170 Y0.0549
G1 X17.6042 Y0.0711
G1 X17.7957 Y0.0904
G1 X17.9819 Y0.1113
G1 X18.1676 Y0.1341
G1 X18.3576 Y0.1600
G1 X18.5400 Y0.1867
G1 X18.7287 Y0.2172
G1 X18.9123 Y0.2487
G1 X19.0952 Y0.2822
G1 X19.2801 Y0.3185
G1 X19.4617 Y0.3561
G1 X19.6431 Y0.3960
G1 X19.8260 Y0.4387
G1 X20.0055 Y0.4826
G1 X20.1849 Y0.5286
G1 X20.3637 Y0.5768
G1 X20.5415 Y0.6269
G1 X20.7203 Y0.6797
G1 X20.8951 Y0.7333
G1 X21.0703 Y0.7889
G1 X21.2458 Y0.8473
G1 X21.4213 Y0.9081
G1 X21.5930 Y0.9695
G1 X21.7632 Y1.0325
G1 X21.9370 Y1.0993
G1 X22.1056 Y1.1664
G1 X22.2761 Y1.2365
G1 X22.4429 Y1.3068
G1 X22.6108 Y1.3802
G1 X22.7787 Y1.4562
G1 X22.9428 Y1.5324
G1 X23.1087 Y1.6119
G1 X23.2715 Y1.6921
G1 X23.4325 Y1.7737
G1 X23.5953 Y1.8588
G1 X23.7533 Y1.9434
G1 X23.9151 Y2.0325
G1 X24.0713 Y2.1206
G1 X24.2280 Y2.2113
G1 X24.3865 Y2.3061
G1 X24.5402 Y2.3998
G1 X24.6918 Y2.4948
G1 X24.8460 Y2.5938
G1 X24.9956 Y2.6919
G1 X25.1485 Y2.7953
G1 X25.2956 Y2.8969
G1 X25.4434 Y3.0013
G1 X25.5900 Y3.1074
G1 X25.7363 Y3.2161
G1 X25.8788 Y3.3241
G1 X26.0215 Y3.4351
G1 X26.1628 Y3.5471
G1 X26.3040 Y3.6622
G1 X26.4414 Y3.7765
G1 X26.5803 Y3.8946
G1 X26.7175 Y4.0142
G1 X26.8496 Y4.1318
G1 X26.9845 Y4.2545
G1 X27.1178 Y4.3787
G1 X27.2471 Y4.5019
G1 X27.3774 Y4.6289
G1 X27.5054 Y4.7564
G1 X27.6316 Y4.8852
G1 X27.7566 Y5.0152
G1 X27.8801 Y5.1468
G1 X28.0022 Y5.2799
G1 X28.1239 Y5.4155
G1 X28.2420 Y5.5499
G1 X28.3619 Y5.6899
G1 X28.4757 Y5.8255
G1 X28.5913 Y5.9665
G1 X28.7045 Y6.1074
G1 X28.8171 Y6.2514
G1 X28.9268 Y6.3952
G1 X29.0350 Y6.5400
G1 X29.1427 Y6.6878
G1 X29.2468 Y6.8341
G1 X29.3507 Y6.9830
G1 X29.4533 Y7.1344
G1 X29.5537 Y7.2857
G1 X29.6530 Y7.4397
G1 X29.7500 Y7.5936
G1 X29.8442 Y7.7467
G1 X29.9390 Y7.9047
G1 X30.0307 Y8.0617
G1 X30.1214 Y8.2215
G1 X30.2097 Y8.3810
G1 X30.2966 Y8.5423
G1 X30.3817 Y8.7051
G1 X30.4643 Y8.8669
G1 X30.5460 Y9.0317
G1 X30.6258 Y9.1976
G1 X30.7033 Y9.3632
G1 X30.7797 Y9.5321
G1 X30.8541 Y9.7020
G1 X30.9258 Y9.8699
G1 X30.9964 Y10.0419
G1 X31.0645 Y10.2126
G1 X31.1313 Y10.3853
G1 X31.1958 Y10.5590
G1 X31.2588 Y10.7345
G1 X31.3197 Y10.9111
G1 X31.3784 Y11.0876
G1 X31.4350 Y11.2649
G1 X31.4896 Y11.4419
G1 X31.5427 Y11.6223
G1 X31.5938 Y11.8029
G1 X31.6428 Y11.9858
G1 X31.6890 Y12.1658
G1 X31.7340 Y12.3497
G1 X31.7764 Y12.5326
G1 X31.8173 Y12.7193
G1 X31.8554 Y12.9032
G1 X31.8915 Y13.0884
G1 X31.9260 Y13.2766
G1 X31.9580 Y13.4653
G1 X31.9877 Y13.6525
G1 X32.0157 Y13.8422
G1 X32.0256 Y13.9162
G1 X32.0523 Y13.9753
G1 X32.0845 Y14.0592
G1 X32.1122 Y14.1448
G1 X32.1348 Y14.2316
G1 X32.1523 Y14.3195
G1 X32.1650 Y14.4084
G1 X32.1727 Y14.4981
G1 X32.1752 Y14.5877
G1 X32.1752 Y76.5876
G1 X32.1737 Y76.6564
G1 X32.1673 Y76.7461
G1 X32.1559 Y76.8350
G1 X32.1394 Y76.9234
G1 X32.1178 Y77.0105
G1 X32.0914 Y77.0964
G1 X32.0604 Y77.1807
G1 X32.0243 Y77.2630
G1 X31.9839 Y77.3430
G1 X31.9390 Y77.4207
G1 X31.8897 Y77.4959
G1 X31.8364 Y77.5680
G1 X31.7790 Y77.6371
G1 X31.7175 Y77.7027
G1 X31.6527 Y77.7649
G1 X31.5844 Y77.8231
G1 X31.5130 Y77.8774
G1 X31.4386 Y77.9277
G1 X31.3614 Y77.9737
G1 X31.2819 Y78.0153
G1 X31.2001 Y78.0522
G1 X31.1163 Y78.0844
G1 X31.0307 Y78.1121
G1 X30.9438 Y78.1347
G1 X30.8559 Y78.1522
G1 X30.7670 Y78.1649
G1 X30.6774 Y78.1726
G1 X30.5877 Y78.1751
; Rapid to initial position
G1 X30.5877 Y78.1751 F2540
G1 Z-2.2500
; plunge
G1 Z-3.0000 F127
; cut
G1 X1.5875 Y78.1751 F200
G1 X1.5187 Y78.1736
G1 X1.4290 Y78.1672
G1 X1.3401 Y78.1558
G1 X1.2517 Y78.1393
G1 X1.1646 Y78.1177
G1 X1.0787 Y78.0913
G1 X0.9944 Y78.0603
G1 X0.9121 Y78.0242
G1 X0.8321 Y77.9838
G1 X0.7544 Y77.9389
G1 X0.6792 Y77.8896
G1 X0.6071 Y77.8363
G1 X0.5380 Y77.7789
G1 X0.4724 Y77.7174
G1 X0.4102 Y77.6526
G1 X0.3520 Y77.5843
G1 X0.2977 Y77.5129
G1 X0.2474 Y77.4385
G1 X0.2014 Y77.3613
G1 X0.1598 Y77.2818
G1 X0.1229 Y77.2000
G1 X0.0907 Y77.1162
G1 X0.0630 Y77.0306
G1 X0.0404 Y76.9437
G1 X0.0229 Y76.8558
G1 X0.0102 Y76.7669
G1 X0.0025 Y76.6773
G1 X0.0000 Y76.5876
G1 X0.0000 Y14.5877
G1 X0.0015 Y14.5189
G1 X0.0079 Y14.4292
G1 X0.0193 Y14.3403
G1 X0.0358 Y14.2519
G1 X0.0574 Y14.1648
G1 X0.0838 Y14.0790
G1 X0.1148 Y13.9946
G1 X0.1509 Y13.9123
G1 X0.1689 Y13.8765
G1 X0.1709 Y13.8618
G1 X0.1986 Y13.6718
G1 X0.2283 Y13.4828
G1 X0.2598 Y13.2964
G1 X0.2939 Y13.1087
G1 X0.3297 Y12.9233
G1 X0.3680 Y12.7371
G1 X0.4082 Y12.5534
G1 X0.4508 Y12.3683
G1 X0.4950 Y12.1862
G1 X0.5413 Y12.0045
G1 X0.5905 Y11.8217
G1 X0.6411 Y11.6413
G1 X0.6934 Y11.4630
G1 X0.7480 Y11.2842
G1 X0.8047 Y11.1067
G1 X0.8633 Y10.9296
G1 X0.9238 Y10.7541
G1 X0.9853 Y10.5816
G1 X1.0508 Y10.4049
G1 X1.1171 Y10.2319
G1 X1.1849 Y10.0614
G1 X1.2550 Y9.8905
G1 X1.3274 Y9.7196
G1 X1.4008 Y9.5519
G1 X1.4768 Y9.3838
G1 X1.5542 Y9.2174
G1 X1.6337 Y9.0515
G1 X1.7142 Y8.8885
G1 X1.7983 Y8.7229
G1 X1.8829 Y8.5611
G1 X1.9685 Y8.4013
G1 X2.0569 Y8.2408
G1 X2.1478 Y8.0808
G1 X2.2395 Y7.9233
G1 X2.3315 Y7.7691
G1 X2.4275 Y7.6121
G1 X2.5243 Y7.4582
G1 X2.6236 Y7.3045
G1 X2.7236 Y7.1529
G1 X2.8240 Y7.0043
G1 X2.9294 Y6.8524
G1 X3.0333 Y6.7061
G1 X3.1407 Y6.5585
G1 X3.2476 Y6.4148
G1 X3.3584 Y6.2695
G1 X3.4707 Y6.1257
G1 X3.5824 Y5.9858
G1 X3.6980 Y5.8445
G1 X3.8125 Y5.7071
G1 X3.9309 Y5.5690
G1 X4.0498 Y5.4328
G1 X4.1702 Y5.2984
G1 X4.2918 Y5.1653
G1 X4.4166 Y5.0322
G1 X4.5397 Y4.9032
G1 X4.6672 Y4.7732
G1 X4.7948 Y4.6457
G1 X4.9238 Y4.5197
G1 X5.0541 Y4.3950
G1 X5.1857 Y4.2720
G1 X5.3203 Y4.1493
G1 X5.4534 Y4.0302
G1 X5.5905 Y3.9106
G1 X5.7264 Y3.7945
G1 X5.8677 Y3.6769
G1 X6.0046 Y3.5649
G1 X6.1468 Y3.4514
G1 X6.2908 Y3.3393
G1 X6.4315 Y3.2322
G1 X6.5794 Y3.1222
G1 X6.7239 Y3.0170
G1 X6.8725 Y2.9116
G1 X7.0183 Y2.8105
G1 X7.1709 Y2.7071
G1 X7.3203 Y2.6086
G1 X7.4755 Y2.5088
G1 X7.6258 Y2.4143
G1 X7.7813 Y2.3188
G1 X7.9357 Y2.2266
G1 X8.0940 Y2.1344
G1 X8.2499 Y2.0457
G1 X8.4104 Y1.9571
G1 X8.5702 Y1.8712
G1 X8.7312 Y1.7869
G1 X8.8938 Y1.7041
G1 X9.0566 Y1.6236
G1 X9.2205 Y1.5448
G1 X9.3863 Y1.4676
G1 X9.5509 Y1.3929
G1 X9.7173 Y1.3195
G1 X9.8890 Y1.2464
G1 X10.0554 Y1.1778
G1 X10.2258 Y1.1097
G1 X10.3962 Y1.0439
G1 X10.5692 Y0.9792
G1 X10.7414 Y0.9172
G1 X10.9162 Y0.8567
G1 X11.0886 Y0.7991
G1 X11.2641 Y0.7424
G1 X11.4427 Y0.6876
G1 X11.6175 Y0.6355
G1 X11.7953 Y0.5850
G1 X11.9761 Y0.5362
G1 X12.1524 Y0.4902
G1 X12.3347 Y0.4455
G1 X12.5153 Y0.4031
G1 X12.6967 Y0.3627
G1 X12.8803 Y0.3244
G1 X13.0625 Y0.2883
G1 X13.2456 Y0.2543
G1 X13.4292 Y0.2223
G1 X13.6180 Y0.1918
G1 X13.7998 Y0.1643
G1 X13.9878 Y0.1384
G1 X14.1757 Y0.1148
G1 X14.3642 Y0.0935
G1 X14.5506 Y0.0744
G1 X14.7404 Y0.0574
G1 X14.9278 Y0.0424
G1 X15.1206 Y0.0297
G1 X15.3088 Y0.0193
G1 X15.5026 Y0.0112
G1 X15.6919 Y0.0053
G1 X15.8839 Y0.0015
G1 X16.0762 Y0.0000
G1 X16.2710 Y0.0010
G1 X16.4630 Y0.0043
G1 X16.6571 Y0.0102
G1 X16.8460 Y0.0178
G1 X17.0368 Y0.0279
G1 X17.2273 Y0.0401
G1 X17.4170 Y0.0549
G1 X17.6042 Y0.0711
G1 X17.7957 Y0.0904
G1 X17.9819 Y0.1113
G1 X18.1676 Y0.1341
G1 X18.3576 Y0.1600
G1 X18.5400 Y0.1867
G1 X18.7287 Y0.2172
G1 X18.9123 Y0.2487
G1 X19.0952 Y0.2822
G1 X19.2801 Y0.3185
G1 X19.4617 Y0.3561
G1 X19.6431 Y0.3960
G1 X19.8260 Y0.4387
G1 X20.0055 Y0.4826
G1 X20.1849 Y0.5286
G1 X20.3637 Y0.5768
G1 X20.5415 Y0.6269
G1 X20.7203 Y0.6797
G1 X20.8951 Y0.7333
G1 X21.0703 Y0.7889
G1 X21.2458 Y0.8473
G1 X21.4213 Y0.9081
G1 X21.5930 Y0.9695
G1 X21.7632 Y1.0325
G1 X21.9370 Y1.0993
G1 X22.1056 Y1.1664
G1 X22.2761 Y1.2365
G1 X22.4429 Y1.3068
G1 X22.6108 Y1.3802
G1 X22.7787 Y1.4562
G1 X22.9428 Y1.5324
G1 X23.1087 Y1.6119
G1 X23.2715 Y1.6921
G1 X23.4325 Y1.7737
G1 X23.5953 Y1.8588
G1 X23.7533 Y1.9434
G1 X23.9151 Y2.0325
G1 X24.0713 Y2.1206
G1 X24.2280 Y2.2113
G1 X24.3865 Y2.3061
G1 X24.5402 Y2.3998
G1 X24.6918 Y2.4948
G1 X24.8460 Y2.5938
G1 X24.9956 Y2.6919
G1 X25.1485 Y2.7953
G1 X25.2956 Y2.8969
G1 X25.4434 Y3.0013
G1 X25.5900 Y3.1074
G1 X25.7363 Y3.2161
G1 X25.8788 Y3.3241
G1 X26.0215 Y3.4351
G1 X26.1628 Y3.5471
G1 X26.3040 Y3.6622
G1 X26.4414 Y3.7765
G1 X26.5803 Y3.8946
G1 X26.7175 Y4.0142
G1 X26.8496 Y4.1318
G1 X26.9845 Y4.2545
G1 X27.1178 Y4.3787
G1 X27.2471 Y4.5019
G1 X27.3774 Y4.6289
G1 X27.5054 Y4.7564
G1 X27.6316 Y4.8852
G1 X27.7566 Y5.0152
G1 X27.8801 Y5.1468
G1 X28.0022 Y5.2799
G1 X28.1239 Y5.4155
G1 X28.2420 Y5.5499
G1 X28.3619 Y5.6899
G1 X28.4757 Y5.8255
G1 X28.5913 Y5.9665
G1 X28.7045 Y6.1074
G1 X28.8171 Y6.2514
G1 X28.9268 Y6.3952
G1 X29.0350 Y6.5400
G1 X29.1427 Y6.6878
G1 X29.2468 Y6.8341
G1 X29.3507 Y6.9830
G1 X29.4533 Y7.1344
G1 X29.5537 Y7.2857
G1 X29.6530 Y7.4397
G1 X29.7500 Y7.5936
G1 X29.8442 Y7.7467
G1 X29.9390 Y7.9047
G1 X30.0307 Y8.0617
G1 X30.1214 Y8.2215
G1 X30.2097 Y8.3810
G1 X30.2966 Y8.5423
G1 X30.3817 Y8.7051
G1 X30.4643 Y8.8669
G1 X30.5460 Y9.0317
G1 X30.6258 Y9.1976
G1 X30.7033 Y9.3632
G1 X30.7797 Y9.5321
G1 X30.8541 Y9.7020
G1 X30.9258 Y9.8699
G1 X30.9964 Y10.0419
G1 X31.0645 Y10.2126
G1 X31.1313 Y10.3853
G1 X31.1958 Y10.5590
G1 X31.2588 Y10.7345
G1 X31.3197 Y10.9111
G1 X31.3784 Y11.0876
G1 X31.4350 Y11.2649
G1 X31.4896 Y11.4419
G1 X31.5427 Y11.6223
G1 X31.5938 Y11.8029
G1 X31.6428 Y11.9858
G1 X31.6890 Y12.1658
G1 X31.7340 Y12.3497
G1 X31.7764 Y12.5326
G1 X31.8173 Y12.7193
G1 X31.8554 Y12.9032
G1 X31.8915 Y13.0884
G1 X31.9260 Y13.2766
G1 X31.9580 Y13.4653
G1 X31.9877 Y13.6525
G1 X32.0157 Y13.8422
G1 X32.0256 Y13.9162
G1 X32.0523 Y13.9753
G1 X32.0845 Y14.0592
G1 X32.1122 Y14.1448
G1 X32.1348 Y14.2316
G1 X32.1523 Y14.3195
G1 X32.1650 Y14.4084
G1 X32.1727 Y14.4981
G1 X32.1752 Y14.5877
G1 X32.1752 Y76.5876
G1 X32.1737 Y76.6564
G1 X32.1673 Y76.7461
G1 X32.1559 Y76.8350
G1 X32.1394 Y76.9234
G1 X32.1178 Y77.0105
G1 X32.0914 Y77.0964
G1 X32.0604 Y77.1807
G1 X32.0243 Y77.2630
G1 X31.9839 Y77.3430
G1 X31.9390 Y77.4207
G1 X31.8897 Y77.4959
G1 X31.8364 Y77.5680
G1 X31.7790 Y77.6371
G1 X31.7175 Y77.7027
G1 X31.6527 Y77.7649
G1 X31.5844 Y77.8231
G1 X31.5130 Y77.8774
G1 X31.4386 Y77.9277
G1 X31.3614 Y77.9737
G1 X31.2819 Y78.0153
G1 X31.2001 Y78.0522
G1 X31.1163 Y78.0844
G1 X31.0307 Y78.1121
G1 X30.9438 Y78.1347
G1 X30.8559 Y78.1522
G1 X30.7670 Y78.1649
G1 X30.6774 Y78.1726
G1 X30.5877 Y78.1751
; Rapid to initial position
G1 X30.5877 Y78.1751 F2540
G1 Z-3.0000
; plunge
G1 Z-3.7500 F127
; cut
G1 X1.5875 Y78.1751 F200
G1 X1.5187 Y78.1736
G1 X1.4290 Y78.1672
G1 X1.3401 Y78.1558
G1 X1.2517 Y78.1393
G1 X1.1646 Y78.1177
G1 X1.0787 Y78.0913
G1 X0.9944 Y78.0603
G1 X0.9121 Y78.0242
G1 X0.8321 Y77.9838
G1 X0.7544 Y77.9389
G1 X0.6792 Y77.8896
G1 X0.6071 Y77.8363
G1 X0.5380 Y77.7789
G1 X0.4724 Y77.7174
G1 X0.4102 Y77.6526
G1 X0.3520 Y77.5843
G1 X0.2977 Y77.5129
G1 X0.2474 Y77.4385
G1 X0.2014 Y77.3613
G1 X0.1598 Y77.2818
G1 X0.1229 Y77.2000
G1 X0.0907 Y77.1162
G1 X0.0630 Y77.0306
G1 X0.0404 Y76.9437
G1 X0.0229 Y76.8558
G1 X0.0102 Y76.7669
G1 X0.0025 Y76.6773
G1 X0.0000 Y76.5876
G1 X0.0000 Y14.5877
G1 X0.0015 Y14.5189
G1 X0.0079 Y14.4292
G1 X0.0193 Y14.3403
G1 X0.0358 Y14.2519
G1 X0.0574 Y14.1648
G1 X0.0838 Y14.0790
G1 X0.1148 Y13.9946
G1 X0.1509 Y13.9123
G1 X0.1689 Y13.8765
G1 X0.1709 Y13.8618
G1 X0.1986 Y13.6718
G1 X0.2283 Y13.4828
G1 X0.2598 Y13.2964
G1 X0.2939 Y13.1087
G1 X0.3297 Y12.9233
G1 X0.3680 Y12.7371
G1 X0.4082 Y12.5534
G1 X0.4508 Y12.3683
G1 X0.4950 Y12.1862
G1 X0.5413 Y12.0045
G1 X0.5905 Y11.8217
G1 X0.6411 Y11.6413
G1 X0.6934 Y11.4630
G1 X0.7480 Y11.2842
G1 X0.8047 Y11.1067
G1 X0.8633 Y10.9296
G1 X0.9238 Y10.7541
G1 X0.9853 Y10.5816
G1 X1.0508 Y10.4049
G1 X1.1171 Y10.2319
G1 X1.1849 Y10.0614
G1 X1.2550 Y9.8905
G1 X1.3274 Y9.7196
G1 X1.4008 Y9.5519
G1 X1.4768 Y9.3838
G1 X1.5542 Y9.2174
G1 X1.6337 Y9.0515
G1 X1.7142 Y8.8885
G1 X1.7983 Y8.7229
G1 X1.8829 Y8.5611
G1 X1.9685 Y8.4013
G1 X2.0569 Y8.2408
G1 X2.1478 Y8.0808
G1 X2.2395 Y7.9233
G1 X2.3315 Y7.7691
G1 X2.4275 Y7.6121
G1 X2.5243 Y7.4582
G1 X2.6236 Y7.3045
G1 X2.7236 Y7.1529
G1 X2.8240 Y7.0043
G1 X2.9294 Y6.8524
G1 X3.0333 Y6.7061
G1 X3.1407 Y6.5585
G1 X3.2476 Y6.4148
G1 X3.3584 Y6.2695
G1 X3.4707 Y6.1257
G1 X3.5824 Y5.9858
G1 X3.6980 Y5.8445
G1 X3.8125 Y5.7071
G1 X3.9309 Y5.5690
G1 X4.0498 Y5.4328
G1 X4.1702 Y5.2984
G1 X4.2918 Y5.1653
G1 X4.4166 Y5.0322
G1 X4.5397 Y4.9032
G1 X4.6672 Y4.7732
G1 X4.7948 Y4.6457
G1 X4.9238 Y4.5197
G1 X5.0541 Y4.3950
G1 X5.1857 Y4.2720
G1 X5.3203 Y4.1493
G1 X5.4534 Y4.0302
G1 X5.5905 Y3.9106
G1 X5.7264 Y3.7945
G1 X5.8677 Y3.6769
G1 X6.0046 Y3.5649
G1 X6.1468 Y3.4514
G1 X6.2908 Y3.3393
G1 X6.4315 Y3.2322
G1 X6.5794 Y3.1222
G1 X6.7239 Y3.0170
G1 X6.8725 Y2.9116
G1 X7.0183 Y2.8105
G1 X7.1709 Y2.7071
G1 X7.3203 Y2.6086
G1 X7.4755 Y2.5088
G1 X7.6258 Y2.4143
G1 X7.7813 Y2.3188
G1 X7.9357 Y2.2266
G1 X8.0940 Y2.1344
G1 X8.2499 Y2.0457
G1 X8.4104 Y1.9571
G1 X8.5702 Y1.8712
G1 X8.7312 Y1.7869
G1 X8.8938 Y1.7041
G1 X9.0566 Y1.6236
G1 X9.2205 Y1.5448
G1 X9.3863 Y1.4676
G1 X9.5509 Y1.3929
G1 X9.7173 Y1.3195
G1 X9.8890 Y1.2464
G1 X10.0554 Y1.1778
G1 X10.2258 Y1.1097
G1 X10.3962 Y1.0439
G1 X10.5692 Y0.9792
G1 X10.7414 Y0.9172
G1 X10.9162 Y0.8567
G1 X11.0886 Y0.7991
G1 X11.2641 Y0.7424
G1 X11.4427 Y0.6876
G1 X11.6175 Y0.6355
G1 X11.7953 Y0.5850
G1 X11.9761 Y0.5362
G1 X12.1524 Y0.4902
G1 X12.3347 Y0.4455
G1 X12.5153 Y0.4031
G1 X12.6967 Y0.3627
G1 X12.8803 Y0.3244
G1 X13.0625 Y0.2883
G1 X13.2456 Y0.2543
G1 X13.4292 Y0.2223
G1 X13.6180 Y0.1918
G1 X13.7998 Y0.1643
G1 X13.9878 Y0.1384
G1 X14.1757 Y0.1148
G1 X14.3642 Y0.0935
G1 X14.5506 Y0.0744
G1 X14.7404 Y0.0574
G1 X14.9278 Y0.0424
G1 X15.1206 Y0.0297
G1 X15.3088 Y0.0193
G1 X15.5026 Y0.0112
G1 X15.6919 Y0.0053
G1 X15.8839 Y0.0015
G1 X16.0762 Y0.0000
G1 X16.2710 Y0.0010
G1 X16.4630 Y0.0043
G1 X16.6571 Y0.0102
G1 X16.8460 Y0.0178
G1 X17.0368 Y0.0279
G1 X17.2273 Y0.0401
G1 X17.4170 Y0.0549
G1 X17.6042 Y0.0711
G1 X17.7957 Y0.0904
G1 X17.9819 Y0.1113
G1 X18.1676 Y0.1341
G1 X18.3576 Y0.1600
G1 X18.5400 Y0.1867
G1 X18.7287 Y0.2172
G1 X18.9123 Y0.2487
G1 X19.0952 Y0.2822
G1 X19.2801 Y0.3185
G1 X19.4617 Y0.3561
G1 X19.6431 Y0.3960
G1 X19.8260 Y0.4387
G1 X20.0055 Y0.4826
G1 X20.1849 Y0.5286
G1 X20.3637 Y0.5768
G1 X20.5415 Y0.6269
G1 X20.7203 Y0.6797
G1 X20.8951 Y0.7333
G1 X21.0703 Y0.7889
G1 X21.2458 Y0.8473
G1 X21.4213 Y0.9081
G1 X21.5930 Y0.9695
G1 X21.7632 Y1.0325
G1 X21.9370 Y1.0993
G1 X22.1056 Y1.1664
G1 X22.2761 Y1.2365
G1 X22.4429 Y1.3068
G1 X22.6108 Y1.3802
G1 X22.7787 Y1.4562
G1 X22.9428 Y1.5324
G1 X23.1087 Y1.6119
G1 X23.2715 Y1.6921
G1 X23.4325 Y1.7737
G1 X23.5953 Y1.8588
G1 X23.7533 Y1.9434
G1 X23.9151 Y2.0325
G1 X24.0713 Y2.1206
G1 X24.2280 Y2.2113
G1 X24.3865 Y2.3061
G1 X24.5402 Y2.3998
G1 X24.6918 Y2.4948
G1 X24.8460 Y2.5938
G1 X24.9956 Y2.6919
G1 X25.1485 Y2.7953
G1 X25.2956 Y2.8969
G1 X25.4434 Y3.0013
G1 X25.5900 Y3.1074
G1 X25.7363 Y3.2161
G1 X25.8788 Y3.3241
G1 X26.0215 Y3.4351
G1 X26.1628 Y3.5471
G1 X26.3040 Y3.6622
G1 X26.4414 Y3.7765
G1 X26.5803 Y3.8946
G1 X26.7175 Y4.0142
G1 X26.8496 Y4.1318
G1 X26.9845 Y4.2545
G1 X27.1178 Y4.3787
G1 X27.2471 Y4.5019
G1 X27.3774 Y4.6289
G1 X27.5054 Y4.7564
G1 X27.6316 Y4.8852
G1 X27.7566 Y5.0152
G1 X27.8801 Y5.1468
G1 X28.0022 Y5.2799
G1 X28.1239 Y5.4155
G1 X28.2420 Y5.5499
G1 X28.3619 Y5.6899
G1 X28.4757 Y5.8255
G1 X28.5913 Y5.9665
G1 X28.7045 Y6.1074
G1 X28.8171 Y6.2514
G1 X28.9268 Y6.3952
G1 X29.0350 Y6.5400
G1 X29.1427 Y6.6878
G1 X29.2468 Y6.8341
G1 X29.3507 Y6.9830
G1 X29.4533 Y7.1344
G1 X29.5537 Y7.2857
G1 X29.6530 Y7.4397
G1 X29.7500 Y7.5936
G1 X29.8442 Y7.7467
G1 X29.9390 Y7.9047
G1 X30.0307 Y8.0617
G1 X30.1214 Y8.2215
G1 X30.2097 Y8.3810
G1 X30.2966 Y8.5423
G1 X30.3817 Y8.7051
G1 X30.4643 Y8.8669
G1 X30.5460 Y9.0317
G1 X30.6258 Y9.1976
G1 X30.7033 Y9.3632
G1 X30.7797 Y9.5321
G1 X30.8541 Y9.7020
G1 X30.9258 Y9.8699
G1 X30.9964 Y10.0419
G1 X31.0645 Y10.2126
G1 X31.1313 Y10.3853
G1 X31.1958 Y10.5590
G1 X31.2588 Y10.7345
G1 X31.3197 Y10.9111
G1 X31.3784 Y11.0876
G1 X31.4350 Y11.2649
G1 X31.4896 Y11.4419
G1 X31.5427 Y11.6223
G1 X31.5938 Y11.8029
G1 X31.6428 Y11.9858
G1 X31.6890 Y12.1658
G1 X31.7340 Y12.3497
G1 X31.7764 Y12.5326
G1 X31.8173 Y12.7193
G1 X31.8554 Y12.9032
G1 X31.8915 Y13.0884
G1 X31.9260 Y13.2766
G1 X31.9580 Y13.4653
G1 X31.9877 Y13.6525
G1 X32.0157 Y13.8422
G1 X32.0256 Y13.9162
G1 X32.0523 Y13.9753
G1 X32.0845 Y14.0592
G1 X32.1122 Y14.1448
G1 X32.1348 Y14.2316
G1 X32.1523 Y14.3195
G1 X32.1650 Y14.4084
G1 X32.1727 Y14.4981
G1 X32.1752 Y14.5877
G1 X32.1752 Y76.5876
G1 X32.1737 Y76.6564
G1 X32.1673 Y76.7461
G1 X32.1559 Y76.8350
G1 X32.1394 Y76.9234
G1 X32.1178 Y77.0105
G1 X32.0914 Y77.0964
G1 X32.0604 Y77.1807
G1 X32.0243 Y77.2630
G1 X31.9839 Y77.3430
G1 X31.9390 Y77.4207
G1 X31.8897 Y77.4959
G1 X31.8364 Y77.5680
G1 X31.7790 Y77.6371
G1 X31.7175 Y77.7027
G1 X31.6527 Y77.7649
G1 X31.5844 Y77.8231
G1 X31.5130 Y77.8774
G1 X31.4386 Y77.9277
G1 X31.3614 Y77.9737
G1 X31.2819 Y78.0153
G1 X31.2001 Y78.0522
G1 X31.1163 Y78.0844
G1 X31.0307 Y78.1121
G1 X30.9438 Y78.1347
G1 X30.8559 Y78.1522
G1 X30.7670 Y78.1649
G1 X30.6774 Y78.1726
G1 X30.5877 Y78.1751
; Rapid to initial position
G1 X30.5877 Y78.1751 F2540
G1 Z-3.7500
; plunge
G1 Z-4.5000 F127
; cut
G1 X1.5875 Y78.1751 F200
G1 X1.5187 Y78.1736
G1 X1.4290 Y78.1672
G1 X1.3401 Y78.1558
G1 X1.2517 Y78.1393
G1 X1.1646 Y78.1177
G1 X1.0787 Y78.0913
G1 X0.9944 Y78.0603
G1 X0.9121 Y78.0242
G1 X0.8321 Y77.9838
G1 X0.7544 Y77.9389
G1 X0.6792 Y77.8896
G1 X0.6071 Y77.8363
G1 X0.5380 Y77.7789
G1 X0.4724 Y77.7174
G1 X0.4102 Y77.6526
G1 X0.3520 Y77.5843
G1 X0.2977 Y77.5129
G1 X0.2474 Y77.4385
G1 X0.2014 Y77.3613
G1 X0.1598 Y77.2818
G1 X0.1229 Y77.2000
G1 X0.0907 Y77.1162
G1 X0.0630 Y77.0306
G1 X0.0404 Y76.9437
G1 X0.0229 Y76.8558
G1 X0.0102 Y76.7669
G1 X0.0025 Y76.6773
G1 X0.0000 Y76.5876
G1 X0.0000 Y14.5877
G1 X0.0015 Y14.5189
G1 X0.0079 Y14.4292
G1 X0.0193 Y14.3403
G1 X0.0358 Y14.2519
G1 X0.0574 Y14.1648
G1 X0.0838 Y14.0790
G1 X0.1148 Y13.9946
G1 X0.1509 Y13.9123
G1 X0.1689 Y13.8765
G1 X0.1709 Y13.8618
G1 X0.1986 Y13.6718
G1 X0.2283 Y13.4828
G1 X0.2598 Y13.2964
G1 X0.2939 Y13.1087
G1 X0.3297 Y12.9233
G1 X0.3680 Y12.7371
G1 X0.4082 Y12.5534
G1 X0.4508 Y12.3683
G1 X0.4950 Y12.1862
G1 X0.5413 Y12.0045
G1 X0.5905 Y11.8217
G1 X0.6411 Y11.6413
G1 X0.6934 Y11.4630
G1 X0.7480 Y11.2842
G1 X0.8047 Y11.1067
G1 X0.8633 Y10.9296
G1 X0.9238 Y10.7541
G1 X0.9853 Y10.5816
G1 X1.0508 Y10.4049
G1 X1.1171 Y10.2319
G1 X1.1849 Y10.0614
G1 X1.2550 Y9.8905
G1 X1.3274 Y9.7196
G1 X1.4008 Y9.5519
G1 X1.4768 Y9.3838
G1 X1.5542 Y9.2174
G1 X1.6337 Y9.0515
G1 X1.7142 Y8.8885
G1 X1.7983 Y8.7229
G1 X1.8829 Y8.5611
G1 X1.9685 Y8.4013
G1 X2.0569 Y8.2408
G1 X2.1478 Y8.0808
G1 X2.2395 Y7.9233
G1 X2.3315 Y7.7691
G1 X2.4275 Y7.6121
G1 X2.5243 Y7.4582
G1 X2.6236 Y7.3045
G1 X2.7236 Y7.1529
G1 X2.8240 Y7.0043
G1 X2.9294 Y6.8524
G1 X3.0333 Y6.7061
G1 X3.1407 Y6.5585
G1 X3.2476 Y6.4148
G1 X3.3584 Y6.2695
G1 X3.4707 Y6.1257
G1 X3.5824 Y5.9858
G1 X3.6980 Y5.8445
G1 X3.8125 Y5.7071
G1 X3.9309 Y5.5690
G1 X4.0498 Y5.4328
G1 X4.1702 Y5.2984
G1 X4.2918 Y5.1653
G1 X4.4166 Y5.0322
G1 X4.5397 Y4.9032
G1 X4.6672 Y4.7732
G1 X4.7948 Y4.6457
G1 X4.9238 Y4.5197
G1 X5.0541 Y4.3950
G1 X5.1857 Y4.2720
G1 X5.3203 Y4.1493
G1 X5.4534 Y4.0302
G1 X5.5905 Y3.9106
G1 X5.7264 Y3.7945
G1 X5.8677 Y3.6769
G1 X6.0046 Y3.5649
G1 X6.1468 Y3.4514
G1 X6.2908 Y3.3393
G1 X6.4315 Y3.2322
G1 X6.5794 Y3.1222
G1 X6.7239 Y3.0170
G1 X6.8725 Y2.9116
G1 X7.0183 Y2.8105
G1 X7.1709 Y2.7071
G1 X7.3203 Y2.6086
G1 X7.4755 Y2.5088
G1 X7.6258 Y2.4143
G1 X7.7813 Y2.3188
G1 X7.9357 Y2.2266
G1 X8.0940 Y2.1344
G1 X8.2499 Y2.0457
G1 X8.4104 Y1.9571
G1 X8.5702 Y1.8712
G1 X8.7312 Y1.7869
G1 X8.8938 Y1.7041
G1 X9.0566 Y1.6236
G1 X9.2205 Y1.5448
G1 X9.3863 Y1.4676
G1 X9.5509 Y1.3929
G1 X9.7173 Y1.3195
G1 X9.8890 Y1.2464
G1 X10.0554 Y1.1778
G1 X10.2258 Y1.1097
G1 X10.3962 Y1.0439
G1 X10.5692 Y0.9792
G1 X10.7414 Y0.9172
G1 X10.9162 Y0.8567
G1 X11.0886 Y0.7991
G1 X11.2641 Y0.7424
G1 X11.4427 Y0.6876
G1 X11.6175 Y0.6355
G1 X11.7953 Y0.5850
G1 X11.9761 Y0.5362
G1 X12.1524 Y0.4902
G1 X12.3347 Y0.4455
G1 X12.5153 Y0.4031
G1 X12.6967 Y0.3627
G1 X12.8803 Y0.3244
G1 X13.0625 Y0.2883
G1 X13.2456 Y0.2543
G1 X13.4292 Y0.2223
G1 X13.6180 Y0.1918
G1 X13.7998 Y0.1643
G1 X13.9878 Y0.1384
G1 X14.1757 Y0.1148
G1 X14.3642 Y0.0935
G1 X14.5506 Y0.0744
G1 X14.7404 Y0.0574
G1 X14.9278 Y0.0424
G1 X15.1206 Y0.0297
G1 X15.3088 Y0.0193
G1 X15.5026 Y0.0112
G1 X15.6919 Y0.0053
G1 X15.8839 Y0.0015
G1 X16.0762 Y0.0000
G1 X16.2710 Y0.0010
G1 X16.4630 Y0.0043
G1 X16.6571 Y0.0102
G1 X16.8460 Y0.0178
G1 X17.0368 Y0.0279
G1 X17.2273 Y0.0401
G1 X17.4170 Y0.0549
G1 X17.6042 Y0.0711
G1 X17.7957 Y0.0904
G1 X17.9819 Y0.1113
G1 X18.1676 Y0.1341
G1 X18.3576 Y0.1600
G1 X18.5400 Y0.1867
G1 X18.7287 Y0.2172
G1 X18.9123 Y0.2487
G1 X19.0952 Y0.2822
G1 X19.2801 Y0.3185
G1 X19.4617 Y0.3561
G1 X19.6431 Y0.3960
G1 X19.8260 Y0.4387
G1 X20.0055 Y0.4826
G1 X20.1849 Y0.5286
G1 X20.3637 Y0.5768
G1 X20.5415 Y0.6269
G1 X20.7203 Y0.6797
G1 X20.8951 Y0.7333
G1 X21.0703 Y0.7889
G1 X21.2458 Y0.8473
G1 X21.4213 Y0.9081
G1 X21.5930 Y0.9695
G1 X21.7632 Y1.0325
G1 X21.9370 Y1.0993
G1 X22.1056 Y1.1664
G1 X22.2761 Y1.2365
G1 X22.4429 Y1.3068
G1 X22.6108 Y1.3802
G1 X22.7787 Y1.4562
G1 X22.9428 Y1.5324
G1 X23.1087 Y1.6119
G1 X23.2715 Y1.6921
G1 X23.4325 Y1.7737
G1 X23.5953 Y1.8588
G1 X23.7533 Y1.9434
G1 X23.9151 Y2.0325
G1 X24.0713 Y2.1206
G1 X24.2280 Y2.2113
G1 X24.3865 Y2.3061
G1 X24.5402 Y2.3998
G1 X24.6918 Y2.4948
G1 X24.8460 Y2.5938
G1 X24.9956 Y2.6919
G1 X25.1485 Y2.7953
G1 X25.2956 Y2.8969
G1 X25.4434 Y3.0013
G1 X25.5900 Y3.1074
G1 X25.7363 Y3.2161
G1 X25.8788 Y3.3241
G1 X26.0215 Y3.4351
G1 X26.1628 Y3.5471
G1 X26.3040 Y3.6622
G1 X26.4414 Y3.7765
G1 X26.5803 Y3.8946
G1 X26.7175 Y4.0142
G1 X26.8496 Y4.1318
G1 X26.9845 Y4.2545
G1 X27.1178 Y4.3787
G1 X27.2471 Y4.5019
G1 X27.3774 Y4.6289
G1 X27.5054 Y4.7564
G1 X27.6316 Y4.8852
G1 X27.7566 Y5.0152
G1 X27.8801 Y5.1468
G1 X28.0022 Y5.2799
G1 X28.1239 Y5.4155
G1 X28.2420 Y5.5499
G1 X28.3619 Y5.6899
G1 X28.4757 Y5.8255
G1 X28.5913 Y5.9665
G1 X28.7045 Y6.1074
G1 X28.8171 Y6.2514
G1 X28.9268 Y6.3952
G1 X29.0350 Y6.5400
G1 X29.1427 Y6.6878
G1 X29.2468 Y6.8341
G1 X29.3507 Y6.9830
G1 X29.4533 Y7.1344
G1 X29.5537 Y7.2857
G1 X29.6530 Y7.4397
G1 X29.7500 Y7.5936
G1 X29.8442 Y7.7467
G1 X29.9390 Y7.9047
G1 X30.0307 Y8.0617
G1 X30.1214 Y8.2215
G1 X30.2097 Y8.3810
G1 X30.2966 Y8.5423
G1 X30.3817 Y8.7051
G1 X30.4643 Y8.8669
G1 X30.5460 Y9.0317
G1 X30.6258 Y9.1976
G1 X30.7033 Y9.3632
G1 X30.7797 Y9.5321
G1 X30.8541 Y9.7020
G1 X30.9258 Y9.8699
G1 X30.9964 Y10.0419
G1 X31.0645 Y10.2126
G1 X31.1313 Y10.3853
G1 X31.1958 Y10.5590
G1 X31.2588 Y10.7345
G1 X31.3197 Y10.9111
G1 X31.3784 Y11.0876
G1 X31.4350 Y11.2649
G1 X31.4896 Y11.4419
G1 X31.5427 Y11.6223
G1 X31.5938 Y11.8029
G1 X31.6428 Y11.9858
G1 X31.6890 Y12.1658
G1 X31.7340 Y12.3497
G1 X31.7764 Y12.5326
G1 X31.8173 Y12.7193
G1 X31.8554 Y12.9032
G1 X31.8915 Y13.0884
G1 X31.9260 Y13.2766
G1 X31.9580 Y13.4653
G1 X31.9877 Y13.6525
G1 X32.0157 Y13.8422
G1 X32.0256 Y13.9162
G1 X32.0523 Y13.9753
G1 X32.0845 Y14.0592
G1 X32.1122 Y14.1448
G1 X32.1348 Y14.2316
G1 X32.1523 Y14.3195
G1 X32.1650 Y14.4084
G1 X32.1727 Y14.4981
G1 X32.1752 Y14.5877
G1 X32.1752 Y76.5876
G1 X32.1737 Y76.6564
G1 X32.1673 Y76.7461
G1 X32.1559 Y76.8350
G1 X32.1394 Y76.9234
G1 X32.1178 Y77.0105
G1 X32.0914 Y77.0964
G1 X32.0604 Y77.1807
G1 X32.0243 Y77.2630
G1 X31.9839 Y77.3430
G1 X31.9390 Y77.4207
G1 X31.8897 Y77.4959
G1 X31.8364 Y77.5680
G1 X31.7790 Y77.6371
G1 X31.7175 Y77.7027
G1 X31.6527 Y77.7649
G1 X31.5844 Y77.8231
G1 X31.5130 Y77.8774
G1 X31.4386 Y77.9277
G1 X31.3614 Y77.9737
G1 X31.2819 Y78.0153
G1 X31.2001 Y78.0522
G1 X31.1163 Y78.0844
G1 X31.0307 Y78.1121
G1 X30.9438 Y78.1347
G1 X30.8559 Y78.1522
G1 X30.7670 Y78.1649
G1 X30.6774 Y78.1726
G1 X30.5877 Y78.1751
; Rapid to initial position
G1 X30.5877 Y78.1751 F2540
G1 Z-4.5000
; plunge
G1 Z-5.2500 F127
; cut
G1 X1.5875 Y78.1751 F200
G1 X1.5187 Y78.1736
G1 X1.4290 Y78.1672
G1 X1.3401 Y78.1558
G1 X1.2517 Y78.1393
G1 X1.1646 Y78.1177
G1 X1.0787 Y78.0913
G1 X0.9944 Y78.0603
G1 X0.9121 Y78.0242
G1 X0.8321 Y77.9838
G1 X0.7544 Y77.9389
G1 X0.6792 Y77.8896
G1 X0.6071 Y77.8363
G1 X0.5380 Y77.7789
G1 X0.4724 Y77.7174
G1 X0.4102 Y77.6526
G1 X0.3520 Y77.5843
G1 X0.2977 Y77.5129
G1 X0.2474 Y77.4385
G1 X0.2014 Y77.3613
G1 X0.1598 Y77.2818
G1 X0.1229 Y77.2000
G1 X0.0907 Y77.1162
G1 X0.0630 Y77.0306
G1 X0.0404 Y76.9437
G1 X0.0229 Y76.8558
G1 X0.0102 Y76.7669
G1 X0.0025 Y76.6773
G1 X0.0000 Y76.5876
G1 X0.0000 Y14.5877
G1 X0.0015 Y14.5189
G1 X0.0079 Y14.4292
G1 X0.0193 Y14.3403
G1 X0.0358 Y14.2519
G1 X0.0574 Y14.1648
G1 X0.0838 Y14.0790
G1 X0.1148 Y13.9946
G1 X0.1509 Y13.9123
G1 X0.1689 Y13.8765
G1 X0.1709 Y13.8618
G1 X0.1986 Y13.6718
G1 X0.2283 Y13.4828
G1 X0.2598 Y13.2964
G1 X0.2939 Y13.1087
G1 X0.3297 Y12.9233
G1 X0.3680 Y12.7371
G1 X0.4082 Y12.5534
G1 X0.4508 Y12.3683
G1 X0.4950 Y12.1862
G1 X0.5413 Y12.0045
G1 X0.5905 Y11.8217
G1 X0.6411 Y11.6413
G1 X0.6934 Y11.4630
G1 X0.7480 Y11.2842
G1 X0.8047 Y11.1067
G1 X0.8633 Y10.9296
G1 X0.9238 Y10.7541
G1 X0.9853 Y10.5816
G1 X1.0508 Y10.4049
G1 X1.1171 Y10.2319
G1 X1.1849 Y10.0614
G1 X1.2550 Y9.8905
G1 X1.3274 Y9.7196
G1 X1.4008 Y9.5519
G1 X1.4768 Y9.3838
G1 X1.5542 Y9.2174
G1 X1.6337 Y9.0515
G1 X1.7142 Y8.8885
G1 X1.7983 Y8.7229
G1 X1.8829 Y8.5611
G1 X1.9685 Y8.4013
G1 X2.0569 Y8.2408
G1 X2.1478 Y8.0808
G1 X2.2395 Y7.9233
G1 X2.3315 Y7.7691
G1 X2.4275 Y7.6121
G1 X2.5243 Y7.4582
G1 X2.6236 Y7.3045
G1 X2.7236 Y7.1529
G1 X2.8240 Y7.0043
G1 X2.9294 Y6.8524
G1 X3.0333 Y6.7061
G1 X3.1407 Y6.5585
G1 X3.2476 Y6.4148
G1 X3.3584 Y6.2695
G1 X3.4707 Y6.1257
G1 X3.5824 Y5.9858
G1 X3.6980 Y5.8445
G1 X3.8125 Y5.7071
G1 X3.9309 Y5.5690
G1 X4.0498 Y5.4328
G1 X4.1702 Y5.2984
G1 X4.2918 Y5.1653
G1 X4.4166 Y5.0322
G1 X4.5397 Y4.9032
G1 X4.6672 Y4.7732
G1 X4.7948 Y4.6457
G1 X4.9238 Y4.5197
G1 X5.0541 Y4.3950
G1 X5.1857 Y4.2720
G1 X5.3203 Y4.1493
G1 X5.4534 Y4.0302
G1 X5.5905 Y3.9106
G1 X5.7264 Y3.7945
G1 X5.8677 Y3.6769
G1 X6.0046 Y3.5649
G1 X6.1468 Y3.4514
G1 X6.2908 Y3.3393
G1 X6.4315 Y3.2322
G1 X6.5794 Y3.1222
G1 X6.7239 Y3.0170
G1 X6.8725 Y2.9116
G1 X7.0183 Y2.8105
G1 X7.1709 Y2.7071
G1 X7.3203 Y2.6086
G1 X7.4755 Y2.5088
G1 X7.6258 Y2.4143
G1 X7.7813 Y2.3188
G1 X7.9357 Y2.2266
G1 X8.0940 Y2.1344
G1 X8.2499 Y2.0457
G1 X8.4104 Y1.9571
G1 X8.5702 Y1.8712
G1 X8.7312 Y1.7869
G1 X8.8938 Y1.7041
G1 X9.0566 Y1.6236
G1 X9.2205 Y1.5448
G1 X9.3863 Y1.4676
G1 X9.5509 Y1.3929
G1 X9.7173 Y1.3195
G1 X9.8890 Y1.2464
G1 X10.0554 Y1.1778
G1 X10.2258 Y1.1097
G1 X10.3962 Y1.0439
G1 X10.5692 Y0.9792
G1 X10.7414 Y0.9172
G1 X10.9162 Y0.8567
G1 X11.0886 Y0.7991
G1 X11.2641 Y0.7424
G1 X11.4427 Y0.6876
G1 X11.6175 Y0.6355
G1 X11.7953 Y0.5850
G1 X11.9761 Y0.5362
G1 X12.1524 Y0.4902
G1 X12.3347 Y0.4455
G1 X12.5153 Y0.4031
G1 X12.6967 Y0.3627
G1 X12.8803 Y0.3244
G1 X13.0625 Y0.2883
G1 X13.2456 Y0.2543
G1 X13.4292 Y0.2223
G1 X13.6180 Y0.1918
G1 X13.7998 Y0.1643
G1 X13.9878 Y0.1384
G1 X14.1757 Y0.1148
G1 X14.3642 Y0.0935
G1 X14.5506 Y0.0744
G1 X14.7404 Y0.0574
G1 X14.9278 Y0.0424
G1 X15.1206 Y0.0297
G1 X15.3088 Y0.0193
G1 X15.5026 Y0.0112
G1 X15.6919 Y0.0053
G1 X15.8839 Y0.0015
G1 X16.0762 Y0.0000
G1 X16.2710 Y0.0010
G1 X16.4630 Y0.0043
G1 X16.6571 Y0.0102
G1 X16.8460 Y0.0178
G1 X17.0368 Y0.0279
G1 X17.2273 Y0.0401
G1 X17.4170 Y0.0549
G1 X17.6042 Y0.0711
G1 X17.7957 Y0.0904
G1 X17.9819 Y0.1113
G1 X18.1676 Y0.1341
G1 X18.3576 Y0.1600
G1 X18.5400 Y0.1867
G1 X18.7287 Y0.2172
G1 X18.9123 Y0.2487
G1 X19.0952 Y0.2822
G1 X19.2801 Y0.3185
G1 X19.4617 Y0.3561
G1 X19.6431 Y0.3960
G1 X19.8260 Y0.4387
G1 X20.0055 Y0.4826
G1 X20.1849 Y0.5286
G1 X20.3637 Y0.5768
G1 X20.5415 Y0.6269
G1 X20.7203 Y0.6797
G1 X20.8951 Y0.7333
G1 X21.0703 Y0.7889
G1 X21.2458 Y0.8473
G1 X21.4213 Y0.9081
G1 X21.5930 Y0.9695
G1 X21.7632 Y1.0325
G1 X21.9370 Y1.0993
G1 X22.1056 Y1.1664
G1 X22.2761 Y1.2365
G1 X22.4429 Y1.3068
G1 X22.6108 Y1.3802
G1 X22.7787 Y1.4562
G1 X22.9428 Y1.5324
G1 X23.1087 Y1.6119
G1 X23.2715 Y1.6921
G1 X23.4325 Y1.7737
G1 X23.5953 Y1.8588
G1 X23.7533 Y1.9434
G1 X23.9151 Y2.0325
G1 X24.0713 Y2.1206
G1 X24.2280 Y2.2113
G1 X24.3865 Y2.3061
G1 X24.5402 Y2.3998
G1 X24.6918 Y2.4948
G1 X24.8460 Y2.5938
G1 X24.9956 Y2.6919
G1 X25.1485 Y2.7953
G1 X25.2956 Y2.8969
G1 X25.4434 Y3.0013
G1 X25.5900 Y3.1074
G1 X25.7363 Y3.2161
G1 X25.8788 Y3.3241
G1 X26.0215 Y3.4351
G1 X26.1628 Y3.5471
G1 X26.3040 Y3.6622
G1 X26.4414 Y3.7765
G1 X26.5803 Y3.8946
G1 X26.7175 Y4.0142
G1 X26.8496 Y4.1318
G1 X26.9845 Y4.2545
G1 X27.1178 Y4.3787
G1 X27.2471 Y4.5019
G1 X27.3774 Y4.6289
G1 X27.5054 Y4.7564
G1 X27.6316 Y4.8852
G1 X27.7566 Y5.0152
G1 X27.8801 Y5.1468
G1 X28.0022 Y5.2799
G1 X28.1239 Y5.4155
G1 X28.2420 Y5.5499
G1 X28.3619 Y5.6899
G1 X28.4757 Y5.8255
G1 X28.5913 Y5.9665
G1 X28.7045 Y6.1074
G1 X28.8171 Y6.2514
G1 X28.9268 Y6.3952
G1 X29.0350 Y6.5400
G1 X29.1427 Y6.6878
G1 X29.2468 Y6.8341
G1 X29.3507 Y6.9830
G1 X29.4533 Y7.1344
G1 X29.5537 Y7.2857
G1 X29.6530 Y7.4397
G1 X29.7500 Y7.5936
G1 X29.8442 Y7.7467
G1 X29.9390 Y7.9047
G1 X30.0307 Y8.0617
G1 X30.1214 Y8.2215
G1 X30.2097 Y8.3810
G1 X30.2966 Y8.5423
G1 X30.3817 Y8.7051
G1 X30.4643 Y8.8669
G1 X30.5460 Y9.0317
G1 X30.6258 Y9.1976
G1 X30.7033 Y9.3632
G1 X30.7797 Y9.5321
G1 X30.8541 Y9.7020
G1 X30.9258 Y9.8699
G1 X30.9964 Y10.0419
G1 X31.0645 Y10.2126
G1 X31.1313 Y10.3853
G1 X31.1958 Y10.5590
G1 X31.2588 Y10.7345
G1 X31.3197 Y10.9111
G1 X31.3784 Y11.0876
G1 X31.4350 Y11.2649
G1 X31.4896 Y11.4419
G1 X31.5427 Y11.6223
G1 X31.5938 Y11.8029
G1 X31.6428 Y11.9858
G1 X31.6890 Y12.1658
G1 X31.7340 Y12.3497
G1 X31.7764 Y12.5326
G1 X31.8173 Y12.7193
G1 X31.8554 Y12.9032
G1 X31.8915 Y13.0884
G1 X31.9260 Y13.2766
G1 X31.9580 Y13.4653
G1 X31.9877 Y13.6525
G1 X32.0157 Y13.8422
G1 X32.0256 Y13.9162
G1 X32.0523 Y13.9753
G1 X32.0845 Y14.0592
G1 X32.1122 Y14.1448
G1 X32.1348 Y14.2316
G1 X32.1523 Y14.3195
G1 X32.1650 Y14.4084
G1 X32.1727 Y14.4981
G1 X32.1752 Y14.5877
G1 X32.1752 Y76.5876
G1 X32.1737 Y76.6564
G1 X32.1673 Y76.7461
G1 X32.1559 Y76.8350
G1 X32.1394 Y76.9234
G1 X32.1178 Y77.0105
G1 X32.0914 Y77.0964
G1 X32.0604 Y77.1807
G1 X32.0243 Y77.2630
G1 X31.9839 Y77.3430
G1 X31.9390 Y77.4207
G1 X31.8897 Y77.4959
G1 X31.8364 Y77.5680
G1 X31.7790 Y77.6371
G1 X31.7175 Y77.7027
G1 X31.6527 Y77.7649
G1 X31.5844 Y77.8231
G1 X31.5130 Y77.8774
G1 X31.4386 Y77.9277
G1 X31.3614 Y77.9737
G1 X31.2819 Y78.0153
G1 X31.2001 Y78.0522
G1 X31.1163 Y78.0844
G1 X31.0307 Y78.1121
G1 X30.9438 Y78.1347
G1 X30.8559 Y78.1522
G1 X30.7670 Y78.1649
G1 X30.6774 Y78.1726
G1 X30.5877 Y78.1751
; Rapid to initial position
G1 X30.5877 Y78.1751 F2540
G1 Z-5.2500
; plunge
G1 Z-6.0000 F127
; cut
G1 X1.5875 Y78.1751 F200
G1 X1.5187 Y78.1736
G1 X1.4290 Y78.1672
G1 X1.3401 Y78.1558
G1 X1.2517 Y78.1393
G1 X1.1646 Y78.1177
G1 X1.0787 Y78.0913
G1 X0.9944 Y78.0603
G1 X0.9121 Y78.0242
G1 X0.8321 Y77.9838
G1 X0.7544 Y77.9389
G1 X0.6792 Y77.8896
G1 X0.6071 Y77.8363
G1 X0.5380 Y77.7789
G1 X0.4724 Y77.7174
G1 X0.4102 Y77.6526
G1 X0.3520 Y77.5843
G1 X0.2977 Y77.5129
G1 X0.2474 Y77.4385
G1 X0.2014 Y77.3613
G1 X0.1598 Y77.2818
G1 X0.1229 Y77.2000
G1 X0.0907 Y77.1162
G1 X0.0630 Y77.0306
G1 X0.0404 Y76.9437
G1 X0.0229 Y76.8558
G1 X0.0102 Y76.7669
G1 X0.0025 Y76.6773
G1 X0.0000 Y76.5876
G1 X0.0000 Y14.5877
G1 X0.0015 Y14.5189
G1 X0.0079 Y14.4292
G1 X0.0193 Y14.3403
G1 X0.0358 Y14.2519
G1 X0.0574 Y14.1648
G1 X0.0838 Y14.0790
G1 X0.1148 Y13.9946
G1 X0.1509 Y13.9123
G1 X0.1689 Y13.8765
G1 X0.1709 Y13.8618
G1 X0.1986 Y13.6718
G1 X0.2283 Y13.4828
G1 X0.2598 Y13.2964
G1 X0.2939 Y13.1087
G1 X0.3297 Y12.9233
G1 X0.3680 Y12.7371
G1 X0.4082 Y12.5534
G1 X0.4508 Y12.3683
G1 X0.4950 Y12.1862
G1 X0.5413 Y12.0045
G1 X0.5905 Y11.8217
G1 X0.6411 Y11.6413
G1 X0.6934 Y11.4630
G1 X0.7480 Y11.2842
G1 X0.8047 Y11.1067
G1 X0.8633 Y10.9296
G1 X0.9238 Y10.7541
G1 X0.9853 Y10.5816
G1 X1.0508 Y10.4049
G1 X1.1171 Y10.2319
G1 X1.1849 Y10.0614
G1 X1.2550 Y9.8905
G1 X1.3274 Y9.7196
G1 X1.4008 Y9.5519
G1 X1.4768 Y9.3838
G1 X1.5542 Y9.2174
G1 X1.6337 Y9.0515
G1 X1.7142 Y8.8885
G1 X1.7983 Y8.7229
G1 X1.8829 Y8.5611
G1 X1.9685 Y8.4013
G1 X2.0569 Y8.2408
G1 X2.1478 Y8.0808
G1 X2.2395 Y7.9233
G1 X2.3315 Y7.7691
G1 X2.4275 Y7.6121
G1 X2.5243 Y7.4582
G1 X2.6236 Y7.3045
G1 X2.7236 Y7.1529
G1 X2.8240 Y7.0043
G1 X2.9294 Y6.8524
G1 X3.0333 Y6.7061
G1 X3.1407 Y6.5585
G1 X3.2476 Y6.4148
G1 X3.3584 Y6.2695
G1 X3.4707 Y6.1257
G1 X3.5824 Y5.9858
G1 X3.6980 Y5.8445
G1 X3.8125 Y5.7071
G1 X3.9309 Y5.5690
G1 X4.0498 Y5.4328
G1 X4.1702 Y5.2984
G1 X4.2918 Y5.1653
G1 X4.4166 Y5.0322
G1 X4.5397 Y4.9032
G1 X4.6672 Y4.7732
G1 X4.7948 Y4.6457
G1 X4.9238 Y4.5197
G1 X5.0541 Y4.3950
G1 X5.1857 Y4.2720
G1 X5.3203 Y4.1493
G1 X5.4534 Y4.0302
G1 X5.5905 Y3.9106
G1 X5.7264 Y3.7945
G1 X5.8677 Y3.6769
G1 X6.0046 Y3.5649
G1 X6.1468 Y3.4514
G1 X6.2908 Y3.3393
G1 X6.4315 Y3.2322
G1 X6.5794 Y3.1222
G1 X6.7239 Y3.0170
G1 X6.8725 Y2.9116
G1 X7.0183 Y2.8105
G1 X7.1709 Y2.7071
G1 X7.3203 Y2.6086
G1 X7.4755 Y2.5088
G1 X7.6258 Y2.4143
G1 X7.7813 Y2.3188
G1 X7.9357 Y2.2266
G1 X8.0940 Y2.1344
G1 X8.2499 Y2.0457
G1 X8.4104 Y1.9571
G1 X8.5702 Y1.8712
G1 X8.7312 Y1.7869
G1 X8.8938 Y1.7041
G1 X9.0566 Y1.6236
G1 X9.2205 Y1.5448
G1 X9.3863 Y1.4676
G1 X9.5509 Y1.3929
G1 X9.7173 Y1.3195
G1 X9.8890 Y1.2464
G1 X10.0554 Y1.1778
G1 X10.2258 Y1.1097
G1 X10.3962 Y1.0439
G1 X10.5692 Y0.9792
G1 X10.7414 Y0.9172
G1 X10.9162 Y0.8567
G1 X11.0886 Y0.7991
G1 X11.2641 Y0.7424
G1 X11.4427 Y0.6876
G1 X11.6175 Y0.6355
G1 X11.7953 Y0.5850
G1 X11.9761 Y0.5362
G1 X12.1524 Y0.4902
G1 X12.3347 Y0.4455
G1 X12.5153 Y0.4031
G1 X12.6967 Y0.3627
G1 X12.8803 Y0.3244
G1 X13.0625 Y0.2883
G1 X13.2456 Y0.2543
G1 X13.4292 Y0.2223
G1 X13.6180 Y0.1918
G1 X13.7998 Y0.1643
G1 X13.9878 Y0.1384
G1 X14.1757 Y0.1148
G1 X14.3642 Y0.0935
G1 X14.5506 Y0.0744
G1 X14.7404 Y0.0574
G1 X14.9278 Y0.0424
G1 X15.1206 Y0.0297
G1 X15.3088 Y0.0193
G1 X15.5026 Y0.0112
G1 X15.6919 Y0.0053
G1 X15.8839 Y0.0015
G1 X16.0762 Y0.0000
G1 X16.2710 Y0.0010
G1 X16.4630 Y0.0043
G1 X16.6571 Y0.0102
G1 X16.8460 Y0.0178
G1 X17.0368 Y0.0279
G1 X17.2273 Y0.0401
G1 X17.4170 Y0.0549
G1 X17.6042 Y0.0711
G1 X17.7957 Y0.0904
G1 X17.9819 Y0.1113
G1 X18.1676 Y0.1341
G1 X18.3576 Y0.1600
G1 X18.5400 Y0.1867
G1 X18.7287 Y0.2172
G1 X18.9123 Y0.2487
G1 X19.0952 Y0.2822
G1 X19.2801 Y0.3185
G1 X19.4617 Y0.3561
G1 X19.6431 Y0.3960
G1 X19.8260 Y0.4387
G1 X20.0055 Y0.4826
G1 X20.1849 Y0.5286
G1 X20.3637 Y0.5768
G1 X20.5415 Y0.6269
G1 X20.7203 Y0.6797
G1 X20.8951 Y0.7333
G1 X21.0703 Y0.7889
G1 X21.2458 Y0.8473
G1 X21.4213 Y0.9081
G1 X21.5930 Y0.9695
G1 X21.7632 Y1.0325
G1 X21.9370 Y1.0993
G1 X22.1056 Y1.1664
G1 X22.2761 Y1.2365
G1 X22.4429 Y1.3068
G1 X22.6108 Y1.3802
G1 X22.7787 Y1.4562
G1 X22.9428 Y1.5324
G1 X23.1087 Y1.6119
G1 X23.2715 Y1.6921
G1 X23.4325 Y1.7737
G1 X23.5953 Y1.8588
G1 X23.7533 Y1.9434
G1 X23.9151 Y2.0325
G1 X24.0713 Y2.1206
G1 X24.2280 Y2.2113
G1 X24.3865 Y2.3061
G1 X24.5402 Y2.3998
G1 X24.6918 Y2.4948
G1 X24.8460 Y2.5938
G1 X24.9956 Y2.6919
G1 X25.1485 Y2.7953
G1 X25.2956 Y2.8969
G1 X25.4434 Y3.0013
G1 X25.5900 Y3.1074
G1 X25.7363 Y3.2161
G1 X25.8788 Y3.3241
G1 X26.0215 Y3.4351
G1 X26.1628 Y3.5471
G1 X26.3040 Y3.6622
G1 X26.4414 Y3.7765
G1 X26.5803 Y3.8946
G1 X26.7175 Y4.0142
G1 X26.8496 Y4.1318
G1 X26.9845 Y4.2545
G1 X27.1178 Y4.3787
G1 X27.2471 Y4.5019
G1 X27.3774 Y4.6289
G1 X27.5054 Y4.7564
G1 X27.6316 Y4.8852
G1 X27.7566 Y5.0152
G1 X27.8801 Y5.1468
G1 X28.0022 Y5.2799
G1 X28.1239 Y5.4155
G1 X28.2420 Y5.5499
G1 X28.3619 Y5.6899
G1 X28.4757 Y5.8255
G1 X28.5913 Y5.9665
G1 X28.7045 Y6.1074
G1 X28.8171 Y6.2514
G1 X28.9268 Y6.3952
G1 X29.0350 Y6.5400
G1 X29.1427 Y6.6878
G1 X29.2468 Y6.8341
G1 X29.3507 Y6.9830
G1 X29.4533 Y7.1344
G1 X29.5537 Y7.2857
G1 X29.6530 Y7.4397
G1 X29.7500 Y7.5936
G1 X29.8442 Y7.7467
G1 X29.9390 Y7.9047
G1 X30.0307 Y8.0617
G1 X30.1214 Y8.2215
G1 X30.2097 Y8.3810
G1 X30.2966 Y8.5423
G1 X30.3817 Y8.7051
G1 X30.4643 Y8.8669
G1 X30.5460 Y9.0317
G1 X30.6258 Y9.1976
G1 X30.7033 Y9.3632
G1 X30.7797 Y9.5321
G1 X30.8541 Y9.7020
G1 X30.9258 Y9.8699
G1 X30.9964 Y10.0419
G1 X31.0645 Y10.2126
G1 X31.1313 Y10.3853
G1 X31.1958 Y10.5590
G1 X31.2588 Y10.7345
G1 X31.3197 Y10.9111
G1 X31.3784 Y11.0876
G1 X31.4350 Y11.2649
G1 X31.4896 Y11.4419
G1 X31.5427 Y11.6223
G1 X31.5938 Y11.8029
G1 X31.6428 Y11.9858
G1 X31.6890 Y12.1658
G1 X31.7340 Y12.3497
G1 X31.7764 Y12.5326
G1 X31.8173 Y12.7193
G1 X31.8554 Y12.9032
G1 X31.8915 Y13.0884
G1 X31.9260 Y13.2766
G1 X31.9580 Y13.4653
G1 X31.9877 Y13.6525
G1 X32.0157 Y13.8422
G1 X32.0256 Y13.9162
G1 X32.0523 Y13.9753
G1 X32.0845 Y14.0592
G1 X32.1122 Y14.1448
G1 X32.1348 Y14.2316
G1 X32.1523 Y14.3195
G1 X32.1650 Y14.4084
G1 X32.1727 Y14.4981
G1 X32.1752 Y14.5877
G1 X32.1752 Y76.5876
G1 X32.1737 Y76.6564
G1 X32.1673 Y76.7461
G1 X32.1559 Y76.8350
G1 X32.1394 Y76.9234
G1 X32.1178 Y77.0105
G1 X32.0914 Y77.0964
G1 X32.0604 Y77.1807
G1 X32.0243 Y77.2630
G1 X31.9839 Y77.3430
G1 X31.9390 Y77.4207
G1 X31.8897 Y77.4959
G1 X31.8364 Y77.5680
G1 X31.7790 Y77.6371
G1 X31.7175 Y77.7027
G1 X31.6527 Y77.7649
G1 X31.5844 Y77.8231
G1 X31.5130 Y77.8774
G1 X31.4386 Y77.9277
G1 X31.3614 Y77.9737
G1 X31.2819 Y78.0153
G1 X31.2001 Y78.0522
G1 X31.1163 Y78.0844
G1 X31.0307 Y78.1121
G1 X30.9438 Y78.1347
G1 X30.8559 Y78.1522
G1 X30.7670 Y78.1649
G1 X30.6774 Y78.1726
G1 X30.5877 Y78.1751
; Retract
G1 Z1.0000 F2540
M2
