G21         ; Set units to mm
G90         ; Absolute positioning
G1 Z0.9999999999999999 F2540      ; Move to clearance level

;
; Operation:    0
; Name:         
; Type:         Pocket
; Paths:        1
; Direction:    Conventional
; Cut Depth:    0.49999999999999994
; Pass Depth:   0.9999999999999999
; Plunge rate:  127
; Cut rate:     200
;

; Path 0
; Rapid to initial position
G1 X22.4127 Y-60.7223 F2540
G1 Z0.0000
; plunge
G1 Z-0.5000 F127
; cut
G1 X22.4071 Y-60.7522 F200
G1 X22.3957 Y-60.8411
G1 X22.3911 Y-60.8970
G1 X22.3771 Y-61.1109
G1 X22.3594 Y-61.3092
G1 X22.3368 Y-61.5074
G1 X22.3111 Y-61.6933
G1 X22.2806 Y-61.8792
G1 X22.2440 Y-62.0725
G1 X22.2039 Y-62.2597
G1 X22.1592 Y-62.4462
G1 X22.1112 Y-62.6278
G1 X22.0566 Y-62.8150
G1 X22.0033 Y-62.9831
G1 X21.9385 Y-63.1708
G1 X21.8740 Y-63.3448
G1 X21.8067 Y-63.5137
G1 X21.7343 Y-63.6839
G1 X21.6530 Y-63.8622
G1 X21.5760 Y-64.0212
G1 X21.4869 Y-64.1949
G1 X21.4048 Y-64.3461
G1 X21.3065 Y-64.5175
G1 X21.2154 Y-64.6681
G1 X21.1097 Y-64.8340
G1 X21.0124 Y-64.9790
G1 X20.9080 Y-65.1269
G1 X20.7955 Y-65.2785
G1 X20.6827 Y-65.4238
G1 X20.5649 Y-65.5683
G1 X20.4473 Y-65.7060
G1 X20.3289 Y-65.8381
G1 X20.1976 Y-65.9780
G1 X20.0668 Y-66.1111
G1 X19.9398 Y-66.2348
G1 X19.8026 Y-66.3621
G1 X19.6665 Y-66.4827
G1 X19.5242 Y-66.6031
G1 X19.3807 Y-66.7192
G1 X19.2415 Y-66.8259
G1 X19.0904 Y-66.9369
G1 X18.9342 Y-67.0458
G1 X18.7869 Y-67.1436
G1 X18.6261 Y-67.2452
G1 X18.4704 Y-67.3384
G1 X18.3081 Y-67.4306
G1 X18.1412 Y-67.5206
G1 X17.9896 Y-67.5973
G1 X17.8135 Y-67.6816
G1 X17.6439 Y-67.7578
G1 X17.4722 Y-67.8302
G1 X17.3020 Y-67.8975
G1 X17.1209 Y-67.9638
G1 X16.9484 Y-68.0225
G1 X16.7691 Y-68.0786
G1 X16.5903 Y-68.1299
G1 X16.4076 Y-68.1779
G1 X16.2270 Y-68.2206
G1 X16.0325 Y-68.2615
G1 X15.8466 Y-68.2963
G1 X15.6619 Y-68.3257
G1 X15.4722 Y-68.3517
G1 X15.2809 Y-68.3730
G1 X15.0866 Y-68.3900
G1 X14.8971 Y-68.4017
G1 X14.6860 Y-68.4098
G1 X14.5090 Y-68.4121
G1 X14.3045 Y-68.4096
G1 X14.0978 Y-68.4017
G1 X13.9202 Y-68.3910
G1 X13.7132 Y-68.3730
G1 X13.5283 Y-68.3527
G1 X13.3365 Y-68.3265
G1 X13.1580 Y-68.2981
G1 X12.9565 Y-68.2607
G1 X12.7790 Y-68.2234
G1 X12.5946 Y-68.1800
G1 X12.4031 Y-68.1299
G1 X12.2298 Y-68.0801
G1 X12.0495 Y-68.0237
G1 X11.8745 Y-67.9643
G1 X11.6904 Y-67.8967
G1 X11.5306 Y-67.8343
G1 X11.3452 Y-67.7560
G1 X11.1844 Y-67.6839
G1 X11.0119 Y-67.6013
G1 X10.8598 Y-67.5241
G1 X10.6888 Y-67.4324
G1 X10.5225 Y-67.3382
G1 X10.3718 Y-67.2480
G1 X10.2090 Y-67.1454
G1 X10.0566 Y-67.0443
G1 X9.9113 Y-66.9430
G1 X9.7564 Y-66.8294
G1 X9.6195 Y-66.7243
G1 X9.4704 Y-66.6041
G1 X9.3269 Y-66.4827
G1 X9.1887 Y-66.3603
G1 X9.0574 Y-66.2386
G1 X8.9228 Y-66.1076
G1 X8.8029 Y-65.9859
G1 X8.6695 Y-65.8437
G1 X8.5476 Y-65.7075
G1 X8.4244 Y-65.5635
G1 X8.3180 Y-65.4332
G1 X8.1928 Y-65.2719
G1 X8.0937 Y-65.1386
G1 X7.9797 Y-64.9770
G1 X7.8859 Y-64.8373
G1 X7.7793 Y-64.6702
G1 X7.6815 Y-64.5089
G1 X7.5923 Y-64.3537
G1 X7.5080 Y-64.1985
G1 X7.4206 Y-64.0283
G1 X7.3376 Y-63.8566
G1 X7.2601 Y-63.6862
G1 X7.1895 Y-63.5208
G1 X7.1186 Y-63.3428
G1 X7.0543 Y-63.1701
G1 X6.9903 Y-62.9844
G1 X6.9370 Y-62.8162
G1 X6.8824 Y-62.6290
G1 X6.8316 Y-62.4375
G1 X6.7904 Y-62.2656
G1 X6.7490 Y-62.0712
G1 X6.7135 Y-61.8838
G1 X6.6825 Y-61.6958
G1 X6.6553 Y-61.5005
G1 X6.6337 Y-61.3095
G1 X6.6157 Y-61.1106
G1 X6.6020 Y-60.8973
G1 X6.5936 Y-60.8079
G1 X6.5877 Y-60.7685
G1 X6.5877 Y-6.5875
G1 X22.4127 Y-6.5875
G1 X22.4127 Y-60.7223
G1 X21.6428 Y-61.0532
G1 X21.8318 Y-8.9035
G1 X21.8295 Y-8.8135
G1 X21.8224 Y-8.7241
G1 X21.8100 Y-8.6352
G1 X21.7927 Y-8.5471
G1 X21.7703 Y-8.4600
G1 X21.7432 Y-8.3744
G1 X21.7112 Y-8.2906
G1 X21.6746 Y-8.2085
G1 X21.6332 Y-8.1288
G1 X21.5875 Y-8.0515
G1 X21.5377 Y-7.9769
G1 X21.4836 Y-7.9052
G1 X21.4254 Y-7.8369
G1 X21.3634 Y-7.7719
G1 X21.2982 Y-7.7102
G1 X21.2293 Y-7.6525
G1 X21.1572 Y-7.5989
G1 X21.0825 Y-7.5494
G1 X21.0048 Y-7.5042
G1 X20.9248 Y-7.4633
G1 X20.8427 Y-7.4272
G1 X20.7587 Y-7.3957
G1 X20.6728 Y-7.3690
G1 X20.5857 Y-7.3472
G1 X20.4975 Y-7.3304
G1 X20.4084 Y-7.3188
G1 X20.3190 Y-7.3119
G1 X20.2311 Y-7.3101
G1 X8.8847 Y-7.4046
G1 X8.7950 Y-7.4079
G1 X8.7056 Y-7.4163
G1 X8.6167 Y-7.4298
G1 X8.5288 Y-7.4480
G1 X8.4422 Y-7.4714
G1 X8.3569 Y-7.4996
G1 X8.2733 Y-7.5326
G1 X8.1918 Y-7.5702
G1 X8.1125 Y-7.6124
G1 X8.0358 Y-7.6591
G1 X7.9619 Y-7.7099
G1 X7.8908 Y-7.7648
G1 X7.8229 Y-7.8237
G1 X7.7587 Y-7.8864
G1 X7.6980 Y-7.9527
G1 X7.6411 Y-8.0221
G1 X7.5882 Y-8.0947
G1 X7.5397 Y-8.1702
G1 X7.4953 Y-8.2484
G1 X7.4557 Y-8.3289
G1 X7.4204 Y-8.4115
G1 X7.3899 Y-8.4958
G1 X7.3642 Y-8.5819
G1 X7.3436 Y-8.6693
G1 X7.3279 Y-8.7577
G1 X7.3170 Y-8.8468
G1 X7.3114 Y-8.9365
G1 X7.3104 Y-8.9850
G1 X7.0744 Y-61.0245
G1 X7.0764 Y-61.1571
G1 X7.0780 Y-61.2099
G1 X7.0843 Y-61.3405
G1 X7.0874 Y-61.3882
G1 X7.0975 Y-61.5170
G1 X7.1026 Y-61.5693
G1 X7.1168 Y-61.6958
G1 X7.1232 Y-61.7456
G1 X7.1412 Y-61.8703
G1 X7.1496 Y-61.9216
G1 X7.1714 Y-62.0443
G1 X7.1816 Y-62.0969
G1 X7.2073 Y-62.2173
G1 X7.2192 Y-62.2691
G1 X7.2487 Y-62.3877
G1 X7.2621 Y-62.4375
G1 X7.2951 Y-62.5541
G1 X7.3099 Y-62.6034
G1 X7.3464 Y-62.7182
G1 X7.3637 Y-62.7698
G1 X7.4038 Y-62.8823
G1 X7.4216 Y-62.9298
G1 X7.4651 Y-63.0403
G1 X7.4859 Y-63.0906
G1 X7.5329 Y-63.1990
G1 X7.5537 Y-63.2447
G1 X7.6040 Y-63.3514
G1 X7.6276 Y-63.3994
G1 X7.6812 Y-63.5038
G1 X7.7043 Y-63.5475
G1 X7.7610 Y-63.6499
G1 X7.7864 Y-63.6941
G1 X7.8463 Y-63.7946
G1 X7.8720 Y-63.8360
G1 X7.9347 Y-63.9343
G1 X7.9626 Y-63.9765
G1 X8.0287 Y-64.0730
G1 X8.0569 Y-64.1132
G1 X8.1257 Y-64.2074
G1 X8.1539 Y-64.2447
G1 X8.2535 Y-64.3720
G1 X8.3279 Y-64.4624
G1 X8.3596 Y-64.4997
G1 X8.4369 Y-64.5879
G1 X8.4679 Y-64.6222
G1 X8.5748 Y-64.7365
G1 X8.6571 Y-64.8208
G1 X8.6914 Y-64.8548
G1 X8.8080 Y-64.9666
G1 X8.9258 Y-65.0735
G1 X9.0465 Y-65.1774
G1 X9.1699 Y-65.2785
G1 X9.2959 Y-65.3763
G1 X9.4229 Y-65.4703
G1 X9.5560 Y-65.5635
G1 X9.6840 Y-65.6486
G1 X9.8199 Y-65.7352
G1 X9.9558 Y-65.8170
G1 X10.0924 Y-65.8950
G1 X10.2293 Y-65.9694
G1 X10.3706 Y-66.0425
G1 X10.5100 Y-66.1111
G1 X10.6561 Y-66.1792
G1 X10.7998 Y-66.2424
G1 X10.9423 Y-66.3021
G1 X11.0934 Y-66.3621
G1 X11.2377 Y-66.4157
G1 X11.3886 Y-66.4690
G1 X11.5344 Y-66.5170
G1 X11.6876 Y-66.5650
G1 X11.8410 Y-66.6100
G1 X11.9898 Y-66.6504
G1 X12.1448 Y-66.6900
G1 X12.2979 Y-66.7261
G1 X12.4516 Y-66.7596
G1 X12.6088 Y-66.7913
G1 X12.7635 Y-66.8195
G1 X12.9189 Y-66.8454
G1 X13.0741 Y-66.8685
G1 X13.2337 Y-66.8899
G1 X13.3899 Y-66.9082
G1 X13.5496 Y-66.9242
G1 X13.7038 Y-66.9369
G1 X13.8669 Y-66.9483
G1 X14.0213 Y-66.9559
G1 X14.1818 Y-66.9620
G1 X14.3393 Y-66.9651
G1 X14.5001 Y-66.9658
G1 X14.6573 Y-66.9638
G1 X14.8151 Y-66.9592
G1 X14.9751 Y-66.9524
G1 X15.1326 Y-66.9430
G1 X15.2921 Y-66.9308
G1 X15.4490 Y-66.9160
G1 X15.6053 Y-66.8988
G1 X15.7648 Y-66.8790
G1 X15.9197 Y-66.8566
G1 X16.0774 Y-66.8315
G1 X16.2329 Y-66.8038
G1 X16.3896 Y-66.7730
G1 X16.5433 Y-66.7400
G1 X16.6985 Y-66.7040
G1 X16.8506 Y-66.6656
G1 X17.0053 Y-66.6234
G1 X17.1562 Y-66.5795
G1 X17.3078 Y-66.5323
G1 X17.4567 Y-66.4827
G1 X17.6078 Y-66.4291
G1 X17.7566 Y-66.3730
G1 X17.9024 Y-66.3143
G1 X18.0467 Y-66.2531
G1 X18.1935 Y-66.1873
G1 X18.3370 Y-66.1190
G1 X18.4777 Y-66.0484
G1 X18.6205 Y-65.9724
G1 X18.7559 Y-65.8965
G1 X18.8986 Y-65.8122
G1 X19.0289 Y-65.7306
G1 X19.1656 Y-65.6410
G1 X19.2949 Y-65.5513
G1 X19.3919 Y-65.4809
G1 X19.4280 Y-65.4538
G1 X19.5527 Y-65.3575
G1 X19.6454 Y-65.2826
G1 X19.6799 Y-65.2536
G1 X19.8026 Y-65.1480
G1 X19.9220 Y-65.0390
G1 X20.0386 Y-64.9270
G1 X20.1216 Y-64.8432
G1 X20.1552 Y-64.8084
G1 X20.2354 Y-64.7222
G1 X20.2664 Y-64.6877
G1 X20.3439 Y-64.5996
G1 X20.3738 Y-64.5645
G1 X20.4488 Y-64.4741
G1 X20.4795 Y-64.4360
G1 X20.5516 Y-64.3433
G1 X20.5796 Y-64.3059
G1 X20.6489 Y-64.2112
G1 X20.6799 Y-64.1678
G1 X20.7462 Y-64.0705
G1 X20.7734 Y-64.0291
G1 X20.8366 Y-63.9298
G1 X20.8610 Y-63.8904
G1 X20.9215 Y-63.7891
G1 X20.9489 Y-63.7410
G1 X21.0061 Y-63.6372
G1 X21.0289 Y-63.5940
G1 X21.0830 Y-63.4881
G1 X21.1064 Y-63.4406
G1 X21.1572 Y-63.3324
G1 X21.1798 Y-63.2818
G1 X21.2270 Y-63.1713
G1 X21.2448 Y-63.1276
G1 X21.2890 Y-63.0151
G1 X21.3083 Y-62.9633
G1 X21.3490 Y-62.8482
G1 X21.3655 Y-62.7990
G1 X21.4025 Y-62.6819
G1 X21.4168 Y-62.6349
G1 X21.4506 Y-62.5155
G1 X21.4653 Y-62.4599
G1 X21.4950 Y-62.3382
G1 X21.5052 Y-62.2930
G1 X21.5316 Y-62.1693
G1 X21.5422 Y-62.1147
G1 X21.5646 Y-61.9884
G1 X21.5722 Y-61.9417
G1 X21.5910 Y-61.8134
G1 X21.5979 Y-61.7609
G1 X21.6126 Y-61.6301
G1 X21.6172 Y-61.5826
G1 X21.6281 Y-61.4497
G1 X21.6317 Y-61.3971
G1 X21.6383 Y-61.2620
G1 X21.6398 Y-61.2168
G1 X21.6428 Y-61.0532
; Retract
G1 Z1.0000 F2540

;
; Operation:    1
; Name:         
; Type:         Pocket
; Paths:        1
; Direction:    Conventional
; Cut Depth:    2.5
; Pass Depth:   0.9999999999999999
; Plunge rate:  127
; Cut rate:     200
;

; Path 0
; Rapid to initial position
G1 X15.4127 Y-5.4125 F2540
G1 Z0.0000
; plunge
G1 Z-1.0000 F127
; cut
G1 X13.5877 Y-5.4125 F200
G1 X13.5877 Y-1.5875
G1 X15.4127 Y-1.5875
G1 X15.4127 Y-5.4125
; Rapid to initial position
G1 X15.4127 Y-5.4125 F2540
G1 Z-1.0000
; plunge
G1 Z-2.0000 F127
; cut
G1 X13.5877 Y-5.4125 F200
G1 X13.5877 Y-1.5875
G1 X15.4127 Y-1.5875
G1 X15.4127 Y-5.4125
; Rapid to initial position
G1 X15.4127 Y-5.4125 F2540
G1 Z-2.0000
; plunge
G1 Z-2.5000 F127
; cut
G1 X13.5877 Y-5.4125 F200
G1 X13.5877 Y-1.5875
G1 X15.4127 Y-1.5875
G1 X15.4127 Y-5.4125
; Retract
G1 Z1.0000 F2540

;
; Operation:    2
; Name:         
; Type:         Inside
; Paths:        1
; Direction:    Conventional
; Cut Depth:    5
; Pass Depth:   0.9999999999999999
; Plunge rate:  127
; Cut rate:     200
;

; Path 0
; Rapid to initial position
G1 X20.4127 Y-61.3225 F2540
G1 Z0.0000
; plunge
G1 Z-1.0000 F127
; cut
G1 X20.4117 Y-61.3245 F200
G1 X20.3756 Y-61.4068
G1 X20.3446 Y-61.4911
G1 X20.3182 Y-61.5770
G1 X20.2964 Y-61.6659
G1 X20.2659 Y-61.8073
G1 X20.2334 Y-61.9435
G1 X20.2009 Y-62.0672
G1 X20.1653 Y-62.1919
G1 X20.1282 Y-62.3120
G1 X20.0871 Y-62.4350
G1 X20.0454 Y-62.5521
G1 X19.9954 Y-62.6826
G1 X19.9502 Y-62.7936
G1 X19.8991 Y-62.9110
G1 X19.8455 Y-63.0278
G1 X19.7902 Y-63.1421
G1 X19.7328 Y-63.2536
G1 X19.6728 Y-63.3646
G1 X19.6118 Y-63.4723
G1 X19.5473 Y-63.5803
G1 X19.4800 Y-63.6880
G1 X19.4112 Y-63.7926
G1 X19.3391 Y-63.8978
G1 X19.2631 Y-64.0034
G1 X19.1935 Y-64.0961
G1 X19.1153 Y-64.1957
G1 X19.0317 Y-64.2981
G1 X18.9601 Y-64.3814
G1 X18.8669 Y-64.4860
G1 X18.7896 Y-64.5688
G1 X18.6944 Y-64.6671
G1 X18.6177 Y-64.7426
G1 X18.5194 Y-64.8358
G1 X18.4231 Y-64.9232
G1 X18.3421 Y-64.9935
G1 X18.2347 Y-65.0834
G1 X18.1478 Y-65.1528
G1 X18.0398 Y-65.2356
G1 X17.9436 Y-65.3059
G1 X17.8440 Y-65.3758
G1 X17.7366 Y-65.4479
G1 X17.6289 Y-65.5168
G1 X17.5298 Y-65.5772
G1 X17.4193 Y-65.6415
G1 X17.3159 Y-65.6989
G1 X17.1930 Y-65.7639
G1 X17.0871 Y-65.8170
G1 X16.9776 Y-65.8688
G1 X16.8620 Y-65.9206
G1 X16.7457 Y-65.9699
G1 X16.6301 Y-66.0161
G1 X16.5123 Y-66.0601
G1 X16.3894 Y-66.1032
G1 X16.2659 Y-66.1434
G1 X16.1582 Y-66.1761
G1 X16.0277 Y-66.2125
G1 X15.9057 Y-66.2437
G1 X15.7846 Y-66.2722
G1 X15.6677 Y-66.2965
G1 X15.5252 Y-66.3235
G1 X15.4089 Y-66.3428
G1 X15.2801 Y-66.3613
G1 X15.1488 Y-66.3771
G1 X15.0223 Y-66.3895
G1 X14.8928 Y-66.3997
G1 X14.7709 Y-66.4063
G1 X14.6345 Y-66.4108
G1 X14.5004 Y-66.4121
G1 X14.3652 Y-66.4108
G1 X14.2364 Y-66.4063
G1 X14.1084 Y-66.3992
G1 X13.9814 Y-66.3893
G1 X13.8549 Y-66.3765
G1 X13.7251 Y-66.3605
G1 X13.5898 Y-66.3412
G1 X13.4673 Y-66.3209
G1 X13.3518 Y-66.2988
G1 X13.2212 Y-66.2714
G1 X13.0965 Y-66.2422
G1 X12.9682 Y-66.2092
G1 X12.8463 Y-66.1751
G1 X12.7371 Y-66.1419
G1 X12.6162 Y-66.1025
G1 X12.4811 Y-66.0550
G1 X12.3795 Y-66.0169
G1 X12.2631 Y-65.9704
G1 X12.1435 Y-65.9196
G1 X12.0254 Y-65.8665
G1 X11.9172 Y-65.8152
G1 X11.8118 Y-65.7624
G1 X11.6881 Y-65.6968
G1 X11.5862 Y-65.6405
G1 X11.4864 Y-65.5820
G1 X11.3673 Y-65.5091
G1 X11.2659 Y-65.4444
G1 X11.1641 Y-65.3758
G1 X11.0592 Y-65.3024
G1 X10.9687 Y-65.2358
G1 X10.8537 Y-65.1477
G1 X10.7714 Y-65.0819
G1 X10.6667 Y-64.9943
G1 X10.5811 Y-64.9199
G1 X10.4851 Y-64.8327
G1 X10.3960 Y-64.7482
G1 X10.3005 Y-64.6539
G1 X10.2248 Y-64.5757
G1 X10.1384 Y-64.4827
G1 X10.0462 Y-64.3793
G1 X9.9756 Y-64.2971
G1 X9.8826 Y-64.1833
G1 X9.8176 Y-64.1002
G1 X9.7381 Y-63.9948
G1 X9.6726 Y-63.9031
G1 X9.5941 Y-63.7888
G1 X9.5308 Y-63.6925
G1 X9.4597 Y-63.5787
G1 X9.3952 Y-63.4708
G1 X9.3337 Y-63.3623
G1 X9.2753 Y-63.2541
G1 X9.2174 Y-63.1411
G1 X9.1633 Y-63.0298
G1 X9.1102 Y-62.9140
G1 X9.0559 Y-62.7878
G1 X9.0086 Y-62.6725
G1 X8.9652 Y-62.5592
G1 X8.9205 Y-62.4337
G1 X8.8806 Y-62.3143
G1 X8.8422 Y-62.1901
G1 X8.8064 Y-62.0641
G1 X8.7737 Y-61.9394
G1 X8.7432 Y-61.8127
G1 X8.7117 Y-61.6659
G1 X8.6904 Y-61.5785
G1 X8.6639 Y-61.4926
G1 X8.6330 Y-61.4086
G1 X8.5971 Y-61.3260
G1 X8.5875 Y-61.3070
G1 X8.5875 Y-8.5875
G1 X20.4127 Y-8.5875
G1 X20.4127 Y-61.3225
; Rapid to initial position
G1 X20.4127 Y-61.3225 F2540
G1 Z-1.0000
; plunge
G1 Z-2.0000 F127
; cut
G1 X20.4117 Y-61.3245 F200
G1 X20.3756 Y-61.4068
G1 X20.3446 Y-61.4911
G1 X20.3182 Y-61.5770
G1 X20.2964 Y-61.6659
G1 X20.2659 Y-61.8073
G1 X20.2334 Y-61.9435
G1 X20.2009 Y-62.0672
G1 X20.1653 Y-62.1919
G1 X20.1282 Y-62.3120
G1 X20.0871 Y-62.4350
G1 X20.0454 Y-62.5521
G1 X19.9954 Y-62.6826
G1 X19.9502 Y-62.7936
G1 X19.8991 Y-62.9110
G1 X19.8455 Y-63.0278
G1 X19.7902 Y-63.1421
G1 X19.7328 Y-63.2536
G1 X19.6728 Y-63.3646
G1 X19.6118 Y-63.4723
G1 X19.5473 Y-63.5803
G1 X19.4800 Y-63.6880
G1 X19.4112 Y-63.7926
G1 X19.3391 Y-63.8978
G1 X19.2631 Y-64.0034
G1 X19.1935 Y-64.0961
G1 X19.1153 Y-64.1957
G1 X19.0317 Y-64.2981
G1 X18.9601 Y-64.3814
G1 X18.8669 Y-64.4860
G1 X18.7896 Y-64.5688
G1 X18.6944 Y-64.6671
G1 X18.6177 Y-64.7426
G1 X18.5194 Y-64.8358
G1 X18.4231 Y-64.9232
G1 X18.3421 Y-64.9935
G1 X18.2347 Y-65.0834
G1 X18.1478 Y-65.1528
G1 X18.0398 Y-65.2356
G1 X17.9436 Y-65.3059
G1 X17.8440 Y-65.3758
G1 X17.7366 Y-65.4479
G1 X17.6289 Y-65.5168
G1 X17.5298 Y-65.5772
G1 X17.4193 Y-65.6415
G1 X17.3159 Y-65.6989
G1 X17.1930 Y-65.7639
G1 X17.0871 Y-65.8170
G1 X16.9776 Y-65.8688
G1 X16.8620 Y-65.9206
G1 X16.7457 Y-65.9699
G1 X16.6301 Y-66.0161
G1 X16.5123 Y-66.0601
G1 X16.3894 Y-66.1032
G1 X16.2659 Y-66.1434
G1 X16.1582 Y-66.1761
G1 X16.0277 Y-66.2125
G1 X15.9057 Y-66.2437
G1 X15.7846 Y-66.2722
G1 X15.6677 Y-66.2965
G1 X15.5252 Y-66.3235
G1 X15.4089 Y-66.3428
G1 X15.2801 Y-66.3613
G1 X15.1488 Y-66.3771
G1 X15.0223 Y-66.3895
G1 X14.8928 Y-66.3997
G1 X14.7709 Y-66.4063
G1 X14.6345 Y-66.4108
G1 X14.5004 Y-66.4121
G1 X14.3652 Y-66.4108
G1 X14.2364 Y-66.4063
G1 X14.1084 Y-66.3992
G1 X13.9814 Y-66.3893
G1 X13.8549 Y-66.3765
G1 X13.7251 Y-66.3605
G1 X13.5898 Y-66.3412
G1 X13.4673 Y-66.3209
G1 X13.3518 Y-66.2988
G1 X13.2212 Y-66.2714
G1 X13.0965 Y-66.2422
G1 X12.9682 Y-66.2092
G1 X12.8463 Y-66.1751
G1 X12.7371 Y-66.1419
G1 X12.6162 Y-66.1025
G1 X12.4811 Y-66.0550
G1 X12.3795 Y-66.0169
G1 X12.2631 Y-65.9704
G1 X12.1435 Y-65.9196
G1 X12.0254 Y-65.8665
G1 X11.9172 Y-65.8152
G1 X11.8118 Y-65.7624
G1 X11.6881 Y-65.6968
G1 X11.5862 Y-65.6405
G1 X11.4864 Y-65.5820
G1 X11.3673 Y-65.5091
G1 X11.2659 Y-65.4444
G1 X11.1641 Y-65.3758
G1 X11.0592 Y-65.3024
G1 X10.9687 Y-65.2358
G1 X10.8537 Y-65.1477
G1 X10.7714 Y-65.0819
G1 X10.6667 Y-64.9943
G1 X10.5811 Y-64.9199
G1 X10.4851 Y-64.8327
G1 X10.3960 Y-64.7482
G1 X10.3005 Y-64.6539
G1 X10.2248 Y-64.5757
G1 X10.1384 Y-64.4827
G1 X10.0462 Y-64.3793
G1 X9.9756 Y-64.2971
G1 X9.8826 Y-64.1833
G1 X9.8176 Y-64.1002
G1 X9.7381 Y-63.9948
G1 X9.6726 Y-63.9031
G1 X9.5941 Y-63.7888
G1 X9.5308 Y-63.6925
G1 X9.4597 Y-63.5787
G1 X9.3952 Y-63.4708
G1 X9.3337 Y-63.3623
G1 X9.2753 Y-63.2541
G1 X9.2174 Y-63.1411
G1 X9.1633 Y-63.0298
G1 X9.1102 Y-62.9140
G1 X9.0559 Y-62.7878
G1 X9.0086 Y-62.6725
G1 X8.9652 Y-62.5592
G1 X8.9205 Y-62.4337
G1 X8.8806 Y-62.3143
G1 X8.8422 Y-62.1901
G1 X8.8064 Y-62.0641
G1 X8.7737 Y-61.9394
G1 X8.7432 Y-61.8127
G1 X8.7117 Y-61.6659
G1 X8.6904 Y-61.5785
G1 X8.6639 Y-61.4926
G1 X8.6330 Y-61.4086
G1 X8.5971 Y-61.3260
G1 X8.5875 Y-61.3070
G1 X8.5875 Y-8.5875
G1 X20.4127 Y-8.5875
G1 X20.4127 Y-61.3225
; Rapid to initial position
G1 X20.4127 Y-61.3225 F2540
G1 Z-2.0000
; plunge
G1 Z-3.0000 F127
; cut
G1 X20.4117 Y-61.3245 F200
G1 X20.3756 Y-61.4068
G1 X20.3446 Y-61.4911
G1 X20.3182 Y-61.5770
G1 X20.2964 Y-61.6659
G1 X20.2659 Y-61.8073
G1 X20.2334 Y-61.9435
G1 X20.2009 Y-62.0672
G1 X20.1653 Y-62.1919
G1 X20.1282 Y-62.3120
G1 X20.0871 Y-62.4350
G1 X20.0454 Y-62.5521
G1 X19.9954 Y-62.6826
G1 X19.9502 Y-62.7936
G1 X19.8991 Y-62.9110
G1 X19.8455 Y-63.0278
G1 X19.7902 Y-63.1421
G1 X19.7328 Y-63.2536
G1 X19.6728 Y-63.3646
G1 X19.6118 Y-63.4723
G1 X19.5473 Y-63.5803
G1 X19.4800 Y-63.6880
G1 X19.4112 Y-63.7926
G1 X19.3391 Y-63.8978
G1 X19.2631 Y-64.0034
G1 X19.1935 Y-64.0961
G1 X19.1153 Y-64.1957
G1 X19.0317 Y-64.2981
G1 X18.9601 Y-64.3814
G1 X18.8669 Y-64.4860
G1 X18.7896 Y-64.5688
G1 X18.6944 Y-64.6671
G1 X18.6177 Y-64.7426
G1 X18.5194 Y-64.8358
G1 X18.4231 Y-64.9232
G1 X18.3421 Y-64.9935
G1 X18.2347 Y-65.0834
G1 X18.1478 Y-65.1528
G1 X18.0398 Y-65.2356
G1 X17.9436 Y-65.3059
G1 X17.8440 Y-65.3758
G1 X17.7366 Y-65.4479
G1 X17.6289 Y-65.5168
G1 X17.5298 Y-65.5772
G1 X17.4193 Y-65.6415
G1 X17.3159 Y-65.6989
G1 X17.1930 Y-65.7639
G1 X17.0871 Y-65.8170
G1 X16.9776 Y-65.8688
G1 X16.8620 Y-65.9206
G1 X16.7457 Y-65.9699
G1 X16.6301 Y-66.0161
G1 X16.5123 Y-66.0601
G1 X16.3894 Y-66.1032
G1 X16.2659 Y-66.1434
G1 X16.1582 Y-66.1761
G1 X16.0277 Y-66.2125
G1 X15.9057 Y-66.2437
G1 X15.7846 Y-66.2722
G1 X15.6677 Y-66.2965
G1 X15.5252 Y-66.3235
G1 X15.4089 Y-66.3428
G1 X15.2801 Y-66.3613
G1 X15.1488 Y-66.3771
G1 X15.0223 Y-66.3895
G1 X14.8928 Y-66.3997
G1 X14.7709 Y-66.4063
G1 X14.6345 Y-66.4108
G1 X14.5004 Y-66.4121
G1 X14.3652 Y-66.4108
G1 X14.2364 Y-66.4063
G1 X14.1084 Y-66.3992
G1 X13.9814 Y-66.3893
G1 X13.8549 Y-66.3765
G1 X13.7251 Y-66.3605
G1 X13.5898 Y-66.3412
G1 X13.4673 Y-66.3209
G1 X13.3518 Y-66.2988
G1 X13.2212 Y-66.2714
G1 X13.0965 Y-66.2422
G1 X12.9682 Y-66.2092
G1 X12.8463 Y-66.1751
G1 X12.7371 Y-66.1419
G1 X12.6162 Y-66.1025
G1 X12.4811 Y-66.0550
G1 X12.3795 Y-66.0169
G1 X12.2631 Y-65.9704
G1 X12.1435 Y-65.9196
G1 X12.0254 Y-65.8665
G1 X11.9172 Y-65.8152
G1 X11.8118 Y-65.7624
G1 X11.6881 Y-65.6968
G1 X11.5862 Y-65.6405
G1 X11.4864 Y-65.5820
G1 X11.3673 Y-65.5091
G1 X11.2659 Y-65.4444
G1 X11.1641 Y-65.3758
G1 X11.0592 Y-65.3024
G1 X10.9687 Y-65.2358
G1 X10.8537 Y-65.1477
G1 X10.7714 Y-65.0819
G1 X10.6667 Y-64.9943
G1 X10.5811 Y-64.9199
G1 X10.4851 Y-64.8327
G1 X10.3960 Y-64.7482
G1 X10.3005 Y-64.6539
G1 X10.2248 Y-64.5757
G1 X10.1384 Y-64.4827
G1 X10.0462 Y-64.3793
G1 X9.9756 Y-64.2971
G1 X9.8826 Y-64.1833
G1 X9.8176 Y-64.1002
G1 X9.7381 Y-63.9948
G1 X9.6726 Y-63.9031
G1 X9.5941 Y-63.7888
G1 X9.5308 Y-63.6925
G1 X9.4597 Y-63.5787
G1 X9.3952 Y-63.4708
G1 X9.3337 Y-63.3623
G1 X9.2753 Y-63.2541
G1 X9.2174 Y-63.1411
G1 X9.1633 Y-63.0298
G1 X9.1102 Y-62.9140
G1 X9.0559 Y-62.7878
G1 X9.0086 Y-62.6725
G1 X8.9652 Y-62.5592
G1 X8.9205 Y-62.4337
G1 X8.8806 Y-62.3143
G1 X8.8422 Y-62.1901
G1 X8.8064 Y-62.0641
G1 X8.7737 Y-61.9394
G1 X8.7432 Y-61.8127
G1 X8.7117 Y-61.6659
G1 X8.6904 Y-61.5785
G1 X8.6639 Y-61.4926
G1 X8.6330 Y-61.4086
G1 X8.5971 Y-61.3260
G1 X8.5875 Y-61.3070
G1 X8.5875 Y-8.5875
G1 X20.4127 Y-8.5875
G1 X20.4127 Y-61.3225
; Rapid to initial position
G1 X20.4127 Y-61.3225 F2540
G1 Z-3.0000
; plunge
G1 Z-4.0000 F127
; cut
G1 X20.4117 Y-61.3245 F200
G1 X20.3756 Y-61.4068
G1 X20.3446 Y-61.4911
G1 X20.3182 Y-61.5770
G1 X20.2964 Y-61.6659
G1 X20.2659 Y-61.8073
G1 X20.2334 Y-61.9435
G1 X20.2009 Y-62.0672
G1 X20.1653 Y-62.1919
G1 X20.1282 Y-62.3120
G1 X20.0871 Y-62.4350
G1 X20.0454 Y-62.5521
G1 X19.9954 Y-62.6826
G1 X19.9502 Y-62.7936
G1 X19.8991 Y-62.9110
G1 X19.8455 Y-63.0278
G1 X19.7902 Y-63.1421
G1 X19.7328 Y-63.2536
G1 X19.6728 Y-63.3646
G1 X19.6118 Y-63.4723
G1 X19.5473 Y-63.5803
G1 X19.4800 Y-63.6880
G1 X19.4112 Y-63.7926
G1 X19.3391 Y-63.8978
G1 X19.2631 Y-64.0034
G1 X19.1935 Y-64.0961
G1 X19.1153 Y-64.1957
G1 X19.0317 Y-64.2981
G1 X18.9601 Y-64.3814
G1 X18.8669 Y-64.4860
G1 X18.7896 Y-64.5688
G1 X18.6944 Y-64.6671
G1 X18.6177 Y-64.7426
G1 X18.5194 Y-64.8358
G1 X18.4231 Y-64.9232
G1 X18.3421 Y-64.9935
G1 X18.2347 Y-65.0834
G1 X18.1478 Y-65.1528
G1 X18.0398 Y-65.2356
G1 X17.9436 Y-65.3059
G1 X17.8440 Y-65.3758
G1 X17.7366 Y-65.4479
G1 X17.6289 Y-65.5168
G1 X17.5298 Y-65.5772
G1 X17.4193 Y-65.6415
G1 X17.3159 Y-65.6989
G1 X17.1930 Y-65.7639
G1 X17.0871 Y-65.8170
G1 X16.9776 Y-65.8688
G1 X16.8620 Y-65.9206
G1 X16.7457 Y-65.9699
G1 X16.6301 Y-66.0161
G1 X16.5123 Y-66.0601
G1 X16.3894 Y-66.1032
G1 X16.2659 Y-66.1434
G1 X16.1582 Y-66.1761
G1 X16.0277 Y-66.2125
G1 X15.9057 Y-66.2437
G1 X15.7846 Y-66.2722
G1 X15.6677 Y-66.2965
G1 X15.5252 Y-66.3235
G1 X15.4089 Y-66.3428
G1 X15.2801 Y-66.3613
G1 X15.1488 Y-66.3771
G1 X15.0223 Y-66.3895
G1 X14.8928 Y-66.3997
G1 X14.7709 Y-66.4063
G1 X14.6345 Y-66.4108
G1 X14.5004 Y-66.4121
G1 X14.3652 Y-66.4108
G1 X14.2364 Y-66.4063
G1 X14.1084 Y-66.3992
G1 X13.9814 Y-66.3893
G1 X13.8549 Y-66.3765
G1 X13.7251 Y-66.3605
G1 X13.5898 Y-66.3412
G1 X13.4673 Y-66.3209
G1 X13.3518 Y-66.2988
G1 X13.2212 Y-66.2714
G1 X13.0965 Y-66.2422
G1 X12.9682 Y-66.2092
G1 X12.8463 Y-66.1751
G1 X12.7371 Y-66.1419
G1 X12.6162 Y-66.1025
G1 X12.4811 Y-66.0550
G1 X12.3795 Y-66.0169
G1 X12.2631 Y-65.9704
G1 X12.1435 Y-65.9196
G1 X12.0254 Y-65.8665
G1 X11.9172 Y-65.8152
G1 X11.8118 Y-65.7624
G1 X11.6881 Y-65.6968
G1 X11.5862 Y-65.6405
G1 X11.4864 Y-65.5820
G1 X11.3673 Y-65.5091
G1 X11.2659 Y-65.4444
G1 X11.1641 Y-65.3758
G1 X11.0592 Y-65.3024
G1 X10.9687 Y-65.2358
G1 X10.8537 Y-65.1477
G1 X10.7714 Y-65.0819
G1 X10.6667 Y-64.9943
G1 X10.5811 Y-64.9199
G1 X10.4851 Y-64.8327
G1 X10.3960 Y-64.7482
G1 X10.3005 Y-64.6539
G1 X10.2248 Y-64.5757
G1 X10.1384 Y-64.4827
G1 X10.0462 Y-64.3793
G1 X9.9756 Y-64.2971
G1 X9.8826 Y-64.1833
G1 X9.8176 Y-64.1002
G1 X9.7381 Y-63.9948
G1 X9.6726 Y-63.9031
G1 X9.5941 Y-63.7888
G1 X9.5308 Y-63.6925
G1 X9.4597 Y-63.5787
G1 X9.3952 Y-63.4708
G1 X9.3337 Y-63.3623
G1 X9.2753 Y-63.2541
G1 X9.2174 Y-63.1411
G1 X9.1633 Y-63.0298
G1 X9.1102 Y-62.9140
G1 X9.0559 Y-62.7878
G1 X9.0086 Y-62.6725
G1 X8.9652 Y-62.5592
G1 X8.9205 Y-62.4337
G1 X8.8806 Y-62.3143
G1 X8.8422 Y-62.1901
G1 X8.8064 Y-62.0641
G1 X8.7737 Y-61.9394
G1 X8.7432 Y-61.8127
G1 X8.7117 Y-61.6659
G1 X8.6904 Y-61.5785
G1 X8.6639 Y-61.4926
G1 X8.6330 Y-61.4086
G1 X8.5971 Y-61.3260
G1 X8.5875 Y-61.3070
G1 X8.5875 Y-8.5875
G1 X20.4127 Y-8.5875
G1 X20.4127 Y-61.3225
; Rapid to initial position
G1 X20.4127 Y-61.3225 F2540
G1 Z-4.0000
; plunge
G1 Z-5.0000 F127
; cut
G1 X20.4117 Y-61.3245 F200
G1 X20.3756 Y-61.4068
G1 X20.3446 Y-61.4911
G1 X20.3182 Y-61.5770
G1 X20.2964 Y-61.6659
G1 X20.2659 Y-61.8073
G1 X20.2334 Y-61.9435
G1 X20.2009 Y-62.0672
G1 X20.1653 Y-62.1919
G1 X20.1282 Y-62.3120
G1 X20.0871 Y-62.4350
G1 X20.0454 Y-62.5521
G1 X19.9954 Y-62.6826
G1 X19.9502 Y-62.7936
G1 X19.8991 Y-62.9110
G1 X19.8455 Y-63.0278
G1 X19.7902 Y-63.1421
G1 X19.7328 Y-63.2536
G1 X19.6728 Y-63.3646
G1 X19.6118 Y-63.4723
G1 X19.5473 Y-63.5803
G1 X19.4800 Y-63.6880
G1 X19.4112 Y-63.7926
G1 X19.3391 Y-63.8978
G1 X19.2631 Y-64.0034
G1 X19.1935 Y-64.0961
G1 X19.1153 Y-64.1957
G1 X19.0317 Y-64.2981
G1 X18.9601 Y-64.3814
G1 X18.8669 Y-64.4860
G1 X18.7896 Y-64.5688
G1 X18.6944 Y-64.6671
G1 X18.6177 Y-64.7426
G1 X18.5194 Y-64.8358
G1 X18.4231 Y-64.9232
G1 X18.3421 Y-64.9935
G1 X18.2347 Y-65.0834
G1 X18.1478 Y-65.1528
G1 X18.0398 Y-65.2356
G1 X17.9436 Y-65.3059
G1 X17.8440 Y-65.3758
G1 X17.7366 Y-65.4479
G1 X17.6289 Y-65.5168
G1 X17.5298 Y-65.5772
G1 X17.4193 Y-65.6415
G1 X17.3159 Y-65.6989
G1 X17.1930 Y-65.7639
G1 X17.0871 Y-65.8170
G1 X16.9776 Y-65.8688
G1 X16.8620 Y-65.9206
G1 X16.7457 Y-65.9699
G1 X16.6301 Y-66.0161
G1 X16.5123 Y-66.0601
G1 X16.3894 Y-66.1032
G1 X16.2659 Y-66.1434
G1 X16.1582 Y-66.1761
G1 X16.0277 Y-66.2125
G1 X15.9057 Y-66.2437
G1 X15.7846 Y-66.2722
G1 X15.6677 Y-66.2965
G1 X15.5252 Y-66.3235
G1 X15.4089 Y-66.3428
G1 X15.2801 Y-66.3613
G1 X15.1488 Y-66.3771
G1 X15.0223 Y-66.3895
G1 X14.8928 Y-66.3997
G1 X14.7709 Y-66.4063
G1 X14.6345 Y-66.4108
G1 X14.5004 Y-66.4121
G1 X14.3652 Y-66.4108
G1 X14.2364 Y-66.4063
G1 X14.1084 Y-66.3992
G1 X13.9814 Y-66.3893
G1 X13.8549 Y-66.3765
G1 X13.7251 Y-66.3605
G1 X13.5898 Y-66.3412
G1 X13.4673 Y-66.3209
G1 X13.3518 Y-66.2988
G1 X13.2212 Y-66.2714
G1 X13.0965 Y-66.2422
G1 X12.9682 Y-66.2092
G1 X12.8463 Y-66.1751
G1 X12.7371 Y-66.1419
G1 X12.6162 Y-66.1025
G1 X12.4811 Y-66.0550
G1 X12.3795 Y-66.0169
G1 X12.2631 Y-65.9704
G1 X12.1435 Y-65.9196
G1 X12.0254 Y-65.8665
G1 X11.9172 Y-65.8152
G1 X11.8118 Y-65.7624
G1 X11.6881 Y-65.6968
G1 X11.5862 Y-65.6405
G1 X11.4864 Y-65.5820
G1 X11.3673 Y-65.5091
G1 X11.2659 Y-65.4444
G1 X11.1641 Y-65.3758
G1 X11.0592 Y-65.3024
G1 X10.9687 Y-65.2358
G1 X10.8537 Y-65.1477
G1 X10.7714 Y-65.0819
G1 X10.6667 Y-64.9943
G1 X10.5811 Y-64.9199
G1 X10.4851 Y-64.8327
G1 X10.3960 Y-64.7482
G1 X10.3005 Y-64.6539
G1 X10.2248 Y-64.5757
G1 X10.1384 Y-64.4827
G1 X10.0462 Y-64.3793
G1 X9.9756 Y-64.2971
G1 X9.8826 Y-64.1833
G1 X9.8176 Y-64.1002
G1 X9.7381 Y-63.9948
G1 X9.6726 Y-63.9031
G1 X9.5941 Y-63.7888
G1 X9.5308 Y-63.6925
G1 X9.4597 Y-63.5787
G1 X9.3952 Y-63.4708
G1 X9.3337 Y-63.3623
G1 X9.2753 Y-63.2541
G1 X9.2174 Y-63.1411
G1 X9.1633 Y-63.0298
G1 X9.1102 Y-62.9140
G1 X9.0559 Y-62.7878
G1 X9.0086 Y-62.6725
G1 X8.9652 Y-62.5592
G1 X8.9205 Y-62.4337
G1 X8.8806 Y-62.3143
G1 X8.8422 Y-62.1901
G1 X8.8064 Y-62.0641
G1 X8.7737 Y-61.9394
G1 X8.7432 Y-61.8127
G1 X8.7117 Y-61.6659
G1 X8.6904 Y-61.5785
G1 X8.6639 Y-61.4926
G1 X8.6330 Y-61.4086
G1 X8.5971 Y-61.3260
G1 X8.5875 Y-61.3070
G1 X8.5875 Y-8.5875
G1 X20.4127 Y-8.5875
G1 X20.4127 Y-61.3225
; Rapid to initial position
G1 X20.4127 Y-61.3225 F2540
G1 Z-5.0000
; plunge
G1 Z-5.0000 F127
; cut
G1 X20.4117 Y-61.3245 F200
G1 X20.3756 Y-61.4068
G1 X20.3446 Y-61.4911
G1 X20.3182 Y-61.5770
G1 X20.2964 Y-61.6659
G1 X20.2659 Y-61.8073
G1 X20.2334 Y-61.9435
G1 X20.2009 Y-62.0672
G1 X20.1653 Y-62.1919
G1 X20.1282 Y-62.3120
G1 X20.0871 Y-62.4350
G1 X20.0454 Y-62.5521
G1 X19.9954 Y-62.6826
G1 X19.9502 Y-62.7936
G1 X19.8991 Y-62.9110
G1 X19.8455 Y-63.0278
G1 X19.7902 Y-63.1421
G1 X19.7328 Y-63.2536
G1 X19.6728 Y-63.3646
G1 X19.6118 Y-63.4723
G1 X19.5473 Y-63.5803
G1 X19.4800 Y-63.6880
G1 X19.4112 Y-63.7926
G1 X19.3391 Y-63.8978
G1 X19.2631 Y-64.0034
G1 X19.1935 Y-64.0961
G1 X19.1153 Y-64.1957
G1 X19.0317 Y-64.2981
G1 X18.9601 Y-64.3814
G1 X18.8669 Y-64.4860
G1 X18.7896 Y-64.5688
G1 X18.6944 Y-64.6671
G1 X18.6177 Y-64.7426
G1 X18.5194 Y-64.8358
G1 X18.4231 Y-64.9232
G1 X18.3421 Y-64.9935
G1 X18.2347 Y-65.0834
G1 X18.1478 Y-65.1528
G1 X18.0398 Y-65.2356
G1 X17.9436 Y-65.3059
G1 X17.8440 Y-65.3758
G1 X17.7366 Y-65.4479
G1 X17.6289 Y-65.5168
G1 X17.5298 Y-65.5772
G1 X17.4193 Y-65.6415
G1 X17.3159 Y-65.6989
G1 X17.1930 Y-65.7639
G1 X17.0871 Y-65.8170
G1 X16.9776 Y-65.8688
G1 X16.8620 Y-65.9206
G1 X16.7457 Y-65.9699
G1 X16.6301 Y-66.0161
G1 X16.5123 Y-66.0601
G1 X16.3894 Y-66.1032
G1 X16.2659 Y-66.1434
G1 X16.1582 Y-66.1761
G1 X16.0277 Y-66.2125
G1 X15.9057 Y-66.2437
G1 X15.7846 Y-66.2722
G1 X15.6677 Y-66.2965
G1 X15.5252 Y-66.3235
G1 X15.4089 Y-66.3428
G1 X15.2801 Y-66.3613
G1 X15.1488 Y-66.3771
G1 X15.0223 Y-66.3895
G1 X14.8928 Y-66.3997
G1 X14.7709 Y-66.4063
G1 X14.6345 Y-66.4108
G1 X14.5004 Y-66.4121
G1 X14.3652 Y-66.4108
G1 X14.2364 Y-66.4063
G1 X14.1084 Y-66.3992
G1 X13.9814 Y-66.3893
G1 X13.8549 Y-66.3765
G1 X13.7251 Y-66.3605
G1 X13.5898 Y-66.3412
G1 X13.4673 Y-66.3209
G1 X13.3518 Y-66.2988
G1 X13.2212 Y-66.2714
G1 X13.0965 Y-66.2422
G1 X12.9682 Y-66.2092
G1 X12.8463 Y-66.1751
G1 X12.7371 Y-66.1419
G1 X12.6162 Y-66.1025
G1 X12.4811 Y-66.0550
G1 X12.3795 Y-66.0169
G1 X12.2631 Y-65.9704
G1 X12.1435 Y-65.9196
G1 X12.0254 Y-65.8665
G1 X11.9172 Y-65.8152
G1 X11.8118 Y-65.7624
G1 X11.6881 Y-65.6968
G1 X11.5862 Y-65.6405
G1 X11.4864 Y-65.5820
G1 X11.3673 Y-65.5091
G1 X11.2659 Y-65.4444
G1 X11.1641 Y-65.3758
G1 X11.0592 Y-65.3024
G1 X10.9687 Y-65.2358
G1 X10.8537 Y-65.1477
G1 X10.7714 Y-65.0819
G1 X10.6667 Y-64.9943
G1 X10.5811 Y-64.9199
G1 X10.4851 Y-64.8327
G1 X10.3960 Y-64.7482
G1 X10.3005 Y-64.6539
G1 X10.2248 Y-64.5757
G1 X10.1384 Y-64.4827
G1 X10.0462 Y-64.3793
G1 X9.9756 Y-64.2971
G1 X9.8826 Y-64.1833
G1 X9.8176 Y-64.1002
G1 X9.7381 Y-63.9948
G1 X9.6726 Y-63.9031
G1 X9.5941 Y-63.7888
G1 X9.5308 Y-63.6925
G1 X9.4597 Y-63.5787
G1 X9.3952 Y-63.4708
G1 X9.3337 Y-63.3623
G1 X9.2753 Y-63.2541
G1 X9.2174 Y-63.1411
G1 X9.1633 Y-63.0298
G1 X9.1102 Y-62.9140
G1 X9.0559 Y-62.7878
G1 X9.0086 Y-62.6725
G1 X8.9652 Y-62.5592
G1 X8.9205 Y-62.4337
G1 X8.8806 Y-62.3143
G1 X8.8422 Y-62.1901
G1 X8.8064 Y-62.0641
G1 X8.7737 Y-61.9394
G1 X8.7432 Y-61.8127
G1 X8.7117 Y-61.6659
G1 X8.6904 Y-61.5785
G1 X8.6639 Y-61.4926
G1 X8.6330 Y-61.4086
G1 X8.5971 Y-61.3260
G1 X8.5875 Y-61.3070
G1 X8.5875 Y-8.5875
G1 X20.4127 Y-8.5875
G1 X20.4127 Y-61.3225
; Retract
G1 Z1.0000 F2540

;
; Operation:    3
; Name:         
; Type:         Outside
; Paths:        1
; Direction:    Conventional
; Cut Depth:    5
; Pass Depth:   0.9999999999999999
; Plunge rate:  127
; Cut rate:     200
;

; Path 0
; Rapid to initial position
G1 X29.0002 Y1.5875 F2540
G1 Z0.0000
; plunge
G1 Z-1.0000 F127
; cut
G1 X0.0000 Y1.5875 F200
G1 X-0.0688 Y1.5860
G1 X-0.1585 Y1.5796
G1 X-0.2474 Y1.5682
G1 X-0.3358 Y1.5517
G1 X-0.4229 Y1.5301
G1 X-0.5088 Y1.5037
G1 X-0.5931 Y1.4727
G1 X-0.6754 Y1.4366
G1 X-0.7554 Y1.3962
G1 X-0.8331 Y1.3513
G1 X-0.9083 Y1.3020
G1 X-0.9804 Y1.2487
G1 X-1.0495 Y1.1913
G1 X-1.1151 Y1.1298
G1 X-1.1773 Y1.0650
G1 X-1.2355 Y0.9967
G1 X-1.2898 Y0.9253
G1 X-1.3401 Y0.8509
G1 X-1.3861 Y0.7737
G1 X-1.4277 Y0.6942
G1 X-1.4646 Y0.6124
G1 X-1.4968 Y0.5286
G1 X-1.5245 Y0.4430
G1 X-1.5471 Y0.3561
G1 X-1.5646 Y0.2682
G1 X-1.5773 Y0.1793
G1 X-1.5850 Y0.0897
G1 X-1.5875 Y0.0000
G1 X-1.5875 Y-61.9999
G1 X-1.5860 Y-62.0687
G1 X-1.5796 Y-62.1584
G1 X-1.5682 Y-62.2473
G1 X-1.5517 Y-62.3357
G1 X-1.5301 Y-62.4228
G1 X-1.5037 Y-62.5086
G1 X-1.4727 Y-62.5930
G1 X-1.4366 Y-62.6753
G1 X-1.4186 Y-62.7111
G1 X-1.4166 Y-62.7258
G1 X-1.3889 Y-62.9158
G1 X-1.3592 Y-63.1048
G1 X-1.3277 Y-63.2912
G1 X-1.2936 Y-63.4789
G1 X-1.2578 Y-63.6643
G1 X-1.2195 Y-63.8505
G1 X-1.1793 Y-64.0342
G1 X-1.1366 Y-64.2193
G1 X-1.0925 Y-64.4014
G1 X-1.0462 Y-64.5831
G1 X-0.9970 Y-64.7659
G1 X-0.9464 Y-64.9463
G1 X-0.8941 Y-65.1246
G1 X-0.8395 Y-65.3034
G1 X-0.7828 Y-65.4809
G1 X-0.7242 Y-65.6580
G1 X-0.6637 Y-65.8335
G1 X-0.6022 Y-66.0060
G1 X-0.5367 Y-66.1827
G1 X-0.4704 Y-66.3557
G1 X-0.4026 Y-66.5262
G1 X-0.3325 Y-66.6971
G1 X-0.2601 Y-66.8680
G1 X-0.1867 Y-67.0357
G1 X-0.1107 Y-67.2038
G1 X-0.0333 Y-67.3702
G1 X0.0462 Y-67.5361
G1 X0.1267 Y-67.6991
G1 X0.2108 Y-67.8647
G1 X0.2954 Y-68.0265
G1 X0.3810 Y-68.1863
G1 X0.4694 Y-68.3468
G1 X0.5603 Y-68.5068
G1 X0.6520 Y-68.6643
G1 X0.7440 Y-68.8185
G1 X0.8400 Y-68.9755
G1 X0.9368 Y-69.1294
G1 X1.0361 Y-69.2831
G1 X1.1361 Y-69.4347
G1 X1.2365 Y-69.5833
G1 X1.3419 Y-69.7352
G1 X1.4458 Y-69.8815
G1 X1.5532 Y-70.0291
G1 X1.6601 Y-70.1728
G1 X1.7709 Y-70.3181
G1 X1.8832 Y-70.4619
G1 X1.9949 Y-70.6018
G1 X2.1105 Y-70.7431
G1 X2.2250 Y-70.8805
G1 X2.3434 Y-71.0187
G1 X2.4623 Y-71.1548
G1 X2.5827 Y-71.2892
G1 X2.7043 Y-71.4223
G1 X2.8291 Y-71.5554
G1 X2.9522 Y-71.6844
G1 X3.0797 Y-71.8144
G1 X3.2073 Y-71.9419
G1 X3.3363 Y-72.0679
G1 X3.4666 Y-72.1926
G1 X3.5982 Y-72.3156
G1 X3.7328 Y-72.4383
G1 X3.8659 Y-72.5574
G1 X4.0030 Y-72.6770
G1 X4.1389 Y-72.7931
G1 X4.2802 Y-72.9107
G1 X4.4171 Y-73.0227
G1 X4.5593 Y-73.1363
G1 X4.7033 Y-73.2483
G1 X4.8440 Y-73.3555
G1 X4.9919 Y-73.4654
G1 X5.1364 Y-73.5706
G1 X5.2850 Y-73.6760
G1 X5.4308 Y-73.7771
G1 X5.5834 Y-73.8805
G1 X5.7328 Y-73.9790
G1 X5.8880 Y-74.0788
G1 X6.0383 Y-74.1733
G1 X6.1938 Y-74.2688
G1 X6.3482 Y-74.3610
G1 X6.5065 Y-74.4532
G1 X6.6624 Y-74.5419
G1 X6.8229 Y-74.6305
G1 X6.9827 Y-74.7164
G1 X7.1437 Y-74.8007
G1 X7.3063 Y-74.8835
G1 X7.4691 Y-74.9640
G1 X7.6330 Y-75.0428
G1 X7.7988 Y-75.1200
G1 X7.9634 Y-75.1947
G1 X8.1298 Y-75.2681
G1 X8.3015 Y-75.3412
G1 X8.4679 Y-75.4098
G1 X8.6383 Y-75.4779
G1 X8.8087 Y-75.5437
G1 X8.9817 Y-75.6084
G1 X9.1539 Y-75.6704
G1 X9.3287 Y-75.7309
G1 X9.5011 Y-75.7885
G1 X9.6766 Y-75.8452
G1 X9.8552 Y-75.9000
G1 X10.0300 Y-75.9521
G1 X10.2078 Y-76.0026
G1 X10.3886 Y-76.0514
G1 X10.5649 Y-76.0974
G1 X10.7472 Y-76.1421
G1 X10.9278 Y-76.1845
G1 X11.1092 Y-76.2249
G1 X11.2928 Y-76.2632
G1 X11.4750 Y-76.2993
G1 X11.6581 Y-76.3333
G1 X11.8417 Y-76.3654
G1 X12.0305 Y-76.3958
G1 X12.2123 Y-76.4233
G1 X12.4003 Y-76.4492
G1 X12.5882 Y-76.4728
G1 X12.7767 Y-76.4941
G1 X12.9631 Y-76.5132
G1 X13.1529 Y-76.5302
G1 X13.3403 Y-76.5452
G1 X13.5331 Y-76.5579
G1 X13.7213 Y-76.5683
G1 X13.9151 Y-76.5764
G1 X14.1044 Y-76.5823
G1 X14.2964 Y-76.5861
G1 X14.4887 Y-76.5876
G1 X14.6835 Y-76.5866
G1 X14.8755 Y-76.5833
G1 X15.0696 Y-76.5774
G1 X15.2585 Y-76.5698
G1 X15.4493 Y-76.5597
G1 X15.6398 Y-76.5475
G1 X15.8295 Y-76.5327
G1 X16.0167 Y-76.5165
G1 X16.2082 Y-76.4972
G1 X16.3944 Y-76.4764
G1 X16.5801 Y-76.4535
G1 X16.7701 Y-76.4276
G1 X16.9525 Y-76.4009
G1 X17.1412 Y-76.3704
G1 X17.3248 Y-76.3389
G1 X17.5077 Y-76.3054
G1 X17.6926 Y-76.2691
G1 X17.8742 Y-76.2315
G1 X18.0556 Y-76.1916
G1 X18.2385 Y-76.1489
G1 X18.4180 Y-76.1050
G1 X18.5974 Y-76.0590
G1 X18.7762 Y-76.0108
G1 X18.9540 Y-75.9607
G1 X19.1328 Y-75.9079
G1 X19.3076 Y-75.8543
G1 X19.4828 Y-75.7987
G1 X19.6583 Y-75.7403
G1 X19.8338 Y-75.6796
G1 X20.0055 Y-75.6181
G1 X20.1757 Y-75.5551
G1 X20.3495 Y-75.4883
G1 X20.5181 Y-75.4212
G1 X20.6886 Y-75.3511
G1 X20.8554 Y-75.2808
G1 X21.0233 Y-75.2074
G1 X21.1912 Y-75.1314
G1 X21.3553 Y-75.0552
G1 X21.5212 Y-74.9757
G1 X21.6840 Y-74.8955
G1 X21.8450 Y-74.8139
G1 X22.0078 Y-74.7288
G1 X22.1658 Y-74.6442
G1 X22.3276 Y-74.5551
G1 X22.4838 Y-74.4670
G1 X22.6405 Y-74.3763
G1 X22.7990 Y-74.2815
G1 X22.9527 Y-74.1878
G1 X23.1043 Y-74.0928
G1 X23.2585 Y-73.9938
G1 X23.4081 Y-73.8957
G1 X23.5610 Y-73.7923
G1 X23.7081 Y-73.6907
G1 X23.8559 Y-73.5863
G1 X24.0025 Y-73.4802
G1 X24.1488 Y-73.3715
G1 X24.2913 Y-73.2635
G1 X24.4340 Y-73.1525
G1 X24.5753 Y-73.0405
G1 X24.7165 Y-72.9254
G1 X24.8539 Y-72.8111
G1 X24.9928 Y-72.6930
G1 X25.1300 Y-72.5734
G1 X25.2621 Y-72.4558
G1 X25.3970 Y-72.3331
G1 X25.5303 Y-72.2089
G1 X25.6596 Y-72.0857
G1 X25.7899 Y-71.9587
G1 X25.9179 Y-71.8312
G1 X26.0441 Y-71.7024
G1 X26.1691 Y-71.5724
G1 X26.2926 Y-71.4408
G1 X26.4147 Y-71.3077
G1 X26.5364 Y-71.1721
G1 X26.6545 Y-71.0377
G1 X26.7744 Y-70.8978
G1 X26.8882 Y-70.7621
G1 X27.0038 Y-70.6211
G1 X27.1170 Y-70.4802
G1 X27.2296 Y-70.3362
G1 X27.3393 Y-70.1924
G1 X27.4475 Y-70.0476
G1 X27.5552 Y-69.8998
G1 X27.6593 Y-69.7535
G1 X27.7632 Y-69.6046
G1 X27.8658 Y-69.4533
G1 X27.9662 Y-69.3019
G1 X28.0655 Y-69.1479
G1 X28.1625 Y-68.9940
G1 X28.2567 Y-68.8409
G1 X28.3515 Y-68.6829
G1 X28.4432 Y-68.5259
G1 X28.5339 Y-68.3661
G1 X28.6222 Y-68.2066
G1 X28.7091 Y-68.0453
G1 X28.7942 Y-67.8825
G1 X28.8768 Y-67.7207
G1 X28.9585 Y-67.5559
G1 X29.0383 Y-67.3900
G1 X29.1158 Y-67.2244
G1 X29.1922 Y-67.0555
G1 X29.2666 Y-66.8856
G1 X29.3383 Y-66.7177
G1 X29.4089 Y-66.5457
G1 X29.4770 Y-66.3750
G1 X29.5438 Y-66.2023
G1 X29.6083 Y-66.0286
G1 X29.6713 Y-65.8531
G1 X29.7322 Y-65.6765
G1 X29.7909 Y-65.5000
G1 X29.8475 Y-65.3227
G1 X29.9021 Y-65.1457
G1 X29.9552 Y-64.9653
G1 X30.0063 Y-64.7847
G1 X30.0553 Y-64.6019
G1 X30.1015 Y-64.4218
G1 X30.1465 Y-64.2379
G1 X30.1889 Y-64.0550
G1 X30.2298 Y-63.8683
G1 X30.2679 Y-63.6844
G1 X30.3040 Y-63.4992
G1 X30.3385 Y-63.3110
G1 X30.3705 Y-63.1223
G1 X30.4002 Y-62.9351
G1 X30.4282 Y-62.7454
G1 X30.4381 Y-62.6715
G1 X30.4648 Y-62.6123
G1 X30.4970 Y-62.5284
G1 X30.5247 Y-62.4429
G1 X30.5473 Y-62.3560
G1 X30.5648 Y-62.2681
G1 X30.5775 Y-62.1792
G1 X30.5852 Y-62.0895
G1 X30.5877 Y-61.9999
G1 X30.5877 Y0.0000
G1 X30.5862 Y0.0688
G1 X30.5798 Y0.1585
G1 X30.5684 Y0.2474
G1 X30.5519 Y0.3358
G1 X30.5303 Y0.4229
G1 X30.5039 Y0.5088
G1 X30.4729 Y0.5931
G1 X30.4368 Y0.6754
G1 X30.3964 Y0.7554
G1 X30.3515 Y0.8331
G1 X30.3022 Y0.9083
G1 X30.2489 Y0.9804
G1 X30.1915 Y1.0495
G1 X30.1300 Y1.1151
G1 X30.0652 Y1.1773
G1 X29.9969 Y1.2355
G1 X29.9255 Y1.2898
G1 X29.8511 Y1.3401
G1 X29.7739 Y1.3861
G1 X29.6944 Y1.4277
G1 X29.6126 Y1.4646
G1 X29.5288 Y1.4968
G1 X29.4432 Y1.5245
G1 X29.3563 Y1.5471
G1 X29.2684 Y1.5646
G1 X29.1795 Y1.5773
G1 X29.0899 Y1.5850
G1 X29.0002 Y1.5875
; Rapid to initial position
G1 X29.0002 Y1.5875 F2540
G1 Z-1.0000
; plunge
G1 Z-2.0000 F127
; cut
G1 X0.0000 Y1.5875 F200
G1 X-0.0688 Y1.5860
G1 X-0.1585 Y1.5796
G1 X-0.2474 Y1.5682
G1 X-0.3358 Y1.5517
G1 X-0.4229 Y1.5301
G1 X-0.5088 Y1.5037
G1 X-0.5931 Y1.4727
G1 X-0.6754 Y1.4366
G1 X-0.7554 Y1.3962
G1 X-0.8331 Y1.3513
G1 X-0.9083 Y1.3020
G1 X-0.9804 Y1.2487
G1 X-1.0495 Y1.1913
G1 X-1.1151 Y1.1298
G1 X-1.1773 Y1.0650
G1 X-1.2355 Y0.9967
G1 X-1.2898 Y0.9253
G1 X-1.3401 Y0.8509
G1 X-1.3861 Y0.7737
G1 X-1.4277 Y0.6942
G1 X-1.4646 Y0.6124
G1 X-1.4968 Y0.5286
G1 X-1.5245 Y0.4430
G1 X-1.5471 Y0.3561
G1 X-1.5646 Y0.2682
G1 X-1.5773 Y0.1793
G1 X-1.5850 Y0.0897
G1 X-1.5875 Y0.0000
G1 X-1.5875 Y-61.9999
G1 X-1.5860 Y-62.0687
G1 X-1.5796 Y-62.1584
G1 X-1.5682 Y-62.2473
G1 X-1.5517 Y-62.3357
G1 X-1.5301 Y-62.4228
G1 X-1.5037 Y-62.5086
G1 X-1.4727 Y-62.5930
G1 X-1.4366 Y-62.6753
G1 X-1.4186 Y-62.7111
G1 X-1.4166 Y-62.7258
G1 X-1.3889 Y-62.9158
G1 X-1.3592 Y-63.1048
G1 X-1.3277 Y-63.2912
G1 X-1.2936 Y-63.4789
G1 X-1.2578 Y-63.6643
G1 X-1.2195 Y-63.8505
G1 X-1.1793 Y-64.0342
G1 X-1.1366 Y-64.2193
G1 X-1.0925 Y-64.4014
G1 X-1.0462 Y-64.5831
G1 X-0.9970 Y-64.7659
G1 X-0.9464 Y-64.9463
G1 X-0.8941 Y-65.1246
G1 X-0.8395 Y-65.3034
G1 X-0.7828 Y-65.4809
G1 X-0.7242 Y-65.6580
G1 X-0.6637 Y-65.8335
G1 X-0.6022 Y-66.0060
G1 X-0.5367 Y-66.1827
G1 X-0.4704 Y-66.3557
G1 X-0.4026 Y-66.5262
G1 X-0.3325 Y-66.6971
G1 X-0.2601 Y-66.8680
G1 X-0.1867 Y-67.0357
G1 X-0.1107 Y-67.2038
G1 X-0.0333 Y-67.3702
G1 X0.0462 Y-67.5361
G1 X0.1267 Y-67.6991
G1 X0.2108 Y-67.8647
G1 X0.2954 Y-68.0265
G1 X0.3810 Y-68.1863
G1 X0.4694 Y-68.3468
G1 X0.5603 Y-68.5068
G1 X0.6520 Y-68.6643
G1 X0.7440 Y-68.8185
G1 X0.8400 Y-68.9755
G1 X0.9368 Y-69.1294
G1 X1.0361 Y-69.2831
G1 X1.1361 Y-69.4347
G1 X1.2365 Y-69.5833
G1 X1.3419 Y-69.7352
G1 X1.4458 Y-69.8815
G1 X1.5532 Y-70.0291
G1 X1.6601 Y-70.1728
G1 X1.7709 Y-70.3181
G1 X1.8832 Y-70.4619
G1 X1.9949 Y-70.6018
G1 X2.1105 Y-70.7431
G1 X2.2250 Y-70.8805
G1 X2.3434 Y-71.0187
G1 X2.4623 Y-71.1548
G1 X2.5827 Y-71.2892
G1 X2.7043 Y-71.4223
G1 X2.8291 Y-71.5554
G1 X2.9522 Y-71.6844
G1 X3.0797 Y-71.8144
G1 X3.2073 Y-71.9419
G1 X3.3363 Y-72.0679
G1 X3.4666 Y-72.1926
G1 X3.5982 Y-72.3156
G1 X3.7328 Y-72.4383
G1 X3.8659 Y-72.5574
G1 X4.0030 Y-72.6770
G1 X4.1389 Y-72.7931
G1 X4.2802 Y-72.9107
G1 X4.4171 Y-73.0227
G1 X4.5593 Y-73.1363
G1 X4.7033 Y-73.2483
G1 X4.8440 Y-73.3555
G1 X4.9919 Y-73.4654
G1 X5.1364 Y-73.5706
G1 X5.2850 Y-73.6760
G1 X5.4308 Y-73.7771
G1 X5.5834 Y-73.8805
G1 X5.7328 Y-73.9790
G1 X5.8880 Y-74.0788
G1 X6.0383 Y-74.1733
G1 X6.1938 Y-74.2688
G1 X6.3482 Y-74.3610
G1 X6.5065 Y-74.4532
G1 X6.6624 Y-74.5419
G1 X6.8229 Y-74.6305
G1 X6.9827 Y-74.7164
G1 X7.1437 Y-74.8007
G1 X7.3063 Y-74.8835
G1 X7.4691 Y-74.9640
G1 X7.6330 Y-75.0428
G1 X7.7988 Y-75.1200
G1 X7.9634 Y-75.1947
G1 X8.1298 Y-75.2681
G1 X8.3015 Y-75.3412
G1 X8.4679 Y-75.4098
G1 X8.6383 Y-75.4779
G1 X8.8087 Y-75.5437
G1 X8.9817 Y-75.6084
G1 X9.1539 Y-75.6704
G1 X9.3287 Y-75.7309
G1 X9.5011 Y-75.7885
G1 X9.6766 Y-75.8452
G1 X9.8552 Y-75.9000
G1 X10.0300 Y-75.9521
G1 X10.2078 Y-76.0026
G1 X10.3886 Y-76.0514
G1 X10.5649 Y-76.0974
G1 X10.7472 Y-76.1421
G1 X10.9278 Y-76.1845
G1 X11.1092 Y-76.2249
G1 X11.2928 Y-76.2632
G1 X11.4750 Y-76.2993
G1 X11.6581 Y-76.3333
G1 X11.8417 Y-76.3654
G1 X12.0305 Y-76.3958
G1 X12.2123 Y-76.4233
G1 X12.4003 Y-76.4492
G1 X12.5882 Y-76.4728
G1 X12.7767 Y-76.4941
G1 X12.9631 Y-76.5132
G1 X13.1529 Y-76.5302
G1 X13.3403 Y-76.5452
G1 X13.5331 Y-76.5579
G1 X13.7213 Y-76.5683
G1 X13.9151 Y-76.5764
G1 X14.1044 Y-76.5823
G1 X14.2964 Y-76.5861
G1 X14.4887 Y-76.5876
G1 X14.6835 Y-76.5866
G1 X14.8755 Y-76.5833
G1 X15.0696 Y-76.5774
G1 X15.2585 Y-76.5698
G1 X15.4493 Y-76.5597
G1 X15.6398 Y-76.5475
G1 X15.8295 Y-76.5327
G1 X16.0167 Y-76.5165
G1 X16.2082 Y-76.4972
G1 X16.3944 Y-76.4764
G1 X16.5801 Y-76.4535
G1 X16.7701 Y-76.4276
G1 X16.9525 Y-76.4009
G1 X17.1412 Y-76.3704
G1 X17.3248 Y-76.3389
G1 X17.5077 Y-76.3054
G1 X17.6926 Y-76.2691
G1 X17.8742 Y-76.2315
G1 X18.0556 Y-76.1916
G1 X18.2385 Y-76.1489
G1 X18.4180 Y-76.1050
G1 X18.5974 Y-76.0590
G1 X18.7762 Y-76.0108
G1 X18.9540 Y-75.9607
G1 X19.1328 Y-75.9079
G1 X19.3076 Y-75.8543
G1 X19.4828 Y-75.7987
G1 X19.6583 Y-75.7403
G1 X19.8338 Y-75.6796
G1 X20.0055 Y-75.6181
G1 X20.1757 Y-75.5551
G1 X20.3495 Y-75.4883
G1 X20.5181 Y-75.4212
G1 X20.6886 Y-75.3511
G1 X20.8554 Y-75.2808
G1 X21.0233 Y-75.2074
G1 X21.1912 Y-75.1314
G1 X21.3553 Y-75.0552
G1 X21.5212 Y-74.9757
G1 X21.6840 Y-74.8955
G1 X21.8450 Y-74.8139
G1 X22.0078 Y-74.7288
G1 X22.1658 Y-74.6442
G1 X22.3276 Y-74.5551
G1 X22.4838 Y-74.4670
G1 X22.6405 Y-74.3763
G1 X22.7990 Y-74.2815
G1 X22.9527 Y-74.1878
G1 X23.1043 Y-74.0928
G1 X23.2585 Y-73.9938
G1 X23.4081 Y-73.8957
G1 X23.5610 Y-73.7923
G1 X23.7081 Y-73.6907
G1 X23.8559 Y-73.5863
G1 X24.0025 Y-73.4802
G1 X24.1488 Y-73.3715
G1 X24.2913 Y-73.2635
G1 X24.4340 Y-73.1525
G1 X24.5753 Y-73.0405
G1 X24.7165 Y-72.9254
G1 X24.8539 Y-72.8111
G1 X24.9928 Y-72.6930
G1 X25.1300 Y-72.5734
G1 X25.2621 Y-72.4558
G1 X25.3970 Y-72.3331
G1 X25.5303 Y-72.2089
G1 X25.6596 Y-72.0857
G1 X25.7899 Y-71.9587
G1 X25.9179 Y-71.8312
G1 X26.0441 Y-71.7024
G1 X26.1691 Y-71.5724
G1 X26.2926 Y-71.4408
G1 X26.4147 Y-71.3077
G1 X26.5364 Y-71.1721
G1 X26.6545 Y-71.0377
G1 X26.7744 Y-70.8978
G1 X26.8882 Y-70.7621
G1 X27.0038 Y-70.6211
G1 X27.1170 Y-70.4802
G1 X27.2296 Y-70.3362
G1 X27.3393 Y-70.1924
G1 X27.4475 Y-70.0476
G1 X27.5552 Y-69.8998
G1 X27.6593 Y-69.7535
G1 X27.7632 Y-69.6046
G1 X27.8658 Y-69.4533
G1 X27.9662 Y-69.3019
G1 X28.0655 Y-69.1479
G1 X28.1625 Y-68.9940
G1 X28.2567 Y-68.8409
G1 X28.3515 Y-68.6829
G1 X28.4432 Y-68.5259
G1 X28.5339 Y-68.3661
G1 X28.6222 Y-68.2066
G1 X28.7091 Y-68.0453
G1 X28.7942 Y-67.8825
G1 X28.8768 Y-67.7207
G1 X28.9585 Y-67.5559
G1 X29.0383 Y-67.3900
G1 X29.1158 Y-67.2244
G1 X29.1922 Y-67.0555
G1 X29.2666 Y-66.8856
G1 X29.3383 Y-66.7177
G1 X29.4089 Y-66.5457
G1 X29.4770 Y-66.3750
G1 X29.5438 Y-66.2023
G1 X29.6083 Y-66.0286
G1 X29.6713 Y-65.8531
G1 X29.7322 Y-65.6765
G1 X29.7909 Y-65.5000
G1 X29.8475 Y-65.3227
G1 X29.9021 Y-65.1457
G1 X29.9552 Y-64.9653
G1 X30.0063 Y-64.7847
G1 X30.0553 Y-64.6019
G1 X30.1015 Y-64.4218
G1 X30.1465 Y-64.2379
G1 X30.1889 Y-64.0550
G1 X30.2298 Y-63.8683
G1 X30.2679 Y-63.6844
G1 X30.3040 Y-63.4992
G1 X30.3385 Y-63.3110
G1 X30.3705 Y-63.1223
G1 X30.4002 Y-62.9351
G1 X30.4282 Y-62.7454
G1 X30.4381 Y-62.6715
G1 X30.4648 Y-62.6123
G1 X30.4970 Y-62.5284
G1 X30.5247 Y-62.4429
G1 X30.5473 Y-62.3560
G1 X30.5648 Y-62.2681
G1 X30.5775 Y-62.1792
G1 X30.5852 Y-62.0895
G1 X30.5877 Y-61.9999
G1 X30.5877 Y0.0000
G1 X30.5862 Y0.0688
G1 X30.5798 Y0.1585
G1 X30.5684 Y0.2474
G1 X30.5519 Y0.3358
G1 X30.5303 Y0.4229
G1 X30.5039 Y0.5088
G1 X30.4729 Y0.5931
G1 X30.4368 Y0.6754
G1 X30.3964 Y0.7554
G1 X30.3515 Y0.8331
G1 X30.3022 Y0.9083
G1 X30.2489 Y0.9804
G1 X30.1915 Y1.0495
G1 X30.1300 Y1.1151
G1 X30.0652 Y1.1773
G1 X29.9969 Y1.2355
G1 X29.9255 Y1.2898
G1 X29.8511 Y1.3401
G1 X29.7739 Y1.3861
G1 X29.6944 Y1.4277
G1 X29.6126 Y1.4646
G1 X29.5288 Y1.4968
G1 X29.4432 Y1.5245
G1 X29.3563 Y1.5471
G1 X29.2684 Y1.5646
G1 X29.1795 Y1.5773
G1 X29.0899 Y1.5850
G1 X29.0002 Y1.5875
; Rapid to initial position
G1 X29.0002 Y1.5875 F2540
G1 Z-2.0000
; plunge
G1 Z-3.0000 F127
; cut
G1 X0.0000 Y1.5875 F200
G1 X-0.0688 Y1.5860
G1 X-0.1585 Y1.5796
G1 X-0.2474 Y1.5682
G1 X-0.3358 Y1.5517
G1 X-0.4229 Y1.5301
G1 X-0.5088 Y1.5037
G1 X-0.5931 Y1.4727
G1 X-0.6754 Y1.4366
G1 X-0.7554 Y1.3962
G1 X-0.8331 Y1.3513
G1 X-0.9083 Y1.3020
G1 X-0.9804 Y1.2487
G1 X-1.0495 Y1.1913
G1 X-1.1151 Y1.1298
G1 X-1.1773 Y1.0650
G1 X-1.2355 Y0.9967
G1 X-1.2898 Y0.9253
G1 X-1.3401 Y0.8509
G1 X-1.3861 Y0.7737
G1 X-1.4277 Y0.6942
G1 X-1.4646 Y0.6124
G1 X-1.4968 Y0.5286
G1 X-1.5245 Y0.4430
G1 X-1.5471 Y0.3561
G1 X-1.5646 Y0.2682
G1 X-1.5773 Y0.1793
G1 X-1.5850 Y0.0897
G1 X-1.5875 Y0.0000
G1 X-1.5875 Y-61.9999
G1 X-1.5860 Y-62.0687
G1 X-1.5796 Y-62.1584
G1 X-1.5682 Y-62.2473
G1 X-1.5517 Y-62.3357
G1 X-1.5301 Y-62.4228
G1 X-1.5037 Y-62.5086
G1 X-1.4727 Y-62.5930
G1 X-1.4366 Y-62.6753
G1 X-1.4186 Y-62.7111
G1 X-1.4166 Y-62.7258
G1 X-1.3889 Y-62.9158
G1 X-1.3592 Y-63.1048
G1 X-1.3277 Y-63.2912
G1 X-1.2936 Y-63.4789
G1 X-1.2578 Y-63.6643
G1 X-1.2195 Y-63.8505
G1 X-1.1793 Y-64.0342
G1 X-1.1366 Y-64.2193
G1 X-1.0925 Y-64.4014
G1 X-1.0462 Y-64.5831
G1 X-0.9970 Y-64.7659
G1 X-0.9464 Y-64.9463
G1 X-0.8941 Y-65.1246
G1 X-0.8395 Y-65.3034
G1 X-0.7828 Y-65.4809
G1 X-0.7242 Y-65.6580
G1 X-0.6637 Y-65.8335
G1 X-0.6022 Y-66.0060
G1 X-0.5367 Y-66.1827
G1 X-0.4704 Y-66.3557
G1 X-0.4026 Y-66.5262
G1 X-0.3325 Y-66.6971
G1 X-0.2601 Y-66.8680
G1 X-0.1867 Y-67.0357
G1 X-0.1107 Y-67.2038
G1 X-0.0333 Y-67.3702
G1 X0.0462 Y-67.5361
G1 X0.1267 Y-67.6991
G1 X0.2108 Y-67.8647
G1 X0.2954 Y-68.0265
G1 X0.3810 Y-68.1863
G1 X0.4694 Y-68.3468
G1 X0.5603 Y-68.5068
G1 X0.6520 Y-68.6643
G1 X0.7440 Y-68.8185
G1 X0.8400 Y-68.9755
G1 X0.9368 Y-69.1294
G1 X1.0361 Y-69.2831
G1 X1.1361 Y-69.4347
G1 X1.2365 Y-69.5833
G1 X1.3419 Y-69.7352
G1 X1.4458 Y-69.8815
G1 X1.5532 Y-70.0291
G1 X1.6601 Y-70.1728
G1 X1.7709 Y-70.3181
G1 X1.8832 Y-70.4619
G1 X1.9949 Y-70.6018
G1 X2.1105 Y-70.7431
G1 X2.2250 Y-70.8805
G1 X2.3434 Y-71.0187
G1 X2.4623 Y-71.1548
G1 X2.5827 Y-71.2892
G1 X2.7043 Y-71.4223
G1 X2.8291 Y-71.5554
G1 X2.9522 Y-71.6844
G1 X3.0797 Y-71.8144
G1 X3.2073 Y-71.9419
G1 X3.3363 Y-72.0679
G1 X3.4666 Y-72.1926
G1 X3.5982 Y-72.3156
G1 X3.7328 Y-72.4383
G1 X3.8659 Y-72.5574
G1 X4.0030 Y-72.6770
G1 X4.1389 Y-72.7931
G1 X4.2802 Y-72.9107
G1 X4.4171 Y-73.0227
G1 X4.5593 Y-73.1363
G1 X4.7033 Y-73.2483
G1 X4.8440 Y-73.3555
G1 X4.9919 Y-73.4654
G1 X5.1364 Y-73.5706
G1 X5.2850 Y-73.6760
G1 X5.4308 Y-73.7771
G1 X5.5834 Y-73.8805
G1 X5.7328 Y-73.9790
G1 X5.8880 Y-74.0788
G1 X6.0383 Y-74.1733
G1 X6.1938 Y-74.2688
G1 X6.3482 Y-74.3610
G1 X6.5065 Y-74.4532
G1 X6.6624 Y-74.5419
G1 X6.8229 Y-74.6305
G1 X6.9827 Y-74.7164
G1 X7.1437 Y-74.8007
G1 X7.3063 Y-74.8835
G1 X7.4691 Y-74.9640
G1 X7.6330 Y-75.0428
G1 X7.7988 Y-75.1200
G1 X7.9634 Y-75.1947
G1 X8.1298 Y-75.2681
G1 X8.3015 Y-75.3412
G1 X8.4679 Y-75.4098
G1 X8.6383 Y-75.4779
G1 X8.8087 Y-75.5437
G1 X8.9817 Y-75.6084
G1 X9.1539 Y-75.6704
G1 X9.3287 Y-75.7309
G1 X9.5011 Y-75.7885
G1 X9.6766 Y-75.8452
G1 X9.8552 Y-75.9000
G1 X10.0300 Y-75.9521
G1 X10.2078 Y-76.0026
G1 X10.3886 Y-76.0514
G1 X10.5649 Y-76.0974
G1 X10.7472 Y-76.1421
G1 X10.9278 Y-76.1845
G1 X11.1092 Y-76.2249
G1 X11.2928 Y-76.2632
G1 X11.4750 Y-76.2993
G1 X11.6581 Y-76.3333
G1 X11.8417 Y-76.3654
G1 X12.0305 Y-76.3958
G1 X12.2123 Y-76.4233
G1 X12.4003 Y-76.4492
G1 X12.5882 Y-76.4728
G1 X12.7767 Y-76.4941
G1 X12.9631 Y-76.5132
G1 X13.1529 Y-76.5302
G1 X13.3403 Y-76.5452
G1 X13.5331 Y-76.5579
G1 X13.7213 Y-76.5683
G1 X13.9151 Y-76.5764
G1 X14.1044 Y-76.5823
G1 X14.2964 Y-76.5861
G1 X14.4887 Y-76.5876
G1 X14.6835 Y-76.5866
G1 X14.8755 Y-76.5833
G1 X15.0696 Y-76.5774
G1 X15.2585 Y-76.5698
G1 X15.4493 Y-76.5597
G1 X15.6398 Y-76.5475
G1 X15.8295 Y-76.5327
G1 X16.0167 Y-76.5165
G1 X16.2082 Y-76.4972
G1 X16.3944 Y-76.4764
G1 X16.5801 Y-76.4535
G1 X16.7701 Y-76.4276
G1 X16.9525 Y-76.4009
G1 X17.1412 Y-76.3704
G1 X17.3248 Y-76.3389
G1 X17.5077 Y-76.3054
G1 X17.6926 Y-76.2691
G1 X17.8742 Y-76.2315
G1 X18.0556 Y-76.1916
G1 X18.2385 Y-76.1489
G1 X18.4180 Y-76.1050
G1 X18.5974 Y-76.0590
G1 X18.7762 Y-76.0108
G1 X18.9540 Y-75.9607
G1 X19.1328 Y-75.9079
G1 X19.3076 Y-75.8543
G1 X19.4828 Y-75.7987
G1 X19.6583 Y-75.7403
G1 X19.8338 Y-75.6796
G1 X20.0055 Y-75.6181
G1 X20.1757 Y-75.5551
G1 X20.3495 Y-75.4883
G1 X20.5181 Y-75.4212
G1 X20.6886 Y-75.3511
G1 X20.8554 Y-75.2808
G1 X21.0233 Y-75.2074
G1 X21.1912 Y-75.1314
G1 X21.3553 Y-75.0552
G1 X21.5212 Y-74.9757
G1 X21.6840 Y-74.8955
G1 X21.8450 Y-74.8139
G1 X22.0078 Y-74.7288
G1 X22.1658 Y-74.6442
G1 X22.3276 Y-74.5551
G1 X22.4838 Y-74.4670
G1 X22.6405 Y-74.3763
G1 X22.7990 Y-74.2815
G1 X22.9527 Y-74.1878
G1 X23.1043 Y-74.0928
G1 X23.2585 Y-73.9938
G1 X23.4081 Y-73.8957
G1 X23.5610 Y-73.7923
G1 X23.7081 Y-73.6907
G1 X23.8559 Y-73.5863
G1 X24.0025 Y-73.4802
G1 X24.1488 Y-73.3715
G1 X24.2913 Y-73.2635
G1 X24.4340 Y-73.1525
G1 X24.5753 Y-73.0405
G1 X24.7165 Y-72.9254
G1 X24.8539 Y-72.8111
G1 X24.9928 Y-72.6930
G1 X25.1300 Y-72.5734
G1 X25.2621 Y-72.4558
G1 X25.3970 Y-72.3331
G1 X25.5303 Y-72.2089
G1 X25.6596 Y-72.0857
G1 X25.7899 Y-71.9587
G1 X25.9179 Y-71.8312
G1 X26.0441 Y-71.7024
G1 X26.1691 Y-71.5724
G1 X26.2926 Y-71.4408
G1 X26.4147 Y-71.3077
G1 X26.5364 Y-71.1721
G1 X26.6545 Y-71.0377
G1 X26.7744 Y-70.8978
G1 X26.8882 Y-70.7621
G1 X27.0038 Y-70.6211
G1 X27.1170 Y-70.4802
G1 X27.2296 Y-70.3362
G1 X27.3393 Y-70.1924
G1 X27.4475 Y-70.0476
G1 X27.5552 Y-69.8998
G1 X27.6593 Y-69.7535
G1 X27.7632 Y-69.6046
G1 X27.8658 Y-69.4533
G1 X27.9662 Y-69.3019
G1 X28.0655 Y-69.1479
G1 X28.1625 Y-68.9940
G1 X28.2567 Y-68.8409
G1 X28.3515 Y-68.6829
G1 X28.4432 Y-68.5259
G1 X28.5339 Y-68.3661
G1 X28.6222 Y-68.2066
G1 X28.7091 Y-68.0453
G1 X28.7942 Y-67.8825
G1 X28.8768 Y-67.7207
G1 X28.9585 Y-67.5559
G1 X29.0383 Y-67.3900
G1 X29.1158 Y-67.2244
G1 X29.1922 Y-67.0555
G1 X29.2666 Y-66.8856
G1 X29.3383 Y-66.7177
G1 X29.4089 Y-66.5457
G1 X29.4770 Y-66.3750
G1 X29.5438 Y-66.2023
G1 X29.6083 Y-66.0286
G1 X29.6713 Y-65.8531
G1 X29.7322 Y-65.6765
G1 X29.7909 Y-65.5000
G1 X29.8475 Y-65.3227
G1 X29.9021 Y-65.1457
G1 X29.9552 Y-64.9653
G1 X30.0063 Y-64.7847
G1 X30.0553 Y-64.6019
G1 X30.1015 Y-64.4218
G1 X30.1465 Y-64.2379
G1 X30.1889 Y-64.0550
G1 X30.2298 Y-63.8683
G1 X30.2679 Y-63.6844
G1 X30.3040 Y-63.4992
G1 X30.3385 Y-63.3110
G1 X30.3705 Y-63.1223
G1 X30.4002 Y-62.9351
G1 X30.4282 Y-62.7454
G1 X30.4381 Y-62.6715
G1 X30.4648 Y-62.6123
G1 X30.4970 Y-62.5284
G1 X30.5247 Y-62.4429
G1 X30.5473 Y-62.3560
G1 X30.5648 Y-62.2681
G1 X30.5775 Y-62.1792
G1 X30.5852 Y-62.0895
G1 X30.5877 Y-61.9999
G1 X30.5877 Y0.0000
G1 X30.5862 Y0.0688
G1 X30.5798 Y0.1585
G1 X30.5684 Y0.2474
G1 X30.5519 Y0.3358
G1 X30.5303 Y0.4229
G1 X30.5039 Y0.5088
G1 X30.4729 Y0.5931
G1 X30.4368 Y0.6754
G1 X30.3964 Y0.7554
G1 X30.3515 Y0.8331
G1 X30.3022 Y0.9083
G1 X30.2489 Y0.9804
G1 X30.1915 Y1.0495
G1 X30.1300 Y1.1151
G1 X30.0652 Y1.1773
G1 X29.9969 Y1.2355
G1 X29.9255 Y1.2898
G1 X29.8511 Y1.3401
G1 X29.7739 Y1.3861
G1 X29.6944 Y1.4277
G1 X29.6126 Y1.4646
G1 X29.5288 Y1.4968
G1 X29.4432 Y1.5245
G1 X29.3563 Y1.5471
G1 X29.2684 Y1.5646
G1 X29.1795 Y1.5773
G1 X29.0899 Y1.5850
G1 X29.0002 Y1.5875
; Rapid to initial position
G1 X29.0002 Y1.5875 F2540
G1 Z-3.0000
; plunge
G1 Z-4.0000 F127
; cut
G1 X0.0000 Y1.5875 F200
G1 X-0.0688 Y1.5860
G1 X-0.1585 Y1.5796
G1 X-0.2474 Y1.5682
G1 X-0.3358 Y1.5517
G1 X-0.4229 Y1.5301
G1 X-0.5088 Y1.5037
G1 X-0.5931 Y1.4727
G1 X-0.6754 Y1.4366
G1 X-0.7554 Y1.3962
G1 X-0.8331 Y1.3513
G1 X-0.9083 Y1.3020
G1 X-0.9804 Y1.2487
G1 X-1.0495 Y1.1913
G1 X-1.1151 Y1.1298
G1 X-1.1773 Y1.0650
G1 X-1.2355 Y0.9967
G1 X-1.2898 Y0.9253
G1 X-1.3401 Y0.8509
G1 X-1.3861 Y0.7737
G1 X-1.4277 Y0.6942
G1 X-1.4646 Y0.6124
G1 X-1.4968 Y0.5286
G1 X-1.5245 Y0.4430
G1 X-1.5471 Y0.3561
G1 X-1.5646 Y0.2682
G1 X-1.5773 Y0.1793
G1 X-1.5850 Y0.0897
G1 X-1.5875 Y0.0000
G1 X-1.5875 Y-61.9999
G1 X-1.5860 Y-62.0687
G1 X-1.5796 Y-62.1584
G1 X-1.5682 Y-62.2473
G1 X-1.5517 Y-62.3357
G1 X-1.5301 Y-62.4228
G1 X-1.5037 Y-62.5086
G1 X-1.4727 Y-62.5930
G1 X-1.4366 Y-62.6753
G1 X-1.4186 Y-62.7111
G1 X-1.4166 Y-62.7258
G1 X-1.3889 Y-62.9158
G1 X-1.3592 Y-63.1048
G1 X-1.3277 Y-63.2912
G1 X-1.2936 Y-63.4789
G1 X-1.2578 Y-63.6643
G1 X-1.2195 Y-63.8505
G1 X-1.1793 Y-64.0342
G1 X-1.1366 Y-64.2193
G1 X-1.0925 Y-64.4014
G1 X-1.0462 Y-64.5831
G1 X-0.9970 Y-64.7659
G1 X-0.9464 Y-64.9463
G1 X-0.8941 Y-65.1246
G1 X-0.8395 Y-65.3034
G1 X-0.7828 Y-65.4809
G1 X-0.7242 Y-65.6580
G1 X-0.6637 Y-65.8335
G1 X-0.6022 Y-66.0060
G1 X-0.5367 Y-66.1827
G1 X-0.4704 Y-66.3557
G1 X-0.4026 Y-66.5262
G1 X-0.3325 Y-66.6971
G1 X-0.2601 Y-66.8680
G1 X-0.1867 Y-67.0357
G1 X-0.1107 Y-67.2038
G1 X-0.0333 Y-67.3702
G1 X0.0462 Y-67.5361
G1 X0.1267 Y-67.6991
G1 X0.2108 Y-67.8647
G1 X0.2954 Y-68.0265
G1 X0.3810 Y-68.1863
G1 X0.4694 Y-68.3468
G1 X0.5603 Y-68.5068
G1 X0.6520 Y-68.6643
G1 X0.7440 Y-68.8185
G1 X0.8400 Y-68.9755
G1 X0.9368 Y-69.1294
G1 X1.0361 Y-69.2831
G1 X1.1361 Y-69.4347
G1 X1.2365 Y-69.5833
G1 X1.3419 Y-69.7352
G1 X1.4458 Y-69.8815
G1 X1.5532 Y-70.0291
G1 X1.6601 Y-70.1728
G1 X1.7709 Y-70.3181
G1 X1.8832 Y-70.4619
G1 X1.9949 Y-70.6018
G1 X2.1105 Y-70.7431
G1 X2.2250 Y-70.8805
G1 X2.3434 Y-71.0187
G1 X2.4623 Y-71.1548
G1 X2.5827 Y-71.2892
G1 X2.7043 Y-71.4223
G1 X2.8291 Y-71.5554
G1 X2.9522 Y-71.6844
G1 X3.0797 Y-71.8144
G1 X3.2073 Y-71.9419
G1 X3.3363 Y-72.0679
G1 X3.4666 Y-72.1926
G1 X3.5982 Y-72.3156
G1 X3.7328 Y-72.4383
G1 X3.8659 Y-72.5574
G1 X4.0030 Y-72.6770
G1 X4.1389 Y-72.7931
G1 X4.2802 Y-72.9107
G1 X4.4171 Y-73.0227
G1 X4.5593 Y-73.1363
G1 X4.7033 Y-73.2483
G1 X4.8440 Y-73.3555
G1 X4.9919 Y-73.4654
G1 X5.1364 Y-73.5706
G1 X5.2850 Y-73.6760
G1 X5.4308 Y-73.7771
G1 X5.5834 Y-73.8805
G1 X5.7328 Y-73.9790
G1 X5.8880 Y-74.0788
G1 X6.0383 Y-74.1733
G1 X6.1938 Y-74.2688
G1 X6.3482 Y-74.3610
G1 X6.5065 Y-74.4532
G1 X6.6624 Y-74.5419
G1 X6.8229 Y-74.6305
G1 X6.9827 Y-74.7164
G1 X7.1437 Y-74.8007
G1 X7.3063 Y-74.8835
G1 X7.4691 Y-74.9640
G1 X7.6330 Y-75.0428
G1 X7.7988 Y-75.1200
G1 X7.9634 Y-75.1947
G1 X8.1298 Y-75.2681
G1 X8.3015 Y-75.3412
G1 X8.4679 Y-75.4098
G1 X8.6383 Y-75.4779
G1 X8.8087 Y-75.5437
G1 X8.9817 Y-75.6084
G1 X9.1539 Y-75.6704
G1 X9.3287 Y-75.7309
G1 X9.5011 Y-75.7885
G1 X9.6766 Y-75.8452
G1 X9.8552 Y-75.9000
G1 X10.0300 Y-75.9521
G1 X10.2078 Y-76.0026
G1 X10.3886 Y-76.0514
G1 X10.5649 Y-76.0974
G1 X10.7472 Y-76.1421
G1 X10.9278 Y-76.1845
G1 X11.1092 Y-76.2249
G1 X11.2928 Y-76.2632
G1 X11.4750 Y-76.2993
G1 X11.6581 Y-76.3333
G1 X11.8417 Y-76.3654
G1 X12.0305 Y-76.3958
G1 X12.2123 Y-76.4233
G1 X12.4003 Y-76.4492
G1 X12.5882 Y-76.4728
G1 X12.7767 Y-76.4941
G1 X12.9631 Y-76.5132
G1 X13.1529 Y-76.5302
G1 X13.3403 Y-76.5452
G1 X13.5331 Y-76.5579
G1 X13.7213 Y-76.5683
G1 X13.9151 Y-76.5764
G1 X14.1044 Y-76.5823
G1 X14.2964 Y-76.5861
G1 X14.4887 Y-76.5876
G1 X14.6835 Y-76.5866
G1 X14.8755 Y-76.5833
G1 X15.0696 Y-76.5774
G1 X15.2585 Y-76.5698
G1 X15.4493 Y-76.5597
G1 X15.6398 Y-76.5475
G1 X15.8295 Y-76.5327
G1 X16.0167 Y-76.5165
G1 X16.2082 Y-76.4972
G1 X16.3944 Y-76.4764
G1 X16.5801 Y-76.4535
G1 X16.7701 Y-76.4276
G1 X16.9525 Y-76.4009
G1 X17.1412 Y-76.3704
G1 X17.3248 Y-76.3389
G1 X17.5077 Y-76.3054
G1 X17.6926 Y-76.2691
G1 X17.8742 Y-76.2315
G1 X18.0556 Y-76.1916
G1 X18.2385 Y-76.1489
G1 X18.4180 Y-76.1050
G1 X18.5974 Y-76.0590
G1 X18.7762 Y-76.0108
G1 X18.9540 Y-75.9607
G1 X19.1328 Y-75.9079
G1 X19.3076 Y-75.8543
G1 X19.4828 Y-75.7987
G1 X19.6583 Y-75.7403
G1 X19.8338 Y-75.6796
G1 X20.0055 Y-75.6181
G1 X20.1757 Y-75.5551
G1 X20.3495 Y-75.4883
G1 X20.5181 Y-75.4212
G1 X20.6886 Y-75.3511
G1 X20.8554 Y-75.2808
G1 X21.0233 Y-75.2074
G1 X21.1912 Y-75.1314
G1 X21.3553 Y-75.0552
G1 X21.5212 Y-74.9757
G1 X21.6840 Y-74.8955
G1 X21.8450 Y-74.8139
G1 X22.0078 Y-74.7288
G1 X22.1658 Y-74.6442
G1 X22.3276 Y-74.5551
G1 X22.4838 Y-74.4670
G1 X22.6405 Y-74.3763
G1 X22.7990 Y-74.2815
G1 X22.9527 Y-74.1878
G1 X23.1043 Y-74.0928
G1 X23.2585 Y-73.9938
G1 X23.4081 Y-73.8957
G1 X23.5610 Y-73.7923
G1 X23.7081 Y-73.6907
G1 X23.8559 Y-73.5863
G1 X24.0025 Y-73.4802
G1 X24.1488 Y-73.3715
G1 X24.2913 Y-73.2635
G1 X24.4340 Y-73.1525
G1 X24.5753 Y-73.0405
G1 X24.7165 Y-72.9254
G1 X24.8539 Y-72.8111
G1 X24.9928 Y-72.6930
G1 X25.1300 Y-72.5734
G1 X25.2621 Y-72.4558
G1 X25.3970 Y-72.3331
G1 X25.5303 Y-72.2089
G1 X25.6596 Y-72.0857
G1 X25.7899 Y-71.9587
G1 X25.9179 Y-71.8312
G1 X26.0441 Y-71.7024
G1 X26.1691 Y-71.5724
G1 X26.2926 Y-71.4408
G1 X26.4147 Y-71.3077
G1 X26.5364 Y-71.1721
G1 X26.6545 Y-71.0377
G1 X26.7744 Y-70.8978
G1 X26.8882 Y-70.7621
G1 X27.0038 Y-70.6211
G1 X27.1170 Y-70.4802
G1 X27.2296 Y-70.3362
G1 X27.3393 Y-70.1924
G1 X27.4475 Y-70.0476
G1 X27.5552 Y-69.8998
G1 X27.6593 Y-69.7535
G1 X27.7632 Y-69.6046
G1 X27.8658 Y-69.4533
G1 X27.9662 Y-69.3019
G1 X28.0655 Y-69.1479
G1 X28.1625 Y-68.9940
G1 X28.2567 Y-68.8409
G1 X28.3515 Y-68.6829
G1 X28.4432 Y-68.5259
G1 X28.5339 Y-68.3661
G1 X28.6222 Y-68.2066
G1 X28.7091 Y-68.0453
G1 X28.7942 Y-67.8825
G1 X28.8768 Y-67.7207
G1 X28.9585 Y-67.5559
G1 X29.0383 Y-67.3900
G1 X29.1158 Y-67.2244
G1 X29.1922 Y-67.0555
G1 X29.2666 Y-66.8856
G1 X29.3383 Y-66.7177
G1 X29.4089 Y-66.5457
G1 X29.4770 Y-66.3750
G1 X29.5438 Y-66.2023
G1 X29.6083 Y-66.0286
G1 X29.6713 Y-65.8531
G1 X29.7322 Y-65.6765
G1 X29.7909 Y-65.5000
G1 X29.8475 Y-65.3227
G1 X29.9021 Y-65.1457
G1 X29.9552 Y-64.9653
G1 X30.0063 Y-64.7847
G1 X30.0553 Y-64.6019
G1 X30.1015 Y-64.4218
G1 X30.1465 Y-64.2379
G1 X30.1889 Y-64.0550
G1 X30.2298 Y-63.8683
G1 X30.2679 Y-63.6844
G1 X30.3040 Y-63.4992
G1 X30.3385 Y-63.3110
G1 X30.3705 Y-63.1223
G1 X30.4002 Y-62.9351
G1 X30.4282 Y-62.7454
G1 X30.4381 Y-62.6715
G1 X30.4648 Y-62.6123
G1 X30.4970 Y-62.5284
G1 X30.5247 Y-62.4429
G1 X30.5473 Y-62.3560
G1 X30.5648 Y-62.2681
G1 X30.5775 Y-62.1792
G1 X30.5852 Y-62.0895
G1 X30.5877 Y-61.9999
G1 X30.5877 Y0.0000
G1 X30.5862 Y0.0688
G1 X30.5798 Y0.1585
G1 X30.5684 Y0.2474
G1 X30.5519 Y0.3358
G1 X30.5303 Y0.4229
G1 X30.5039 Y0.5088
G1 X30.4729 Y0.5931
G1 X30.4368 Y0.6754
G1 X30.3964 Y0.7554
G1 X30.3515 Y0.8331
G1 X30.3022 Y0.9083
G1 X30.2489 Y0.9804
G1 X30.1915 Y1.0495
G1 X30.1300 Y1.1151
G1 X30.0652 Y1.1773
G1 X29.9969 Y1.2355
G1 X29.9255 Y1.2898
G1 X29.8511 Y1.3401
G1 X29.7739 Y1.3861
G1 X29.6944 Y1.4277
G1 X29.6126 Y1.4646
G1 X29.5288 Y1.4968
G1 X29.4432 Y1.5245
G1 X29.3563 Y1.5471
G1 X29.2684 Y1.5646
G1 X29.1795 Y1.5773
G1 X29.0899 Y1.5850
G1 X29.0002 Y1.5875
; Rapid to initial position
G1 X29.0002 Y1.5875 F2540
G1 Z-4.0000
; plunge
G1 Z-5.0000 F127
; cut
G1 X0.0000 Y1.5875 F200
G1 X-0.0688 Y1.5860
G1 X-0.1585 Y1.5796
G1 X-0.2474 Y1.5682
G1 X-0.3358 Y1.5517
G1 X-0.4229 Y1.5301
G1 X-0.5088 Y1.5037
G1 X-0.5931 Y1.4727
G1 X-0.6754 Y1.4366
G1 X-0.7554 Y1.3962
G1 X-0.8331 Y1.3513
G1 X-0.9083 Y1.3020
G1 X-0.9804 Y1.2487
G1 X-1.0495 Y1.1913
G1 X-1.1151 Y1.1298
G1 X-1.1773 Y1.0650
G1 X-1.2355 Y0.9967
G1 X-1.2898 Y0.9253
G1 X-1.3401 Y0.8509
G1 X-1.3861 Y0.7737
G1 X-1.4277 Y0.6942
G1 X-1.4646 Y0.6124
G1 X-1.4968 Y0.5286
G1 X-1.5245 Y0.4430
G1 X-1.5471 Y0.3561
G1 X-1.5646 Y0.2682
G1 X-1.5773 Y0.1793
G1 X-1.5850 Y0.0897
G1 X-1.5875 Y0.0000
G1 X-1.5875 Y-61.9999
G1 X-1.5860 Y-62.0687
G1 X-1.5796 Y-62.1584
G1 X-1.5682 Y-62.2473
G1 X-1.5517 Y-62.3357
G1 X-1.5301 Y-62.4228
G1 X-1.5037 Y-62.5086
G1 X-1.4727 Y-62.5930
G1 X-1.4366 Y-62.6753
G1 X-1.4186 Y-62.7111
G1 X-1.4166 Y-62.7258
G1 X-1.3889 Y-62.9158
G1 X-1.3592 Y-63.1048
G1 X-1.3277 Y-63.2912
G1 X-1.2936 Y-63.4789
G1 X-1.2578 Y-63.6643
G1 X-1.2195 Y-63.8505
G1 X-1.1793 Y-64.0342
G1 X-1.1366 Y-64.2193
G1 X-1.0925 Y-64.4014
G1 X-1.0462 Y-64.5831
G1 X-0.9970 Y-64.7659
G1 X-0.9464 Y-64.9463
G1 X-0.8941 Y-65.1246
G1 X-0.8395 Y-65.3034
G1 X-0.7828 Y-65.4809
G1 X-0.7242 Y-65.6580
G1 X-0.6637 Y-65.8335
G1 X-0.6022 Y-66.0060
G1 X-0.5367 Y-66.1827
G1 X-0.4704 Y-66.3557
G1 X-0.4026 Y-66.5262
G1 X-0.3325 Y-66.6971
G1 X-0.2601 Y-66.8680
G1 X-0.1867 Y-67.0357
G1 X-0.1107 Y-67.2038
G1 X-0.0333 Y-67.3702
G1 X0.0462 Y-67.5361
G1 X0.1267 Y-67.6991
G1 X0.2108 Y-67.8647
G1 X0.2954 Y-68.0265
G1 X0.3810 Y-68.1863
G1 X0.4694 Y-68.3468
G1 X0.5603 Y-68.5068
G1 X0.6520 Y-68.6643
G1 X0.7440 Y-68.8185
G1 X0.8400 Y-68.9755
G1 X0.9368 Y-69.1294
G1 X1.0361 Y-69.2831
G1 X1.1361 Y-69.4347
G1 X1.2365 Y-69.5833
G1 X1.3419 Y-69.7352
G1 X1.4458 Y-69.8815
G1 X1.5532 Y-70.0291
G1 X1.6601 Y-70.1728
G1 X1.7709 Y-70.3181
G1 X1.8832 Y-70.4619
G1 X1.9949 Y-70.6018
G1 X2.1105 Y-70.7431
G1 X2.2250 Y-70.8805
G1 X2.3434 Y-71.0187
G1 X2.4623 Y-71.1548
G1 X2.5827 Y-71.2892
G1 X2.7043 Y-71.4223
G1 X2.8291 Y-71.5554
G1 X2.9522 Y-71.6844
G1 X3.0797 Y-71.8144
G1 X3.2073 Y-71.9419
G1 X3.3363 Y-72.0679
G1 X3.4666 Y-72.1926
G1 X3.5982 Y-72.3156
G1 X3.7328 Y-72.4383
G1 X3.8659 Y-72.5574
G1 X4.0030 Y-72.6770
G1 X4.1389 Y-72.7931
G1 X4.2802 Y-72.9107
G1 X4.4171 Y-73.0227
G1 X4.5593 Y-73.1363
G1 X4.7033 Y-73.2483
G1 X4.8440 Y-73.3555
G1 X4.9919 Y-73.4654
G1 X5.1364 Y-73.5706
G1 X5.2850 Y-73.6760
G1 X5.4308 Y-73.7771
G1 X5.5834 Y-73.8805
G1 X5.7328 Y-73.9790
G1 X5.8880 Y-74.0788
G1 X6.0383 Y-74.1733
G1 X6.1938 Y-74.2688
G1 X6.3482 Y-74.3610
G1 X6.5065 Y-74.4532
G1 X6.6624 Y-74.5419
G1 X6.8229 Y-74.6305
G1 X6.9827 Y-74.7164
G1 X7.1437 Y-74.8007
G1 X7.3063 Y-74.8835
G1 X7.4691 Y-74.9640
G1 X7.6330 Y-75.0428
G1 X7.7988 Y-75.1200
G1 X7.9634 Y-75.1947
G1 X8.1298 Y-75.2681
G1 X8.3015 Y-75.3412
G1 X8.4679 Y-75.4098
G1 X8.6383 Y-75.4779
G1 X8.8087 Y-75.5437
G1 X8.9817 Y-75.6084
G1 X9.1539 Y-75.6704
G1 X9.3287 Y-75.7309
G1 X9.5011 Y-75.7885
G1 X9.6766 Y-75.8452
G1 X9.8552 Y-75.9000
G1 X10.0300 Y-75.9521
G1 X10.2078 Y-76.0026
G1 X10.3886 Y-76.0514
G1 X10.5649 Y-76.0974
G1 X10.7472 Y-76.1421
G1 X10.9278 Y-76.1845
G1 X11.1092 Y-76.2249
G1 X11.2928 Y-76.2632
G1 X11.4750 Y-76.2993
G1 X11.6581 Y-76.3333
G1 X11.8417 Y-76.3654
G1 X12.0305 Y-76.3958
G1 X12.2123 Y-76.4233
G1 X12.4003 Y-76.4492
G1 X12.5882 Y-76.4728
G1 X12.7767 Y-76.4941
G1 X12.9631 Y-76.5132
G1 X13.1529 Y-76.5302
G1 X13.3403 Y-76.5452
G1 X13.5331 Y-76.5579
G1 X13.7213 Y-76.5683
G1 X13.9151 Y-76.5764
G1 X14.1044 Y-76.5823
G1 X14.2964 Y-76.5861
G1 X14.4887 Y-76.5876
G1 X14.6835 Y-76.5866
G1 X14.8755 Y-76.5833
G1 X15.0696 Y-76.5774
G1 X15.2585 Y-76.5698
G1 X15.4493 Y-76.5597
G1 X15.6398 Y-76.5475
G1 X15.8295 Y-76.5327
G1 X16.0167 Y-76.5165
G1 X16.2082 Y-76.4972
G1 X16.3944 Y-76.4764
G1 X16.5801 Y-76.4535
G1 X16.7701 Y-76.4276
G1 X16.9525 Y-76.4009
G1 X17.1412 Y-76.3704
G1 X17.3248 Y-76.3389
G1 X17.5077 Y-76.3054
G1 X17.6926 Y-76.2691
G1 X17.8742 Y-76.2315
G1 X18.0556 Y-76.1916
G1 X18.2385 Y-76.1489
G1 X18.4180 Y-76.1050
G1 X18.5974 Y-76.0590
G1 X18.7762 Y-76.0108
G1 X18.9540 Y-75.9607
G1 X19.1328 Y-75.9079
G1 X19.3076 Y-75.8543
G1 X19.4828 Y-75.7987
G1 X19.6583 Y-75.7403
G1 X19.8338 Y-75.6796
G1 X20.0055 Y-75.6181
G1 X20.1757 Y-75.5551
G1 X20.3495 Y-75.4883
G1 X20.5181 Y-75.4212
G1 X20.6886 Y-75.3511
G1 X20.8554 Y-75.2808
G1 X21.0233 Y-75.2074
G1 X21.1912 Y-75.1314
G1 X21.3553 Y-75.0552
G1 X21.5212 Y-74.9757
G1 X21.6840 Y-74.8955
G1 X21.8450 Y-74.8139
G1 X22.0078 Y-74.7288
G1 X22.1658 Y-74.6442
G1 X22.3276 Y-74.5551
G1 X22.4838 Y-74.4670
G1 X22.6405 Y-74.3763
G1 X22.7990 Y-74.2815
G1 X22.9527 Y-74.1878
G1 X23.1043 Y-74.0928
G1 X23.2585 Y-73.9938
G1 X23.4081 Y-73.8957
G1 X23.5610 Y-73.7923
G1 X23.7081 Y-73.6907
G1 X23.8559 Y-73.5863
G1 X24.0025 Y-73.4802
G1 X24.1488 Y-73.3715
G1 X24.2913 Y-73.2635
G1 X24.4340 Y-73.1525
G1 X24.5753 Y-73.0405
G1 X24.7165 Y-72.9254
G1 X24.8539 Y-72.8111
G1 X24.9928 Y-72.6930
G1 X25.1300 Y-72.5734
G1 X25.2621 Y-72.4558
G1 X25.3970 Y-72.3331
G1 X25.5303 Y-72.2089
G1 X25.6596 Y-72.0857
G1 X25.7899 Y-71.9587
G1 X25.9179 Y-71.8312
G1 X26.0441 Y-71.7024
G1 X26.1691 Y-71.5724
G1 X26.2926 Y-71.4408
G1 X26.4147 Y-71.3077
G1 X26.5364 Y-71.1721
G1 X26.6545 Y-71.0377
G1 X26.7744 Y-70.8978
G1 X26.8882 Y-70.7621
G1 X27.0038 Y-70.6211
G1 X27.1170 Y-70.4802
G1 X27.2296 Y-70.3362
G1 X27.3393 Y-70.1924
G1 X27.4475 Y-70.0476
G1 X27.5552 Y-69.8998
G1 X27.6593 Y-69.7535
G1 X27.7632 Y-69.6046
G1 X27.8658 Y-69.4533
G1 X27.9662 Y-69.3019
G1 X28.0655 Y-69.1479
G1 X28.1625 Y-68.9940
G1 X28.2567 Y-68.8409
G1 X28.3515 Y-68.6829
G1 X28.4432 Y-68.5259
G1 X28.5339 Y-68.3661
G1 X28.6222 Y-68.2066
G1 X28.7091 Y-68.0453
G1 X28.7942 Y-67.8825
G1 X28.8768 Y-67.7207
G1 X28.9585 Y-67.5559
G1 X29.0383 Y-67.3900
G1 X29.1158 Y-67.2244
G1 X29.1922 Y-67.0555
G1 X29.2666 Y-66.8856
G1 X29.3383 Y-66.7177
G1 X29.4089 Y-66.5457
G1 X29.4770 Y-66.3750
G1 X29.5438 Y-66.2023
G1 X29.6083 Y-66.0286
G1 X29.6713 Y-65.8531
G1 X29.7322 Y-65.6765
G1 X29.7909 Y-65.5000
G1 X29.8475 Y-65.3227
G1 X29.9021 Y-65.1457
G1 X29.9552 Y-64.9653
G1 X30.0063 Y-64.7847
G1 X30.0553 Y-64.6019
G1 X30.1015 Y-64.4218
G1 X30.1465 Y-64.2379
G1 X30.1889 Y-64.0550
G1 X30.2298 Y-63.8683
G1 X30.2679 Y-63.6844
G1 X30.3040 Y-63.4992
G1 X30.3385 Y-63.3110
G1 X30.3705 Y-63.1223
G1 X30.4002 Y-62.9351
G1 X30.4282 Y-62.7454
G1 X30.4381 Y-62.6715
G1 X30.4648 Y-62.6123
G1 X30.4970 Y-62.5284
G1 X30.5247 Y-62.4429
G1 X30.5473 Y-62.3560
G1 X30.5648 Y-62.2681
G1 X30.5775 Y-62.1792
G1 X30.5852 Y-62.0895
G1 X30.5877 Y-61.9999
G1 X30.5877 Y0.0000
G1 X30.5862 Y0.0688
G1 X30.5798 Y0.1585
G1 X30.5684 Y0.2474
G1 X30.5519 Y0.3358
G1 X30.5303 Y0.4229
G1 X30.5039 Y0.5088
G1 X30.4729 Y0.5931
G1 X30.4368 Y0.6754
G1 X30.3964 Y0.7554
G1 X30.3515 Y0.8331
G1 X30.3022 Y0.9083
G1 X30.2489 Y0.9804
G1 X30.1915 Y1.0495
G1 X30.1300 Y1.1151
G1 X30.0652 Y1.1773
G1 X29.9969 Y1.2355
G1 X29.9255 Y1.2898
G1 X29.8511 Y1.3401
G1 X29.7739 Y1.3861
G1 X29.6944 Y1.4277
G1 X29.6126 Y1.4646
G1 X29.5288 Y1.4968
G1 X29.4432 Y1.5245
G1 X29.3563 Y1.5471
G1 X29.2684 Y1.5646
G1 X29.1795 Y1.5773
G1 X29.0899 Y1.5850
G1 X29.0002 Y1.5875
; Rapid to initial position
G1 X29.0002 Y1.5875 F2540
G1 Z-5.0000
; plunge
G1 Z-5.0000 F127
; cut
G1 X0.0000 Y1.5875 F200
G1 X-0.0688 Y1.5860
G1 X-0.1585 Y1.5796
G1 X-0.2474 Y1.5682
G1 X-0.3358 Y1.5517
G1 X-0.4229 Y1.5301
G1 X-0.5088 Y1.5037
G1 X-0.5931 Y1.4727
G1 X-0.6754 Y1.4366
G1 X-0.7554 Y1.3962
G1 X-0.8331 Y1.3513
G1 X-0.9083 Y1.3020
G1 X-0.9804 Y1.2487
G1 X-1.0495 Y1.1913
G1 X-1.1151 Y1.1298
G1 X-1.1773 Y1.0650
G1 X-1.2355 Y0.9967
G1 X-1.2898 Y0.9253
G1 X-1.3401 Y0.8509
G1 X-1.3861 Y0.7737
G1 X-1.4277 Y0.6942
G1 X-1.4646 Y0.6124
G1 X-1.4968 Y0.5286
G1 X-1.5245 Y0.4430
G1 X-1.5471 Y0.3561
G1 X-1.5646 Y0.2682
G1 X-1.5773 Y0.1793
G1 X-1.5850 Y0.0897
G1 X-1.5875 Y0.0000
G1 X-1.5875 Y-61.9999
G1 X-1.5860 Y-62.0687
G1 X-1.5796 Y-62.1584
G1 X-1.5682 Y-62.2473
G1 X-1.5517 Y-62.3357
G1 X-1.5301 Y-62.4228
G1 X-1.5037 Y-62.5086
G1 X-1.4727 Y-62.5930
G1 X-1.4366 Y-62.6753
G1 X-1.4186 Y-62.7111
G1 X-1.4166 Y-62.7258
G1 X-1.3889 Y-62.9158
G1 X-1.3592 Y-63.1048
G1 X-1.3277 Y-63.2912
G1 X-1.2936 Y-63.4789
G1 X-1.2578 Y-63.6643
G1 X-1.2195 Y-63.8505
G1 X-1.1793 Y-64.0342
G1 X-1.1366 Y-64.2193
G1 X-1.0925 Y-64.4014
G1 X-1.0462 Y-64.5831
G1 X-0.9970 Y-64.7659
G1 X-0.9464 Y-64.9463
G1 X-0.8941 Y-65.1246
G1 X-0.8395 Y-65.3034
G1 X-0.7828 Y-65.4809
G1 X-0.7242 Y-65.6580
G1 X-0.6637 Y-65.8335
G1 X-0.6022 Y-66.0060
G1 X-0.5367 Y-66.1827
G1 X-0.4704 Y-66.3557
G1 X-0.4026 Y-66.5262
G1 X-0.3325 Y-66.6971
G1 X-0.2601 Y-66.8680
G1 X-0.1867 Y-67.0357
G1 X-0.1107 Y-67.2038
G1 X-0.0333 Y-67.3702
G1 X0.0462 Y-67.5361
G1 X0.1267 Y-67.6991
G1 X0.2108 Y-67.8647
G1 X0.2954 Y-68.0265
G1 X0.3810 Y-68.1863
G1 X0.4694 Y-68.3468
G1 X0.5603 Y-68.5068
G1 X0.6520 Y-68.6643
G1 X0.7440 Y-68.8185
G1 X0.8400 Y-68.9755
G1 X0.9368 Y-69.1294
G1 X1.0361 Y-69.2831
G1 X1.1361 Y-69.4347
G1 X1.2365 Y-69.5833
G1 X1.3419 Y-69.7352
G1 X1.4458 Y-69.8815
G1 X1.5532 Y-70.0291
G1 X1.6601 Y-70.1728
G1 X1.7709 Y-70.3181
G1 X1.8832 Y-70.4619
G1 X1.9949 Y-70.6018
G1 X2.1105 Y-70.7431
G1 X2.2250 Y-70.8805
G1 X2.3434 Y-71.0187
G1 X2.4623 Y-71.1548
G1 X2.5827 Y-71.2892
G1 X2.7043 Y-71.4223
G1 X2.8291 Y-71.5554
G1 X2.9522 Y-71.6844
G1 X3.0797 Y-71.8144
G1 X3.2073 Y-71.9419
G1 X3.3363 Y-72.0679
G1 X3.4666 Y-72.1926
G1 X3.5982 Y-72.3156
G1 X3.7328 Y-72.4383
G1 X3.8659 Y-72.5574
G1 X4.0030 Y-72.6770
G1 X4.1389 Y-72.7931
G1 X4.2802 Y-72.9107
G1 X4.4171 Y-73.0227
G1 X4.5593 Y-73.1363
G1 X4.7033 Y-73.2483
G1 X4.8440 Y-73.3555
G1 X4.9919 Y-73.4654
G1 X5.1364 Y-73.5706
G1 X5.2850 Y-73.6760
G1 X5.4308 Y-73.7771
G1 X5.5834 Y-73.8805
G1 X5.7328 Y-73.9790
G1 X5.8880 Y-74.0788
G1 X6.0383 Y-74.1733
G1 X6.1938 Y-74.2688
G1 X6.3482 Y-74.3610
G1 X6.5065 Y-74.4532
G1 X6.6624 Y-74.5419
G1 X6.8229 Y-74.6305
G1 X6.9827 Y-74.7164
G1 X7.1437 Y-74.8007
G1 X7.3063 Y-74.8835
G1 X7.4691 Y-74.9640
G1 X7.6330 Y-75.0428
G1 X7.7988 Y-75.1200
G1 X7.9634 Y-75.1947
G1 X8.1298 Y-75.2681
G1 X8.3015 Y-75.3412
G1 X8.4679 Y-75.4098
G1 X8.6383 Y-75.4779
G1 X8.8087 Y-75.5437
G1 X8.9817 Y-75.6084
G1 X9.1539 Y-75.6704
G1 X9.3287 Y-75.7309
G1 X9.5011 Y-75.7885
G1 X9.6766 Y-75.8452
G1 X9.8552 Y-75.9000
G1 X10.0300 Y-75.9521
G1 X10.2078 Y-76.0026
G1 X10.3886 Y-76.0514
G1 X10.5649 Y-76.0974
G1 X10.7472 Y-76.1421
G1 X10.9278 Y-76.1845
G1 X11.1092 Y-76.2249
G1 X11.2928 Y-76.2632
G1 X11.4750 Y-76.2993
G1 X11.6581 Y-76.3333
G1 X11.8417 Y-76.3654
G1 X12.0305 Y-76.3958
G1 X12.2123 Y-76.4233
G1 X12.4003 Y-76.4492
G1 X12.5882 Y-76.4728
G1 X12.7767 Y-76.4941
G1 X12.9631 Y-76.5132
G1 X13.1529 Y-76.5302
G1 X13.3403 Y-76.5452
G1 X13.5331 Y-76.5579
G1 X13.7213 Y-76.5683
G1 X13.9151 Y-76.5764
G1 X14.1044 Y-76.5823
G1 X14.2964 Y-76.5861
G1 X14.4887 Y-76.5876
G1 X14.6835 Y-76.5866
G1 X14.8755 Y-76.5833
G1 X15.0696 Y-76.5774
G1 X15.2585 Y-76.5698
G1 X15.4493 Y-76.5597
G1 X15.6398 Y-76.5475
G1 X15.8295 Y-76.5327
G1 X16.0167 Y-76.5165
G1 X16.2082 Y-76.4972
G1 X16.3944 Y-76.4764
G1 X16.5801 Y-76.4535
G1 X16.7701 Y-76.4276
G1 X16.9525 Y-76.4009
G1 X17.1412 Y-76.3704
G1 X17.3248 Y-76.3389
G1 X17.5077 Y-76.3054
G1 X17.6926 Y-76.2691
G1 X17.8742 Y-76.2315
G1 X18.0556 Y-76.1916
G1 X18.2385 Y-76.1489
G1 X18.4180 Y-76.1050
G1 X18.5974 Y-76.0590
G1 X18.7762 Y-76.0108
G1 X18.9540 Y-75.9607
G1 X19.1328 Y-75.9079
G1 X19.3076 Y-75.8543
G1 X19.4828 Y-75.7987
G1 X19.6583 Y-75.7403
G1 X19.8338 Y-75.6796
G1 X20.0055 Y-75.6181
G1 X20.1757 Y-75.5551
G1 X20.3495 Y-75.4883
G1 X20.5181 Y-75.4212
G1 X20.6886 Y-75.3511
G1 X20.8554 Y-75.2808
G1 X21.0233 Y-75.2074
G1 X21.1912 Y-75.1314
G1 X21.3553 Y-75.0552
G1 X21.5212 Y-74.9757
G1 X21.6840 Y-74.8955
G1 X21.8450 Y-74.8139
G1 X22.0078 Y-74.7288
G1 X22.1658 Y-74.6442
G1 X22.3276 Y-74.5551
G1 X22.4838 Y-74.4670
G1 X22.6405 Y-74.3763
G1 X22.7990 Y-74.2815
G1 X22.9527 Y-74.1878
G1 X23.1043 Y-74.0928
G1 X23.2585 Y-73.9938
G1 X23.4081 Y-73.8957
G1 X23.5610 Y-73.7923
G1 X23.7081 Y-73.6907
G1 X23.8559 Y-73.5863
G1 X24.0025 Y-73.4802
G1 X24.1488 Y-73.3715
G1 X24.2913 Y-73.2635
G1 X24.4340 Y-73.1525
G1 X24.5753 Y-73.0405
G1 X24.7165 Y-72.9254
G1 X24.8539 Y-72.8111
G1 X24.9928 Y-72.6930
G1 X25.1300 Y-72.5734
G1 X25.2621 Y-72.4558
G1 X25.3970 Y-72.3331
G1 X25.5303 Y-72.2089
G1 X25.6596 Y-72.0857
G1 X25.7899 Y-71.9587
G1 X25.9179 Y-71.8312
G1 X26.0441 Y-71.7024
G1 X26.1691 Y-71.5724
G1 X26.2926 Y-71.4408
G1 X26.4147 Y-71.3077
G1 X26.5364 Y-71.1721
G1 X26.6545 Y-71.0377
G1 X26.7744 Y-70.8978
G1 X26.8882 Y-70.7621
G1 X27.0038 Y-70.6211
G1 X27.1170 Y-70.4802
G1 X27.2296 Y-70.3362
G1 X27.3393 Y-70.1924
G1 X27.4475 Y-70.0476
G1 X27.5552 Y-69.8998
G1 X27.6593 Y-69.7535
G1 X27.7632 Y-69.6046
G1 X27.8658 Y-69.4533
G1 X27.9662 Y-69.3019
G1 X28.0655 Y-69.1479
G1 X28.1625 Y-68.9940
G1 X28.2567 Y-68.8409
G1 X28.3515 Y-68.6829
G1 X28.4432 Y-68.5259
G1 X28.5339 Y-68.3661
G1 X28.6222 Y-68.2066
G1 X28.7091 Y-68.0453
G1 X28.7942 Y-67.8825
G1 X28.8768 Y-67.7207
G1 X28.9585 Y-67.5559
G1 X29.0383 Y-67.3900
G1 X29.1158 Y-67.2244
G1 X29.1922 Y-67.0555
G1 X29.2666 Y-66.8856
G1 X29.3383 Y-66.7177
G1 X29.4089 Y-66.5457
G1 X29.4770 Y-66.3750
G1 X29.5438 Y-66.2023
G1 X29.6083 Y-66.0286
G1 X29.6713 Y-65.8531
G1 X29.7322 Y-65.6765
G1 X29.7909 Y-65.5000
G1 X29.8475 Y-65.3227
G1 X29.9021 Y-65.1457
G1 X29.9552 Y-64.9653
G1 X30.0063 Y-64.7847
G1 X30.0553 Y-64.6019
G1 X30.1015 Y-64.4218
G1 X30.1465 Y-64.2379
G1 X30.1889 Y-64.0550
G1 X30.2298 Y-63.8683
G1 X30.2679 Y-63.6844
G1 X30.3040 Y-63.4992
G1 X30.3385 Y-63.3110
G1 X30.3705 Y-63.1223
G1 X30.4002 Y-62.9351
G1 X30.4282 Y-62.7454
G1 X30.4381 Y-62.6715
G1 X30.4648 Y-62.6123
G1 X30.4970 Y-62.5284
G1 X30.5247 Y-62.4429
G1 X30.5473 Y-62.3560
G1 X30.5648 Y-62.2681
G1 X30.5775 Y-62.1792
G1 X30.5852 Y-62.0895
G1 X30.5877 Y-61.9999
G1 X30.5877 Y0.0000
G1 X30.5862 Y0.0688
G1 X30.5798 Y0.1585
G1 X30.5684 Y0.2474
G1 X30.5519 Y0.3358
G1 X30.5303 Y0.4229
G1 X30.5039 Y0.5088
G1 X30.4729 Y0.5931
G1 X30.4368 Y0.6754
G1 X30.3964 Y0.7554
G1 X30.3515 Y0.8331
G1 X30.3022 Y0.9083
G1 X30.2489 Y0.9804
G1 X30.1915 Y1.0495
G1 X30.1300 Y1.1151
G1 X30.0652 Y1.1773
G1 X29.9969 Y1.2355
G1 X29.9255 Y1.2898
G1 X29.8511 Y1.3401
G1 X29.7739 Y1.3861
G1 X29.6944 Y1.4277
G1 X29.6126 Y1.4646
G1 X29.5288 Y1.4968
G1 X29.4432 Y1.5245
G1 X29.3563 Y1.5471
G1 X29.2684 Y1.5646
G1 X29.1795 Y1.5773
G1 X29.0899 Y1.5850
G1 X29.0002 Y1.5875
; Retract
G1 Z1.0000 F2540
M2
