   1               		.file	"i2c.c"
   2               	__SP_H__ = 0x3e
   3               	__SP_L__ = 0x3d
   4               	__SREG__ = 0x3f
   5               	__tmp_reg__ = 0
   6               	__zero_reg__ = 1
   7               		.text
   8               	.Ltext0:
   9               		.cfi_sections	.debug_frame
  10               	.global	I2C_WriteBit
  12               	I2C_WriteBit:
  13               	.LFB6:
  14               		.file 1 "i2c.c"
   1:i2c.c         **** 
   2:i2c.c         **** #include "i2c.h"
   3:i2c.c         **** 
   4:i2c.c         **** #define I2C_DATA_HI()\
   5:i2c.c         **** I2C_DDR &= ~ (1 << I2C_DAT);\
   6:i2c.c         **** I2C_PORT |= (1 << I2C_DAT);
   7:i2c.c         **** #define I2C_DATA_LO()\
   8:i2c.c         **** I2C_DDR |= (1 << I2C_DAT);\
   9:i2c.c         **** I2C_PORT &= ~ (1 << I2C_DAT);
  10:i2c.c         **** 
  11:i2c.c         **** #define I2C_CLOCK_HI()\
  12:i2c.c         **** I2C_DDR &= ~ (1 << I2C_CLK);\
  13:i2c.c         **** I2C_PORT |= (1 << I2C_CLK);
  14:i2c.c         **** #define I2C_CLOCK_LO()\
  15:i2c.c         **** I2C_DDR |= (1 << I2C_CLK);\
  16:i2c.c         **** I2C_PORT &= ~ (1 << I2C_CLK);
  17:i2c.c         **** 
  18:i2c.c         **** void I2C_WriteBit(unsigned char c)
  19:i2c.c         **** {
  15               		.loc 1 19 0
  16               		.cfi_startproc
  17               	.LVL0:
  18               	/* prologue: function */
  19               	/* frame size = 0 */
  20               	/* stack size = 0 */
  21               	.L__stack_usage = 0
  20:i2c.c         ****     if (c > 0)
  22               		.loc 1 20 0
  23 0000 8823      		tst r24
  24 0002 01F0      		breq .L2
  21:i2c.c         ****     {
  22:i2c.c         ****         I2C_DATA_HI();
  25               		.loc 1 22 0
  26 0004 D198      		cbi 0x1a,1
  27 0006 D99A      		sbi 0x1b,1
  28 0008 00C0      		rjmp .L3
  29               	.L2:
  23:i2c.c         ****     }
  24:i2c.c         ****     else
  25:i2c.c         ****     {
  26:i2c.c         ****         I2C_DATA_LO();
  30               		.loc 1 26 0
  31 000a D19A      		sbi 0x1a,1
  32 000c D998      		cbi 0x1b,1
  33               	.L3:
  27:i2c.c         ****     }
  28:i2c.c         **** 
  29:i2c.c         ****     I2C_CLOCK_HI();
  34               		.loc 1 29 0
  35 000e D098      		cbi 0x1a,0
  36 0010 D89A      		sbi 0x1b,0
  37               	.LVL1:
  38               	.LBB27:
  39               	.LBB28:
  40               		.file 2 "/usr/lib/avr/include/util/delay.h"
   1:/usr/lib/avr/include/util/delay.h **** /* Copyright (c) 2002, Marek Michalkiewicz
   2:/usr/lib/avr/include/util/delay.h ****    Copyright (c) 2004,2005,2007 Joerg Wunsch
   3:/usr/lib/avr/include/util/delay.h ****    Copyright (c) 2007  Florin-Viorel Petrov
   4:/usr/lib/avr/include/util/delay.h ****    All rights reserved.
   5:/usr/lib/avr/include/util/delay.h **** 
   6:/usr/lib/avr/include/util/delay.h ****    Redistribution and use in source and binary forms, with or without
   7:/usr/lib/avr/include/util/delay.h ****    modification, are permitted provided that the following conditions are met:
   8:/usr/lib/avr/include/util/delay.h **** 
   9:/usr/lib/avr/include/util/delay.h ****    * Redistributions of source code must retain the above copyright
  10:/usr/lib/avr/include/util/delay.h ****      notice, this list of conditions and the following disclaimer.
  11:/usr/lib/avr/include/util/delay.h **** 
  12:/usr/lib/avr/include/util/delay.h ****    * Redistributions in binary form must reproduce the above copyright
  13:/usr/lib/avr/include/util/delay.h ****      notice, this list of conditions and the following disclaimer in
  14:/usr/lib/avr/include/util/delay.h ****      the documentation and/or other materials provided with the
  15:/usr/lib/avr/include/util/delay.h ****      distribution.
  16:/usr/lib/avr/include/util/delay.h **** 
  17:/usr/lib/avr/include/util/delay.h ****    * Neither the name of the copyright holders nor the names of
  18:/usr/lib/avr/include/util/delay.h ****      contributors may be used to endorse or promote products derived
  19:/usr/lib/avr/include/util/delay.h ****      from this software without specific prior written permission.
  20:/usr/lib/avr/include/util/delay.h **** 
  21:/usr/lib/avr/include/util/delay.h ****   THIS SOFTWARE IS PROVIDED BY THE COPYRIGHT HOLDERS AND CONTRIBUTORS "AS IS"
  22:/usr/lib/avr/include/util/delay.h ****   AND ANY EXPRESS OR IMPLIED WARRANTIES, INCLUDING, BUT NOT LIMITED TO, THE
  23:/usr/lib/avr/include/util/delay.h ****   IMPLIED WARRANTIES OF MERCHANTABILITY AND FITNESS FOR A PARTICULAR PURPOSE
  24:/usr/lib/avr/include/util/delay.h ****   ARE DISCLAIMED. IN NO EVENT SHALL THE COPYRIGHT OWNER OR CONTRIBUTORS BE
  25:/usr/lib/avr/include/util/delay.h ****   LIABLE FOR ANY DIRECT, INDIRECT, INCIDENTAL, SPECIAL, EXEMPLARY, OR
  26:/usr/lib/avr/include/util/delay.h ****   CONSEQUENTIAL DAMAGES (INCLUDING, BUT NOT LIMITED TO, PROCUREMENT OF
  27:/usr/lib/avr/include/util/delay.h ****   SUBSTITUTE GOODS OR SERVICES; LOSS OF USE, DATA, OR PROFITS; OR BUSINESS
  28:/usr/lib/avr/include/util/delay.h ****   INTERRUPTION) HOWEVER CAUSED AND ON ANY THEORY OF LIABILITY, WHETHER IN
  29:/usr/lib/avr/include/util/delay.h ****   CONTRACT, STRICT LIABILITY, OR TORT (INCLUDING NEGLIGENCE OR OTHERWISE)
  30:/usr/lib/avr/include/util/delay.h ****   ARISING IN ANY WAY OUT OF THE USE OF THIS SOFTWARE, EVEN IF ADVISED OF THE
  31:/usr/lib/avr/include/util/delay.h ****   POSSIBILITY OF SUCH DAMAGE. */
  32:/usr/lib/avr/include/util/delay.h **** 
  33:/usr/lib/avr/include/util/delay.h **** /* $Id$ */
  34:/usr/lib/avr/include/util/delay.h **** 
  35:/usr/lib/avr/include/util/delay.h **** #ifndef _UTIL_DELAY_H_
  36:/usr/lib/avr/include/util/delay.h **** #define _UTIL_DELAY_H_ 1
  37:/usr/lib/avr/include/util/delay.h **** 
  38:/usr/lib/avr/include/util/delay.h **** #ifndef __DOXYGEN__
  39:/usr/lib/avr/include/util/delay.h **** #  ifndef __HAS_DELAY_CYCLES
  40:/usr/lib/avr/include/util/delay.h **** #    define __HAS_DELAY_CYCLES 1
  41:/usr/lib/avr/include/util/delay.h **** #  endif
  42:/usr/lib/avr/include/util/delay.h **** #endif  /* __DOXYGEN__ */
  43:/usr/lib/avr/include/util/delay.h **** 
  44:/usr/lib/avr/include/util/delay.h **** #include <inttypes.h>
  45:/usr/lib/avr/include/util/delay.h **** #include <util/delay_basic.h>
  46:/usr/lib/avr/include/util/delay.h **** #include <math.h>
  47:/usr/lib/avr/include/util/delay.h **** 
  48:/usr/lib/avr/include/util/delay.h **** /** \file */
  49:/usr/lib/avr/include/util/delay.h **** /** \defgroup util_delay <util/delay.h>: Convenience functions for busy-wait delay loops
  50:/usr/lib/avr/include/util/delay.h ****     \code
  51:/usr/lib/avr/include/util/delay.h ****     #define F_CPU 1000000UL  // 1 MHz
  52:/usr/lib/avr/include/util/delay.h ****     //#define F_CPU 14.7456E6
  53:/usr/lib/avr/include/util/delay.h ****     #include <util/delay.h>
  54:/usr/lib/avr/include/util/delay.h ****     \endcode
  55:/usr/lib/avr/include/util/delay.h **** 
  56:/usr/lib/avr/include/util/delay.h ****     \note As an alternative method, it is possible to pass the
  57:/usr/lib/avr/include/util/delay.h ****     F_CPU macro down to the compiler from the Makefile.
  58:/usr/lib/avr/include/util/delay.h ****     Obviously, in that case, no \c \#define statement should be
  59:/usr/lib/avr/include/util/delay.h ****     used.
  60:/usr/lib/avr/include/util/delay.h **** 
  61:/usr/lib/avr/include/util/delay.h ****     The functions in this header file are wrappers around the basic
  62:/usr/lib/avr/include/util/delay.h ****     busy-wait functions from <util/delay_basic.h>.  They are meant as
  63:/usr/lib/avr/include/util/delay.h ****     convenience functions where actual time values can be specified
  64:/usr/lib/avr/include/util/delay.h ****     rather than a number of cycles to wait for.  The idea behind is
  65:/usr/lib/avr/include/util/delay.h ****     that compile-time constant expressions will be eliminated by
  66:/usr/lib/avr/include/util/delay.h ****     compiler optimization so floating-point expressions can be used
  67:/usr/lib/avr/include/util/delay.h ****     to calculate the number of delay cycles needed based on the CPU
  68:/usr/lib/avr/include/util/delay.h ****     frequency passed by the macro F_CPU.
  69:/usr/lib/avr/include/util/delay.h **** 
  70:/usr/lib/avr/include/util/delay.h ****     \note In order for these functions to work as intended, compiler
  71:/usr/lib/avr/include/util/delay.h ****     optimizations <em>must</em> be enabled, and the delay time
  72:/usr/lib/avr/include/util/delay.h ****     <em>must</em> be an expression that is a known constant at
  73:/usr/lib/avr/include/util/delay.h ****     compile-time.  If these requirements are not met, the resulting
  74:/usr/lib/avr/include/util/delay.h ****     delay will be much longer (and basically unpredictable), and
  75:/usr/lib/avr/include/util/delay.h ****     applications that otherwise do not use floating-point calculations
  76:/usr/lib/avr/include/util/delay.h ****     will experience severe code bloat by the floating-point library
  77:/usr/lib/avr/include/util/delay.h ****     routines linked into the application.
  78:/usr/lib/avr/include/util/delay.h **** 
  79:/usr/lib/avr/include/util/delay.h ****     The functions available allow the specification of microsecond, and
  80:/usr/lib/avr/include/util/delay.h ****     millisecond delays directly, using the application-supplied macro
  81:/usr/lib/avr/include/util/delay.h ****     F_CPU as the CPU clock frequency (in Hertz).
  82:/usr/lib/avr/include/util/delay.h **** 
  83:/usr/lib/avr/include/util/delay.h **** */
  84:/usr/lib/avr/include/util/delay.h **** 
  85:/usr/lib/avr/include/util/delay.h **** #if !defined(__DOXYGEN__)
  86:/usr/lib/avr/include/util/delay.h **** static __inline__ void _delay_us(double __us) __attribute__((__always_inline__));
  87:/usr/lib/avr/include/util/delay.h **** static __inline__ void _delay_ms(double __ms) __attribute__((__always_inline__));
  88:/usr/lib/avr/include/util/delay.h **** #endif
  89:/usr/lib/avr/include/util/delay.h **** 
  90:/usr/lib/avr/include/util/delay.h **** #ifndef F_CPU
  91:/usr/lib/avr/include/util/delay.h **** /* prevent compiler error by supplying a default */
  92:/usr/lib/avr/include/util/delay.h **** # warning "F_CPU not defined for <util/delay.h>"
  93:/usr/lib/avr/include/util/delay.h **** /** \ingroup util_delay
  94:/usr/lib/avr/include/util/delay.h ****     \def F_CPU
  95:/usr/lib/avr/include/util/delay.h ****     \brief CPU frequency in Hz
  96:/usr/lib/avr/include/util/delay.h **** 
  97:/usr/lib/avr/include/util/delay.h ****     The macro F_CPU specifies the CPU frequency to be considered by
  98:/usr/lib/avr/include/util/delay.h ****     the delay macros.  This macro is normally supplied by the
  99:/usr/lib/avr/include/util/delay.h ****     environment (e.g. from within a project header, or the project's
 100:/usr/lib/avr/include/util/delay.h ****     Makefile).  The value 1 MHz here is only provided as a "vanilla"
 101:/usr/lib/avr/include/util/delay.h ****     fallback if no such user-provided definition could be found.
 102:/usr/lib/avr/include/util/delay.h **** 
 103:/usr/lib/avr/include/util/delay.h ****     In terms of the delay functions, the CPU frequency can be given as
 104:/usr/lib/avr/include/util/delay.h ****     a floating-point constant (e.g. 3.6864E6 for 3.6864 MHz).
 105:/usr/lib/avr/include/util/delay.h ****     However, the macros in <util/setbaud.h> require it to be an
 106:/usr/lib/avr/include/util/delay.h ****     integer value.
 107:/usr/lib/avr/include/util/delay.h ****  */
 108:/usr/lib/avr/include/util/delay.h **** # define F_CPU 1000000UL
 109:/usr/lib/avr/include/util/delay.h **** #endif
 110:/usr/lib/avr/include/util/delay.h **** 
 111:/usr/lib/avr/include/util/delay.h **** #ifndef __OPTIMIZE__
 112:/usr/lib/avr/include/util/delay.h **** # warning "Compiler optimizations disabled; functions from <util/delay.h> won't work as designed"
 113:/usr/lib/avr/include/util/delay.h **** #endif
 114:/usr/lib/avr/include/util/delay.h **** 
 115:/usr/lib/avr/include/util/delay.h **** #if __HAS_DELAY_CYCLES && defined(__OPTIMIZE__) && \
 116:/usr/lib/avr/include/util/delay.h ****   !defined(__DELAY_BACKWARD_COMPATIBLE__) &&	   \
 117:/usr/lib/avr/include/util/delay.h ****   __STDC_HOSTED__
 118:/usr/lib/avr/include/util/delay.h **** #  include <math.h>
 119:/usr/lib/avr/include/util/delay.h **** #endif
 120:/usr/lib/avr/include/util/delay.h **** 
 121:/usr/lib/avr/include/util/delay.h **** /**
 122:/usr/lib/avr/include/util/delay.h ****    \ingroup util_delay
 123:/usr/lib/avr/include/util/delay.h **** 
 124:/usr/lib/avr/include/util/delay.h ****    Perform a delay of \c __ms milliseconds, using _delay_loop_2().
 125:/usr/lib/avr/include/util/delay.h **** 
 126:/usr/lib/avr/include/util/delay.h ****    The macro F_CPU is supposed to be defined to a
 127:/usr/lib/avr/include/util/delay.h ****    constant defining the CPU clock frequency (in Hertz).
 128:/usr/lib/avr/include/util/delay.h **** 
 129:/usr/lib/avr/include/util/delay.h ****    The maximal possible delay is 262.14 ms / F_CPU in MHz.
 130:/usr/lib/avr/include/util/delay.h **** 
 131:/usr/lib/avr/include/util/delay.h ****    When the user request delay which exceed the maximum possible one,
 132:/usr/lib/avr/include/util/delay.h ****    _delay_ms() provides a decreased resolution functionality. In this
 133:/usr/lib/avr/include/util/delay.h ****    mode _delay_ms() will work with a resolution of 1/10 ms, providing
 134:/usr/lib/avr/include/util/delay.h ****    delays up to 6.5535 seconds (independent from CPU frequency).  The
 135:/usr/lib/avr/include/util/delay.h ****    user will not be informed about decreased resolution.
 136:/usr/lib/avr/include/util/delay.h **** 
 137:/usr/lib/avr/include/util/delay.h ****    If the avr-gcc toolchain has __builtin_avr_delay_cycles()
 138:/usr/lib/avr/include/util/delay.h ****    support, maximal possible delay is 4294967.295 ms/ F_CPU in MHz. For
 139:/usr/lib/avr/include/util/delay.h ****    values greater than the maximal possible delay, overflows results in
 140:/usr/lib/avr/include/util/delay.h ****    no delay i.e., 0ms.
 141:/usr/lib/avr/include/util/delay.h **** 
 142:/usr/lib/avr/include/util/delay.h ****    Conversion of \c __ms into clock cycles may not always result in
 143:/usr/lib/avr/include/util/delay.h ****    integer.  By default, the clock cycles rounded up to next
 144:/usr/lib/avr/include/util/delay.h ****    integer. This ensures that the user gets at least \c __ms
 145:/usr/lib/avr/include/util/delay.h ****    microseconds of delay.
 146:/usr/lib/avr/include/util/delay.h **** 
 147:/usr/lib/avr/include/util/delay.h ****    Alternatively, by defining the macro \c __DELAY_ROUND_DOWN__, or
 148:/usr/lib/avr/include/util/delay.h ****    \c __DELAY_ROUND_CLOSEST__, before including this header file, the
 149:/usr/lib/avr/include/util/delay.h ****    algorithm can be made to round down, or round to closest integer,
 150:/usr/lib/avr/include/util/delay.h ****    respectively.
 151:/usr/lib/avr/include/util/delay.h **** 
 152:/usr/lib/avr/include/util/delay.h ****    \note
 153:/usr/lib/avr/include/util/delay.h **** 
 154:/usr/lib/avr/include/util/delay.h ****    The implementation of _delay_ms() based on
 155:/usr/lib/avr/include/util/delay.h ****    __builtin_avr_delay_cycles() is not backward compatible with older
 156:/usr/lib/avr/include/util/delay.h ****    implementations.  In order to get functionality backward compatible
 157:/usr/lib/avr/include/util/delay.h ****    with previous versions, the macro \c "__DELAY_BACKWARD_COMPATIBLE__"
 158:/usr/lib/avr/include/util/delay.h ****    must be defined before including this header file. Also, the
 159:/usr/lib/avr/include/util/delay.h ****    backward compatible algorithm will be chosen if the code is
 160:/usr/lib/avr/include/util/delay.h ****    compiled in a <em>freestanding environment</em> (GCC option
 161:/usr/lib/avr/include/util/delay.h ****    \c -ffreestanding), as the math functions required for rounding are
 162:/usr/lib/avr/include/util/delay.h ****    not available to the compiler then.
 163:/usr/lib/avr/include/util/delay.h **** 
 164:/usr/lib/avr/include/util/delay.h ****  */
 165:/usr/lib/avr/include/util/delay.h **** void
 166:/usr/lib/avr/include/util/delay.h **** _delay_ms(double __ms)
 167:/usr/lib/avr/include/util/delay.h **** {
 168:/usr/lib/avr/include/util/delay.h **** 	double __tmp ;
 169:/usr/lib/avr/include/util/delay.h **** #if __HAS_DELAY_CYCLES && defined(__OPTIMIZE__) && \
 170:/usr/lib/avr/include/util/delay.h ****   !defined(__DELAY_BACKWARD_COMPATIBLE__) &&	   \
 171:/usr/lib/avr/include/util/delay.h ****   __STDC_HOSTED__
 172:/usr/lib/avr/include/util/delay.h **** 	uint32_t __ticks_dc;
 173:/usr/lib/avr/include/util/delay.h **** 	extern void __builtin_avr_delay_cycles(unsigned long);
 174:/usr/lib/avr/include/util/delay.h **** 	__tmp = ((F_CPU) / 1e3) * __ms;
 175:/usr/lib/avr/include/util/delay.h **** 
 176:/usr/lib/avr/include/util/delay.h **** 	#if defined(__DELAY_ROUND_DOWN__)
 177:/usr/lib/avr/include/util/delay.h **** 		__ticks_dc = (uint32_t)fabs(__tmp);
 178:/usr/lib/avr/include/util/delay.h **** 
 179:/usr/lib/avr/include/util/delay.h **** 	#elif defined(__DELAY_ROUND_CLOSEST__)
 180:/usr/lib/avr/include/util/delay.h **** 		__ticks_dc = (uint32_t)(fabs(__tmp)+0.5);
 181:/usr/lib/avr/include/util/delay.h **** 
 182:/usr/lib/avr/include/util/delay.h **** 	#else
 183:/usr/lib/avr/include/util/delay.h **** 		//round up by default
 184:/usr/lib/avr/include/util/delay.h **** 		__ticks_dc = (uint32_t)(ceil(fabs(__tmp)));
 185:/usr/lib/avr/include/util/delay.h **** 	#endif
 186:/usr/lib/avr/include/util/delay.h **** 
 187:/usr/lib/avr/include/util/delay.h **** 	__builtin_avr_delay_cycles(__ticks_dc);
  41               		.loc 2 187 0
  42 0012 EFEC      		ldi r30,lo8(1999)
  43 0014 F7E0      		ldi r31,hi8(1999)
  44 0016 3197      	1:	sbiw r30,1
  45 0018 01F4      		brne 1b
  46 001a 00C0      		rjmp .
  47 001c 0000      		nop
  48               	.LVL2:
  49               	.LBE28:
  50               	.LBE27:
  30:i2c.c         ****     _delay_ms(1);
  31:i2c.c         **** 
  32:i2c.c         ****     I2C_CLOCK_LO();
  51               		.loc 1 32 0
  52 001e D09A      		sbi 0x1a,0
  53 0020 D898      		cbi 0x1b,0
  54               	.LVL3:
  55               	.LBB29:
  56               	.LBB30:
  57               		.loc 2 187 0
  58 0022 EFEC      		ldi r30,lo8(1999)
  59 0024 F7E0      		ldi r31,hi8(1999)
  60 0026 3197      	1:	sbiw r30,1
  61 0028 01F4      		brne 1b
  62 002a 00C0      		rjmp .
  63 002c 0000      		nop
  64               	.LVL4:
  65               	.LBE30:
  66               	.LBE29:
  33:i2c.c         ****     _delay_ms(1);
  34:i2c.c         **** 
  35:i2c.c         ****     if (c > 0)
  67               		.loc 1 35 0
  68 002e 8823      		tst r24
  69 0030 01F0      		breq .L4
  36:i2c.c         ****     {
  37:i2c.c         ****         I2C_DATA_LO();
  70               		.loc 1 37 0
  71 0032 D19A      		sbi 0x1a,1
  72 0034 D998      		cbi 0x1b,1
  73               	.L4:
  74               	.LVL5:
  75               	.LBB31:
  76               	.LBB32:
  77               		.loc 2 187 0
  78 0036 8FEC      		ldi r24,lo8(1999)
  79 0038 97E0      		ldi r25,hi8(1999)
  80 003a 0197      	1:	sbiw r24,1
  81 003c 01F4      		brne 1b
  82               	.LVL6:
  83 003e 00C0      		rjmp .
  84 0040 0000      		nop
  85               	.LVL7:
  86 0042 0895      		ret
  87               	.LBE32:
  88               	.LBE31:
  89               		.cfi_endproc
  90               	.LFE6:
  92               	.global	I2C_ReadBit
  94               	I2C_ReadBit:
  95               	.LFB7:
  38:i2c.c         ****     }
  39:i2c.c         **** 
  40:i2c.c         ****     _delay_ms(1);
  41:i2c.c         **** }
  42:i2c.c         **** 
  43:i2c.c         **** unsigned char I2C_ReadBit()
  44:i2c.c         **** {
  96               		.loc 1 44 0
  97               		.cfi_startproc
  98               	/* prologue: function */
  99               	/* frame size = 0 */
 100               	/* stack size = 0 */
 101               	.L__stack_usage = 0
  45:i2c.c         ****     I2C_DATA_HI();
 102               		.loc 1 45 0
 103 0044 D198      		cbi 0x1a,1
 104 0046 D99A      		sbi 0x1b,1
  46:i2c.c         **** 
  47:i2c.c         ****     I2C_CLOCK_HI();
 105               		.loc 1 47 0
 106 0048 D098      		cbi 0x1a,0
 107 004a D89A      		sbi 0x1b,0
 108               	.LVL8:
 109               	.LBB33:
 110               	.LBB34:
 111               		.loc 2 187 0
 112 004c 8FEC      		ldi r24,lo8(1999)
 113 004e 97E0      		ldi r25,hi8(1999)
 114 0050 0197      	1:	sbiw r24,1
 115 0052 01F4      		brne 1b
 116 0054 00C0      		rjmp .
 117 0056 0000      		nop
 118               	.LVL9:
 119               	.LBE34:
 120               	.LBE33:
  48:i2c.c         ****     _delay_ms(1);
  49:i2c.c         **** 
  50:i2c.c         ****     unsigned char c = I2C_PIN;
 121               		.loc 1 50 0
 122 0058 89B3      		in r24,0x19
 123               	.LVL10:
  51:i2c.c         **** 
  52:i2c.c         ****     I2C_CLOCK_LO();
 124               		.loc 1 52 0
 125 005a D09A      		sbi 0x1a,0
 126 005c D898      		cbi 0x1b,0
 127               	.LVL11:
 128               	.LBB35:
 129               	.LBB36:
 130               		.loc 2 187 0
 131 005e EFEC      		ldi r30,lo8(1999)
 132 0060 F7E0      		ldi r31,hi8(1999)
 133 0062 3197      	1:	sbiw r30,1
 134 0064 01F4      		brne 1b
 135 0066 00C0      		rjmp .
 136 0068 0000      		nop
 137               	.LVL12:
 138               	.LBE36:
 139               	.LBE35:
  53:i2c.c         ****     _delay_ms(1);
  54:i2c.c         **** 
  55:i2c.c         ****     return (c >> I2C_DAT) & 1;
  56:i2c.c         **** }
 140               		.loc 1 56 0
 141 006a 8695      		lsr r24
 142 006c 8170      		andi r24,1
 143               	.LVL13:
 144 006e 0895      		ret
 145               		.cfi_endproc
 146               	.LFE7:
 148               	.global	I2C_Init
 150               	I2C_Init:
 151               	.LFB8:
  57:i2c.c         **** 
  58:i2c.c         **** // Inits bitbanging port, must be called before using the functions below
  59:i2c.c         **** //
  60:i2c.c         **** void I2C_Init()
  61:i2c.c         **** {
 152               		.loc 1 61 0
 153               		.cfi_startproc
 154               	/* prologue: function */
 155               	/* frame size = 0 */
 156               	/* stack size = 0 */
 157               	.L__stack_usage = 0
  62:i2c.c         ****     I2C_PORT &= ~ ((1 << I2C_DAT) | (1 << I2C_CLK));
 158               		.loc 1 62 0
 159 0070 8BB3      		in r24,0x1b
 160 0072 8C7F      		andi r24,lo8(-4)
 161 0074 8BBB      		out 0x1b,r24
  63:i2c.c         **** 
  64:i2c.c         ****     I2C_CLOCK_HI();
 162               		.loc 1 64 0
 163 0076 D098      		cbi 0x1a,0
 164 0078 D89A      		sbi 0x1b,0
  65:i2c.c         ****     I2C_DATA_HI();
 165               		.loc 1 65 0
 166 007a D198      		cbi 0x1a,1
 167 007c D99A      		sbi 0x1b,1
 168               	.LVL14:
 169               	.LBB37:
 170               	.LBB38:
 171               		.loc 2 187 0
 172 007e 8FEC      		ldi r24,lo8(1999)
 173 0080 97E0      		ldi r25,hi8(1999)
 174 0082 0197      	1:	sbiw r24,1
 175 0084 01F4      		brne 1b
 176 0086 00C0      		rjmp .
 177 0088 0000      		nop
 178               	.LVL15:
 179 008a 0895      		ret
 180               	.LBE38:
 181               	.LBE37:
 182               		.cfi_endproc
 183               	.LFE8:
 185               	.global	I2C_Start
 187               	I2C_Start:
 188               	.LFB9:
  66:i2c.c         **** 
  67:i2c.c         ****     _delay_ms(1);
  68:i2c.c         **** }
  69:i2c.c         **** 
  70:i2c.c         **** // Send a START Condition
  71:i2c.c         **** //
  72:i2c.c         **** void I2C_Start()
  73:i2c.c         **** {
 189               		.loc 1 73 0
 190               		.cfi_startproc
 191               	/* prologue: function */
 192               	/* frame size = 0 */
 193               	/* stack size = 0 */
 194               	.L__stack_usage = 0
  74:i2c.c         ****     // set both to high at the same time
  75:i2c.c         ****     I2C_DDR &= ~ ((1 << I2C_DAT) | (1 << I2C_CLK));
 195               		.loc 1 75 0
 196 008c 8AB3      		in r24,0x1a
 197 008e 8C7F      		andi r24,lo8(-4)
 198 0090 8ABB      		out 0x1a,r24
 199               	.LVL16:
 200               	.LBB39:
 201               	.LBB40:
 202               		.loc 2 187 0
 203 0092 8FEC      		ldi r24,lo8(1999)
 204 0094 97E0      		ldi r25,hi8(1999)
 205 0096 0197      	1:	sbiw r24,1
 206 0098 01F4      		brne 1b
 207 009a 00C0      		rjmp .
 208 009c 0000      		nop
 209               	.LVL17:
 210               	.LBE40:
 211               	.LBE39:
  76:i2c.c         ****     _delay_ms(1);
  77:i2c.c         **** 
  78:i2c.c         ****     I2C_DATA_LO();
 212               		.loc 1 78 0
 213 009e D19A      		sbi 0x1a,1
 214 00a0 D998      		cbi 0x1b,1
 215               	.LVL18:
 216               	.LBB41:
 217               	.LBB42:
 218               		.loc 2 187 0
 219 00a2 8FEC      		ldi r24,lo8(1999)
 220 00a4 97E0      		ldi r25,hi8(1999)
 221 00a6 0197      	1:	sbiw r24,1
 222 00a8 01F4      		brne 1b
 223 00aa 00C0      		rjmp .
 224 00ac 0000      		nop
 225               	.LVL19:
 226               	.LBE42:
 227               	.LBE41:
  79:i2c.c         ****     _delay_ms(1);
  80:i2c.c         **** 
  81:i2c.c         ****     I2C_CLOCK_LO();
 228               		.loc 1 81 0
 229 00ae D09A      		sbi 0x1a,0
 230 00b0 D898      		cbi 0x1b,0
 231               	.LVL20:
 232               	.LBB43:
 233               	.LBB44:
 234               		.loc 2 187 0
 235 00b2 8FEC      		ldi r24,lo8(1999)
 236 00b4 97E0      		ldi r25,hi8(1999)
 237 00b6 0197      	1:	sbiw r24,1
 238 00b8 01F4      		brne 1b
 239 00ba 00C0      		rjmp .
 240 00bc 0000      		nop
 241               	.LVL21:
 242 00be 0895      		ret
 243               	.LBE44:
 244               	.LBE43:
 245               		.cfi_endproc
 246               	.LFE9:
 248               	.global	I2C_Stop
 250               	I2C_Stop:
 251               	.LFB10:
  82:i2c.c         ****     _delay_ms(1);
  83:i2c.c         **** }
  84:i2c.c         **** 
  85:i2c.c         **** // Send a STOP Condition
  86:i2c.c         **** //
  87:i2c.c         **** void I2C_Stop()
  88:i2c.c         **** {
 252               		.loc 1 88 0
 253               		.cfi_startproc
 254               	/* prologue: function */
 255               	/* frame size = 0 */
 256               	/* stack size = 0 */
 257               	.L__stack_usage = 0
  89:i2c.c         ****     I2C_CLOCK_HI();
 258               		.loc 1 89 0
 259 00c0 D098      		cbi 0x1a,0
 260 00c2 D89A      		sbi 0x1b,0
 261               	.LVL22:
 262               	.LBB45:
 263               	.LBB46:
 264               		.loc 2 187 0
 265 00c4 8FEC      		ldi r24,lo8(1999)
 266 00c6 97E0      		ldi r25,hi8(1999)
 267 00c8 0197      	1:	sbiw r24,1
 268 00ca 01F4      		brne 1b
 269 00cc 00C0      		rjmp .
 270 00ce 0000      		nop
 271               	.LVL23:
 272               	.LBE46:
 273               	.LBE45:
  90:i2c.c         ****     _delay_ms(1);
  91:i2c.c         **** 
  92:i2c.c         ****     I2C_DATA_HI();
 274               		.loc 1 92 0
 275 00d0 D198      		cbi 0x1a,1
 276 00d2 D99A      		sbi 0x1b,1
 277               	.LVL24:
 278               	.LBB47:
 279               	.LBB48:
 280               		.loc 2 187 0
 281 00d4 8FEC      		ldi r24,lo8(1999)
 282 00d6 97E0      		ldi r25,hi8(1999)
 283 00d8 0197      	1:	sbiw r24,1
 284 00da 01F4      		brne 1b
 285 00dc 00C0      		rjmp .
 286 00de 0000      		nop
 287               	.LVL25:
 288 00e0 0895      		ret
 289               	.LBE48:
 290               	.LBE47:
 291               		.cfi_endproc
 292               	.LFE10:
 294               	.global	I2C_Write
 296               	I2C_Write:
 297               	.LFB11:
  93:i2c.c         ****     _delay_ms(1);
  94:i2c.c         **** }
  95:i2c.c         **** 
  96:i2c.c         **** // write a byte to the I2C slave device
  97:i2c.c         **** //
  98:i2c.c         **** unsigned char I2C_Write(unsigned char c)
  99:i2c.c         **** {
 298               		.loc 1 99 0
 299               		.cfi_startproc
 300               	.LVL26:
 301 00e2 CF93      		push r28
 302               	.LCFI0:
 303               		.cfi_def_cfa_offset 3
 304               		.cfi_offset 28, -2
 305 00e4 DF93      		push r29
 306               	.LCFI1:
 307               		.cfi_def_cfa_offset 4
 308               		.cfi_offset 29, -3
 309               	/* prologue: function */
 310               	/* frame size = 0 */
 311               	/* stack size = 2 */
 312               	.L__stack_usage = 2
 313 00e6 D82F      		mov r29,r24
 314               	.LVL27:
 315               		.loc 1 99 0
 316 00e8 C8E0      		ldi r28,lo8(8)
 317               	.LVL28:
 318               	.L14:
 319               	.LBB49:
 100:i2c.c         ****     for (char i = 0; i < 8; i++)
 101:i2c.c         ****     {
 102:i2c.c         ****         I2C_WriteBit(c & 128);
 320               		.loc 1 102 0 discriminator 3
 321 00ea 8D2F      		mov r24,r29
 322 00ec 8078      		andi r24,lo8(-128)
 323 00ee 00D0      		rcall I2C_WriteBit
 324               	.LVL29:
 103:i2c.c         **** 
 104:i2c.c         ****         c <<= 1;
 325               		.loc 1 104 0 discriminator 3
 326 00f0 DD0F      		lsl r29
 327               	.LVL30:
 328 00f2 C150      		subi r28,lo8(-(-1))
 329               	.LVL31:
 100:i2c.c         ****     for (char i = 0; i < 8; i++)
 330               		.loc 1 100 0 discriminator 3
 331 00f4 01F4      		brne .L14
 332               	.LBE49:
 105:i2c.c         ****     }
 106:i2c.c         **** 
 107:i2c.c         ****     //return I2C_ReadBit();
 108:i2c.c         ****     return 0;
 109:i2c.c         **** }
 333               		.loc 1 109 0
 334 00f6 80E0      		ldi r24,0
 335               	/* epilogue start */
 336 00f8 DF91      		pop r29
 337               	.LVL32:
 338 00fa CF91      		pop r28
 339               	.LVL33:
 340 00fc 0895      		ret
 341               		.cfi_endproc
 342               	.LFE11:
 344               	.global	I2C_Read
 346               	I2C_Read:
 347               	.LFB12:
 110:i2c.c         **** 
 111:i2c.c         **** 
 112:i2c.c         **** // read a byte from the I2C slave device
 113:i2c.c         **** //
 114:i2c.c         **** unsigned char I2C_Read(unsigned char ack)
 115:i2c.c         **** {
 348               		.loc 1 115 0
 349               		.cfi_startproc
 350               	.LVL34:
 351 00fe 1F93      		push r17
 352               	.LCFI2:
 353               		.cfi_def_cfa_offset 3
 354               		.cfi_offset 17, -2
 355 0100 CF93      		push r28
 356               	.LCFI3:
 357               		.cfi_def_cfa_offset 4
 358               		.cfi_offset 28, -3
 359 0102 DF93      		push r29
 360               	.LCFI4:
 361               		.cfi_def_cfa_offset 5
 362               		.cfi_offset 29, -4
 363               	/* prologue: function */
 364               	/* frame size = 0 */
 365               	/* stack size = 3 */
 366               	.L__stack_usage = 3
 367 0104 182F      		mov r17,r24
 368               	.LVL35:
 369               		.loc 1 115 0
 370 0106 D8E0      		ldi r29,lo8(8)
 116:i2c.c         ****     unsigned char res = 0;
 371               		.loc 1 116 0
 372 0108 C0E0      		ldi r28,0
 373               	.LVL36:
 374               	.L17:
 375               	.LBB50:
 117:i2c.c         **** 
 118:i2c.c         ****     for (char i = 0; i < 8; i++)
 119:i2c.c         ****     {
 120:i2c.c         ****         res <<= 1;
 376               		.loc 1 120 0 discriminator 3
 377 010a CC0F      		lsl r28
 378               	.LVL37:
 121:i2c.c         ****         res |= I2C_ReadBit();
 379               		.loc 1 121 0 discriminator 3
 380 010c 00D0      		rcall I2C_ReadBit
 381               	.LVL38:
 382 010e C82B      		or r28,r24
 383               	.LVL39:
 384 0110 D150      		subi r29,lo8(-(-1))
 385               	.LVL40:
 118:i2c.c         ****     {
 386               		.loc 1 118 0 discriminator 3
 387 0112 01F4      		brne .L17
 388               	.LBE50:
 122:i2c.c         ****     }
 123:i2c.c         ****     
 124:i2c.c         ****     if (ack > 0)
 389               		.loc 1 124 0
 390 0114 1123      		tst r17
 391 0116 01F0      		breq .L18
 125:i2c.c         ****     {
 126:i2c.c         ****         I2C_WriteBit(0);
 392               		.loc 1 126 0
 393 0118 80E0      		ldi r24,0
 394 011a 00C0      		rjmp .L21
 395               	.L18:
 127:i2c.c         ****     }
 128:i2c.c         ****     else
 129:i2c.c         ****     {
 130:i2c.c         ****         I2C_WriteBit(1);
 396               		.loc 1 130 0
 397 011c 81E0      		ldi r24,lo8(1)
 398               	.L21:
 399 011e 00D0      		rcall I2C_WriteBit
 400               	.LVL41:
 401               	.LBB51:
 402               	.LBB52:
 403               		.loc 2 187 0
 404 0120 8FEC      		ldi r24,lo8(1999)
 405 0122 97E0      		ldi r25,hi8(1999)
 406 0124 0197      	1:	sbiw r24,1
 407 0126 01F4      		brne 1b
 408 0128 00C0      		rjmp .
 409 012a 0000      		nop
 410               	.LVL42:
 411               	.LBE52:
 412               	.LBE51:
 131:i2c.c         ****     }
 132:i2c.c         **** 
 133:i2c.c         ****     _delay_ms(1);
 134:i2c.c         **** 
 135:i2c.c         ****     return res;
 136:i2c.c         **** }
 413               		.loc 1 136 0
 414 012c 8C2F      		mov r24,r28
 415               	/* epilogue start */
 416 012e DF91      		pop r29
 417               	.LVL43:
 418 0130 CF91      		pop r28
 419               	.LVL44:
 420 0132 1F91      		pop r17
 421               	.LVL45:
 422 0134 0895      		ret
 423               		.cfi_endproc
 424               	.LFE12:
 426               	.Letext0:
 427               		.file 3 "/usr/lib/avr/include/stdint.h"
DEFINED SYMBOLS
                            *ABS*:0000000000000000 i2c.c
     /tmp/cckrfCsu.s:2      *ABS*:000000000000003e __SP_H__
     /tmp/cckrfCsu.s:3      *ABS*:000000000000003d __SP_L__
     /tmp/cckrfCsu.s:4      *ABS*:000000000000003f __SREG__
     /tmp/cckrfCsu.s:5      *ABS*:0000000000000000 __tmp_reg__
     /tmp/cckrfCsu.s:6      *ABS*:0000000000000001 __zero_reg__
     /tmp/cckrfCsu.s:12     .text:0000000000000000 I2C_WriteBit
     /tmp/cckrfCsu.s:94     .text:0000000000000044 I2C_ReadBit
     /tmp/cckrfCsu.s:150    .text:0000000000000070 I2C_Init
     /tmp/cckrfCsu.s:187    .text:000000000000008c I2C_Start
     /tmp/cckrfCsu.s:250    .text:00000000000000c0 I2C_Stop
     /tmp/cckrfCsu.s:296    .text:00000000000000e2 I2C_Write
     /tmp/cckrfCsu.s:346    .text:00000000000000fe I2C_Read

NO UNDEFINED SYMBOLS
